<svg width="30" height="40" viewBox="0 0 30 40" fill="none" xmlns="http://www.w3.org/2000/svg">
<path fill-rule="evenodd" clip-rule="evenodd" d="M6.73047 26.2178C8.20446 27.2912 8.75008 28.3603 8.75 29.8439H21.25C21.25 28.3603 21.7956 27.2912 23.2696 26.2178C26.7804 23.6612 29.0625 19.5192 29.0625 14.8438C29.0625 7.07727 22.7665 0.78125 15 0.78125C7.23352 0.78125 0.9375 7.07727 0.9375 14.8438C0.9375 19.5192 3.21961 23.6612 6.73047 26.2178Z" fill="#FFC93C"/>
<path fill-rule="evenodd" clip-rule="evenodd" d="M21.25 29.844H8.75C7.89062 29.844 7.1875 30.547 7.1875 31.4065C7.1875 32.2659 7.89062 32.969 8.75 32.969H21.25C22.1094 32.969 22.8125 32.2659 22.8125 31.4065C22.8125 30.5471 22.1095 29.844 21.25 29.844Z" fill="#F3EFF0"/>
<path fill-rule="evenodd" clip-rule="evenodd" d="M21.2501 32.9688H8.75C7.89062 32.9688 7.1875 33.6718 7.1875 34.5312C7.1875 35.3907 7.89055 36.0938 8.75 36.0938H21.25C22.1094 36.0938 22.8125 35.3907 22.8125 34.5312C22.8125 33.6719 22.1095 32.9688 21.2501 32.9688Z" fill="#F3EFF0"/>
<path fill-rule="evenodd" clip-rule="evenodd" d="M21.2501 36.0938H8.75V37.6562C8.75 38.5156 9.45328 39.2187 10.3125 39.2187H19.6876C20.5467 39.2187 21.2501 38.5154 21.2501 37.6562V36.0938Z" fill="#8690AF"/>
<path fill-rule="evenodd" clip-rule="evenodd" d="M16.6365 18.6487C16.6365 19.5525 15.9038 20.2853 15 20.2853C14.0961 20.2853 13.3634 19.5525 13.3634 18.6487C13.3634 16.3681 13.512 16.2226 15.6536 14.1268C15.8022 13.9815 15.963 13.8241 16.1369 13.6528C16.2868 13.5051 16.4081 13.3271 16.4914 13.1281C16.5707 12.9388 16.6145 12.7267 16.6145 12.4999C16.6145 12.0539 16.4338 11.6502 16.1418 11.3581C15.8497 11.0661 15.446 10.8853 15 10.8853C14.6949 10.8853 14.4122 10.9671 14.1727 11.1094C13.9206 11.2592 13.7136 11.4726 13.5755 11.7261C13.1448 12.5169 12.1544 12.8089 11.3636 12.3781C10.5728 11.9474 10.2808 10.9571 10.7115 10.1662C11.1341 9.39105 11.7575 8.74402 12.5106 8.2966C13.2422 7.86191 14.0936 7.6123 15 7.6123C16.3494 7.6123 17.5714 8.15941 18.4559 9.04394C19.3404 9.92847 19.8876 11.1504 19.8876 12.4999C19.8876 13.1625 19.7529 13.7983 19.5088 14.381C19.2563 14.984 18.8857 15.5265 18.4255 15.9797C18.2515 16.151 18.0907 16.3085 17.9422 16.4538C16.7213 17.6487 16.6365 17.7317 16.6365 18.6487Z" fill="white"/>
<path d="M16.6096 24.5246C16.7542 23.6325 16.1482 22.7921 15.2561 22.6475C14.364 22.5029 13.5236 23.1088 13.379 24.0009C13.2344 24.893 13.8403 25.7334 14.7324 25.8781C15.6245 26.0227 16.4649 25.4167 16.6096 24.5246Z" fill="white"/>
<path d="M15 0C12.3334 0 9.71716 0.716327 7.43412 2.07148C7.06311 2.29171 6.94084 2.77101 7.16108 3.1421C7.38131 3.5132 7.86084 3.63538 8.2317 3.41515C10.2736 2.20312 12.614 1.5625 15 1.5625C22.3232 1.5625 28.2812 7.52045 28.2812 14.8437C28.2812 19.0754 26.2357 23.0912 22.8096 25.5862C21.4157 26.6013 20.7031 27.6694 20.5185 29.0626H9.48154C9.29693 27.6694 8.58428 26.6013 7.19037 25.5861C3.76421 23.0912 1.71875 19.0754 1.71875 14.8437C1.71875 12.4572 2.35945 10.1166 3.57155 8.07514C3.79179 7.70413 3.6696 7.22483 3.29866 7.00452C2.92773 6.78421 2.44828 6.90647 2.22804 7.27741C0.872654 9.56022 0.15625 12.1765 0.15625 14.8437C0.15625 17.223 0.733045 19.589 1.82437 21.686C2.88007 23.7145 4.41749 25.5 6.27053 26.8492C7.28092 27.5851 7.77819 28.2831 7.92217 29.2141C7.03725 29.5493 6.40624 30.4053 6.40624 31.4063C6.40624 32.0062 6.63295 32.5538 7.00491 32.9688C6.63295 33.3838 6.40624 33.9315 6.40624 34.5313C6.40624 35.5498 7.05944 36.4182 7.96873 36.7407V37.6563C7.96873 38.9487 9.02013 40.0001 10.3125 40.0001H19.6875C20.9798 40.0001 22.0312 38.9487 22.0312 37.6563V36.7407C22.9405 36.4182 23.5937 35.5499 23.5937 34.5314C23.5937 33.9316 23.367 33.3839 22.995 32.9689C23.367 32.5539 23.5937 32.0063 23.5937 31.4064C23.5937 30.4054 22.9628 29.5494 22.0778 29.2142C22.2217 28.2833 22.719 27.5852 23.7294 26.8494C25.5824 25.5 27.1198 23.7146 28.1756 21.6861C29.2669 19.589 29.8437 17.223 29.8437 14.8437C29.8437 6.65882 23.1849 0 15 0V0ZM19.6875 38.4375H10.3125C9.8817 38.4375 9.53123 38.087 9.53123 37.6563V36.875H20.4687V37.6563C20.4687 38.087 20.1183 38.4375 19.6875 38.4375ZM21.25 35.3125H8.74998C8.3192 35.3125 7.96873 34.962 7.96873 34.5313C7.96873 34.1005 8.3192 33.75 8.74998 33.75H11.484C11.9155 33.75 12.2653 33.4002 12.2653 32.9688C12.2653 32.5373 11.9155 32.1875 11.484 32.1875H8.74998C8.3192 32.1875 7.96873 31.837 7.96873 31.4063C7.96873 30.9755 8.3192 30.625 8.74998 30.625H21.25C21.6807 30.625 22.0312 30.9755 22.0312 31.4063C22.0312 31.837 21.6807 32.1875 21.25 32.1875H18.5153C18.0838 32.1875 17.734 32.5373 17.734 32.9688C17.734 33.4002 18.0838 33.75 18.5153 33.75H21.25C21.6807 33.75 22.0312 34.1005 22.0312 34.5313C22.0312 34.9621 21.6808 35.3125 21.25 35.3125Z" fill="black"/>
<path d="M17.4984 18.0624C17.6215 17.8609 17.9479 17.5415 18.4887 17.0123C18.6378 16.8664 18.7992 16.7084 18.9738 16.5364C19.5155 16.0029 19.9379 15.3793 20.2295 14.6828C20.5211 13.9864 20.669 13.2521 20.669 12.5C20.669 10.9859 20.0793 9.56238 19.0084 8.49152C17.9376 7.42074 16.5141 6.83105 15 6.83105C13.9845 6.83105 12.9857 7.10559 12.1115 7.62496C11.2363 8.14504 10.515 8.89449 10.0254 9.79261C9.3893 10.9605 9.82196 12.4282 10.9899 13.0642C12.1577 13.7003 13.6255 13.2676 14.2615 12.1C14.3324 11.9698 14.4397 11.8596 14.5718 11.781C14.6977 11.7062 14.8458 11.6667 14.9999 11.6667C15.2227 11.6667 15.432 11.7533 15.5893 11.9107C15.7466 12.0679 15.8332 12.2771 15.8332 12.5C15.8332 12.6175 15.8122 12.7274 15.7707 12.8265C15.728 12.9286 15.6667 13.0193 15.5887 13.0962C15.4161 13.2662 15.2564 13.4225 15.107 13.5687C12.9184 15.7104 12.5821 16.0396 12.5821 18.6487C12.5821 19.9819 13.6667 21.0665 14.9999 21.0665C16.3331 21.0665 17.4177 19.9819 17.4177 18.6487C17.4179 18.2336 17.4399 18.1582 17.4984 18.0624ZM15.8554 18.6487C15.8554 19.1203 15.4716 19.504 15.0001 19.504C14.5284 19.504 14.1448 19.1203 14.1448 18.6487C14.1448 16.6967 14.1448 16.6967 16.202 14.6835C16.3506 14.5381 16.5113 14.3807 16.6853 14.2094C16.9118 13.9864 17.0891 13.724 17.2122 13.4298C17.3341 13.1386 17.3959 12.8258 17.3959 12.4999C17.3959 11.8597 17.1468 11.258 16.6944 10.8056C16.2419 10.3532 15.6402 10.1041 15.0002 10.1041C14.5652 10.1041 14.1412 10.2195 13.7739 10.4377C13.4007 10.6594 13.0949 10.9757 12.8896 11.3524C12.6656 11.7636 12.1487 11.9158 11.7375 11.6921C11.3262 11.468 11.1738 10.9512 11.3977 10.5402C11.7528 9.88863 12.2758 9.34504 12.9098 8.96824C13.5426 8.59222 14.2654 8.39355 15.0001 8.39355C16.0967 8.39355 17.1279 8.82074 17.9036 9.59644C18.6793 10.3721 19.1065 11.4032 19.1065 12.5C19.1065 13.0437 18.9994 13.5751 18.7883 14.0794C18.5771 14.5838 18.2707 15.0359 17.8774 15.4232C17.7041 15.5939 17.5439 15.7507 17.3959 15.8955C16.1511 17.1136 15.8554 17.403 15.8554 18.6487Z" fill="black"/>
<path d="M12.5822 24.2655C12.5822 25.5986 13.6668 26.6833 15 26.6833C16.3333 26.6833 17.4179 25.5987 17.4179 24.2655C17.4179 22.9323 16.3333 21.8477 15 21.8477C13.6668 21.8477 12.5822 22.9323 12.5822 24.2655ZM15.8554 24.2655C15.8554 24.7371 15.4717 25.1208 15 25.1208C14.5284 25.1208 14.1447 24.7371 14.1447 24.2655C14.1447 23.7938 14.5285 23.4102 15 23.4102C15.4716 23.4102 15.8554 23.7938 15.8554 24.2655Z" fill="black"/>
<path d="M5.05694 5.6814C5.48842 5.6814 5.83819 5.33163 5.83819 4.90015C5.83819 4.46866 5.48842 4.1189 5.05694 4.1189H5.05639C4.6249 4.1189 4.27545 4.46866 4.27545 4.90015C4.27545 5.33163 4.62545 5.6814 5.05694 5.6814Z" fill="black"/>
<path d="M15 32.1875H14.9995C14.568 32.1875 14.2185 32.5373 14.2185 32.9688C14.2185 33.4002 14.5685 33.75 15 33.75C15.4315 33.75 15.7813 33.4002 15.7813 32.9688C15.7813 32.5373 15.4315 32.1875 15 32.1875Z" fill="black"/>
</svg>
