<svg width="64" height="64" viewBox="0 0 64 64" fill="none" xmlns="http://www.w3.org/2000/svg">
<path d="M38.6389 55.5301C38.3213 55.5297 38.0136 55.4193 37.7681 55.2178C37.5226 55.0162 37.3544 54.7359 37.2921 54.4244C36.7276 51.6019 34.5508 51.1675 30.4296 50.5868C29.2517 50.4208 28.0338 50.2491 26.7869 49.9728C23.6311 49.2652 20.6834 47.8323 18.1775 45.7878C15.7305 43.7641 13.7593 41.2264 12.4039 38.3549C11.0485 35.4834 10.3421 32.3486 10.335 29.1733C10.3429 25.3907 11.3055 21.6713 13.1336 18.3598C13.22 18.2004 13.3372 18.0597 13.4783 17.9458C13.6193 17.8319 13.7816 17.747 13.9556 17.6961C14.1296 17.6451 14.3119 17.629 14.4922 17.6488C14.6724 17.6686 14.8469 17.7239 15.0057 17.8114C15.1645 17.8989 15.3045 18.017 15.4174 18.1588C15.5304 18.3006 15.6143 18.4633 15.6641 18.6377C15.7139 18.812 15.7288 18.9945 15.7078 19.1746C15.6869 19.3547 15.6305 19.5289 15.542 19.6871C13.9376 22.592 13.0925 25.8548 13.085 29.1732C13.0903 31.9409 13.7051 34.6734 14.8857 37.1766C16.0662 39.6798 17.7836 41.8922 19.9158 43.6568C22.0889 45.4304 24.6452 46.6736 27.3821 47.2878C28.524 47.541 29.6879 47.7049 30.8135 47.8635C34.846 48.4317 39.0157 49.0192 39.9888 53.885C40.0285 54.0846 40.0235 54.2906 39.974 54.488C39.9246 54.6854 39.832 54.8694 39.7029 55.0268C39.5738 55.1841 39.4114 55.3108 39.2275 55.3979C39.0435 55.4849 38.8425 55.53 38.639 55.53L38.6389 55.5301Z" fill="#FFC93C"/>
<path d="M25.4937 55.53C25.2901 55.53 25.0892 55.4848 24.9052 55.3978C24.7212 55.3108 24.5589 55.184 24.4298 55.0267C24.3007 54.8694 24.2081 54.6854 24.1586 54.4879C24.1092 54.2905 24.1042 54.0846 24.1439 53.885C25.117 49.0193 29.2869 48.4317 33.3194 47.8635C34.4449 47.7049 35.6088 47.541 36.7507 47.2878C39.4876 46.6735 42.0438 45.4304 44.2169 43.6568C46.3491 41.8922 48.0665 39.6797 49.2471 37.1765C50.4276 34.6733 51.0424 31.9408 51.0477 29.1732C51.0401 25.8548 50.1951 22.5919 48.5909 19.687C48.5017 19.5287 48.4448 19.3543 48.4235 19.174C48.4021 18.9936 48.4167 18.8108 48.4664 18.6361C48.5161 18.4613 48.5999 18.2982 48.713 18.1561C48.8261 18.0139 48.9662 17.8956 49.1253 17.808C49.2844 17.7203 49.4592 17.665 49.6398 17.6453C49.8204 17.6256 50.0031 17.6419 50.1773 17.6932C50.3516 17.7445 50.5139 17.8298 50.655 17.9442C50.7961 18.0586 50.9131 18.1999 50.9993 18.3598C52.8272 21.6713 53.7898 25.3906 53.7977 29.1732C53.7906 32.3485 53.0842 35.4833 51.7288 38.3548C50.3734 41.2263 48.4022 43.7641 45.9552 45.7878C43.4493 47.8323 40.5017 49.2651 37.3459 49.9728C36.099 50.2492 34.8809 50.4208 33.7031 50.5867C29.582 51.1674 27.4051 51.6019 26.8406 54.4244C26.7783 54.7359 26.6101 55.0162 26.3646 55.2177C26.119 55.4193 25.8113 55.5296 25.4937 55.53Z" fill="#FFC93C"/>
<path d="M15.8447 9.32959C15.369 9.71571 13.3937 11.4109 13.2216 13.0716C13.0519 14.709 14.5275 15.7923 14.5561 15.7883C14.5808 15.8033 16.3645 15.392 16.8563 13.821C17.3552 12.2277 15.8447 9.32959 15.8447 9.32959Z" fill="#FFC93C"/>
<path d="M8.82422 15.2998C8.88187 15.8761 9.19389 18.3166 10.4157 19.3154C11.6203 20.3002 13.2424 19.6981 13.2541 19.6734C13.2788 19.6618 13.8809 18.0396 12.8961 16.835C11.8973 15.6132 8.82422 15.2998 8.82422 15.2998Z" fill="#FFC93C"/>
<path d="M19.7472 15.1763C19.7472 15.1763 19.3664 18.3167 18.1447 19.3155C17.7594 19.6327 17.2931 19.836 16.7984 19.9023C16.3037 19.9687 15.8003 19.8956 15.345 19.6912L15.2887 19.6349C15.0843 19.1796 15.0111 18.6762 15.0775 18.1815C15.1439 17.6869 15.3471 17.2206 15.6643 16.8352C16.6631 15.6133 19.7472 15.1763 19.7472 15.1763Z" fill="#FFC93C"/>
<path d="M6.64624 20.8101C6.69557 21.4308 6.97744 24.0613 8.26899 25.1619C9.54239 26.2471 11.2995 25.6354 11.3126 25.6091C11.3393 25.5971 12.0222 23.8665 10.9901 22.5498C9.94307 21.2144 6.64624 20.8101 6.64624 20.8101Z" fill="#FFC93C"/>
<path d="M18.3917 20.917C18.3917 20.917 17.9134 24.2849 16.578 25.3317C16.1568 25.6643 15.651 25.8725 15.1177 25.9331C14.5845 25.9936 14.0449 25.9039 13.5598 25.6742L13.5006 25.6125C13.2908 25.1185 13.2233 24.5757 13.3055 24.0453C13.3877 23.515 13.6164 23.0181 13.9659 22.6108C15.0665 21.3192 18.3917 20.917 18.3917 20.917Z" fill="#FFC93C"/>
<path d="M5.18408 28.5803C5.39476 29.2159 6.36348 31.8905 7.99436 32.7087C9.60233 33.5154 11.2803 32.4262 11.2873 32.3954C11.3122 32.376 11.5816 30.3937 10.1662 29.2834C8.73048 28.1573 5.18408 28.5803 5.18408 28.5803Z" fill="#FFC93C"/>
<path d="M17.4766 25.6807C17.4766 25.6807 17.8406 29.3201 16.7145 30.7557C16.3598 31.2109 15.885 31.558 15.3437 31.7579C14.8023 31.9578 14.2159 32.0025 13.6505 31.887L13.5728 31.8377C13.2271 31.3756 13.0174 30.8261 12.9673 30.2512C12.9172 29.6763 13.0286 29.0988 13.2891 28.5839C14.1073 26.9531 17.4766 25.6807 17.4766 25.6807Z" fill="#FFC93C"/>
<path d="M5.99707 36.2846C6.3213 36.9275 7.77309 39.6199 9.63672 40.2332C11.4742 40.8379 13.0874 39.4149 13.0899 39.3811C13.1133 39.3566 13.0876 37.2056 11.4071 36.2476C9.70259 35.276 5.99707 36.2846 5.99707 36.2846Z" fill="#FFC93C"/>
<path d="M18.6153 31.2637C18.6153 31.2637 19.5758 35.0775 18.6042 36.7819C18.2987 37.322 17.8484 37.7661 17.3041 38.064C16.7598 38.3619 16.143 38.5018 15.5235 38.468L15.433 38.4278C14.9925 37.9908 14.6829 37.4394 14.539 36.8358C14.3951 36.2322 14.4227 35.6004 14.6187 35.0116C15.232 33.148 18.6153 31.2637 18.6153 31.2637Z" fill="#FFC93C"/>
<path d="M8.88452 42.201C9.27995 42.8666 11.0368 45.6471 13.0813 46.167C15.0972 46.6795 16.7223 45.0336 16.7225 44.9971C16.7458 44.9691 16.5589 42.6636 14.6852 41.7605C12.7848 40.8445 8.88452 42.201 8.88452 42.201Z" fill="#FFC93C"/>
<path d="M22.0483 35.8804C22.0483 35.8804 23.3612 39.9004 22.4452 41.8007C22.1575 42.4028 21.7074 42.9125 21.1455 43.2724C20.5837 43.6323 19.9325 43.8281 19.2653 43.8377L19.1653 43.8013C18.6605 43.3651 18.2875 42.7965 18.0884 42.1597C17.8893 41.5228 17.8721 40.8431 18.0387 40.197C18.5586 38.1523 22.0483 35.8804 22.0483 35.8804Z" fill="#FFC93C"/>
<path d="M14.2576 48.0284C14.7989 48.6334 17.1682 51.1396 19.377 51.2616C21.5548 51.3818 22.8945 49.3599 22.8874 49.3223C22.9056 49.2888 22.2476 46.9542 20.1372 46.4034C17.9967 45.8448 14.2576 48.0284 14.2576 48.0284Z" fill="#FFC93C"/>
<path d="M26.5256 38.8652C26.5256 38.8652 28.6886 42.7364 28.1299 44.8769C27.9555 45.5544 27.5952 46.1698 27.0898 46.6536C26.5844 47.1374 25.9539 47.4704 25.2694 47.6151L25.1591 47.5978C24.5515 47.251 24.0528 46.7413 23.7194 46.1262C23.3859 45.5111 23.2309 44.8151 23.2718 44.1167C23.3938 41.9079 26.5256 38.8652 26.5256 38.8652Z" fill="#FFC93C"/>
<path d="M48.2879 9.32959C48.7637 9.71571 50.739 11.4109 50.9111 13.0716C51.0807 14.709 49.6051 15.7923 49.5765 15.7883C49.5519 15.8033 47.7681 15.392 47.2763 13.821C46.7775 12.2277 48.2879 9.32959 48.2879 9.32959Z" fill="#FFC93C"/>
<path d="M55.3084 15.2998C55.2507 15.8761 54.9387 18.3166 53.7169 19.3154C52.5123 20.3002 50.8902 19.6981 50.8785 19.6734C50.8538 19.6618 50.2517 18.0396 51.2365 16.835C52.2353 15.6132 55.3084 15.2998 55.3084 15.2998Z" fill="#FFC93C"/>
<path d="M44.3855 15.1763C44.3855 15.1763 44.7663 18.3167 45.988 19.3155C46.3734 19.6327 46.8397 19.836 47.3343 19.9023C47.829 19.9687 48.3324 19.8956 48.7878 19.6912L48.8441 19.6349C49.0484 19.1796 49.1216 18.6762 49.0552 18.1815C48.9889 17.6869 48.7857 17.2206 48.4685 16.8352C47.4697 15.6133 44.3855 15.1763 44.3855 15.1763Z" fill="#FFC93C"/>
<path d="M57.4862 20.8101C57.4369 21.4308 57.155 24.0613 55.8635 25.1619C54.5901 26.2471 52.833 25.6354 52.8199 25.6091C52.7932 25.5971 52.1103 23.8665 53.1424 22.5498C54.1894 21.2144 57.4862 20.8101 57.4862 20.8101Z" fill="#FFC93C"/>
<path d="M45.7412 20.917C45.7412 20.917 46.2195 24.2848 47.5549 25.3317C47.9761 25.6643 48.4819 25.8725 49.0152 25.9331C49.5484 25.9936 50.088 25.9039 50.573 25.6742L50.6323 25.6125C50.842 25.1185 50.9096 24.5757 50.8274 24.0453C50.7452 23.515 50.5165 23.0181 50.167 22.6108C49.0664 21.3192 45.7412 20.917 45.7412 20.917Z" fill="#FFC93C"/>
<path d="M58.9486 28.5803C58.7379 29.2159 57.7692 31.8905 56.1383 32.7087C54.5304 33.5154 52.8524 32.4262 52.8454 32.3954C52.8206 32.376 52.5511 30.3937 53.9666 29.2834C55.4022 28.1573 58.9486 28.5803 58.9486 28.5803Z" fill="#FFC93C"/>
<path d="M46.6562 25.6807C46.6562 25.6807 46.2923 29.3201 47.4184 30.7557C47.773 31.2109 48.2478 31.558 48.7891 31.7579C49.3305 31.9578 49.9169 32.0025 50.4823 31.887L50.5601 31.8377C50.9057 31.3756 51.1154 30.8261 51.1656 30.2512C51.2157 29.6763 51.1042 29.0988 50.8437 28.5839C50.0255 26.9531 46.6562 25.6807 46.6562 25.6807Z" fill="#FFC93C"/>
<path d="M58.1356 36.2846C57.8114 36.9275 56.3596 39.6199 54.496 40.2332C52.6585 40.8379 51.0453 39.4149 51.0428 39.3811C51.0194 39.3566 51.0451 37.2056 52.7256 36.2476C54.43 35.276 58.1356 36.2846 58.1356 36.2846Z" fill="#FFC93C"/>
<path d="M45.5174 31.2637C45.5174 31.2637 44.5569 35.0775 45.5285 36.7819C45.834 37.322 46.2842 37.7661 46.8286 38.064C47.3729 38.3619 47.9896 38.5018 48.6092 38.468L48.6997 38.4278C49.1401 37.9908 49.4498 37.4394 49.5937 36.8358C49.7375 36.2322 49.7099 35.6004 49.514 35.0116C48.9006 33.148 45.5174 31.2637 45.5174 31.2637Z" fill="#FFC93C"/>
<path d="M55.2482 42.201C54.8528 42.8666 53.0959 45.6471 51.0514 46.167C49.0355 46.6795 47.4104 45.0336 47.4102 44.9971C47.3869 44.9691 47.5738 42.6636 49.4475 41.7605C51.3479 40.8445 55.2482 42.201 55.2482 42.201Z" fill="#FFC93C"/>
<path d="M42.0844 35.8804C42.0844 35.8804 40.7715 39.9004 41.6875 41.8007C41.9752 42.4028 42.4253 42.9125 42.9872 43.2724C43.549 43.6323 44.2003 43.8281 44.8674 43.8377L44.9674 43.8013C45.4723 43.3651 45.8453 42.7965 46.0444 42.1597C46.2434 41.5228 46.2606 40.8431 46.0941 40.197C45.5741 38.1523 42.0844 35.8804 42.0844 35.8804Z" fill="#FFC93C"/>
<path d="M49.8753 48.0284C49.3339 48.6334 46.9646 51.1396 44.7558 51.2616C42.5781 51.3818 41.2383 49.3599 41.2455 49.3223C41.2272 49.2888 41.8852 46.9542 43.9956 46.4034C46.1361 45.8448 49.8753 48.0284 49.8753 48.0284Z" fill="#FFC93C"/>
<path d="M37.6071 38.8652C37.6071 38.8652 35.4442 42.7364 36.0028 44.8769C36.1773 45.5544 36.5375 46.1698 37.0429 46.6536C37.5483 47.1374 38.1788 47.4704 38.8634 47.6151L38.9736 47.5978C39.5812 47.251 40.0799 46.7413 40.4134 46.1262C40.7468 45.5111 40.9018 44.8151 40.8609 44.1167C40.739 41.9079 37.6071 38.8652 37.6071 38.8652Z" fill="#FFC93C"/>
</svg>
