<svg width="40" height="32" viewBox="0 0 40 32" fill="none" xmlns="http://www.w3.org/2000/svg">
<path d="M15.912 7.06902V7.10535C15.912 7.75019 16.4347 8.27301 17.0796 8.27301H26.9112C27.5561 8.27301 28.0789 7.75027 28.0789 7.10535V7.06902C28.0789 6.42418 27.5561 5.90137 26.9112 5.90137H17.0796C16.4347 5.90145 15.912 6.42418 15.912 7.06902Z" fill="#FFC93C"/>
<path d="M10.3633 7.06902V7.10535C10.3633 7.75019 10.886 8.27301 11.5309 8.27301H11.894C12.5388 8.27301 13.0616 7.75027 13.0616 7.10535V7.06902C13.0616 6.42418 12.5389 5.90137 11.894 5.90137H11.5309C10.886 5.90145 10.3633 6.42418 10.3633 7.06902Z" fill="#8690AF"/>
<path d="M13.4075 2.65936V2.69568C13.4075 3.34053 13.9302 3.86334 14.5751 3.86334H18.8359C19.4808 3.86334 20.0036 3.34061 20.0036 2.69568V2.65936C20.0036 2.01451 19.4808 1.4917 18.8359 1.4917H14.5751C13.9302 1.4917 13.4075 2.01451 13.4075 2.65936Z" fill="#8690AF"/>
<path d="M11.8939 5.90137H11.5308C11.354 5.90137 11.187 5.94184 11.0368 6.01223C11.4344 6.19848 11.7103 6.60098 11.7103 7.06902V7.10535C11.7103 7.5734 11.4343 7.9759 11.0368 8.16215C11.187 8.23254 11.354 8.27301 11.5308 8.27301H11.8939C12.5387 8.27301 13.0615 7.75027 13.0615 7.10535V7.06902C13.0615 6.42418 12.5387 5.90137 11.8939 5.90137Z" fill="#8690AF"/>
<path d="M18.8359 1.4917H17.1722C17.8171 1.4917 18.3399 2.01443 18.3399 2.65936V2.69568C18.3399 3.34053 17.8171 3.86334 17.1722 3.86334H18.8359C19.4807 3.86334 20.0036 3.34061 20.0036 2.69568V2.65936C20.0035 2.01451 19.4807 1.4917 18.8359 1.4917Z" fill="#8690AF"/>
<path d="M27.1214 1.36035H24.3176C23.4246 1.36035 22.7007 2.08426 22.7007 2.9773V6.64621C22.7007 7.53926 23.4246 8.26316 24.3176 8.26316H27.1214C30.1213 8.26316 32.5566 10.7267 32.5107 13.7369C32.4655 16.6943 29.9973 19.0431 27.0396 19.0431H11.533L12.1802 16.5382C12.6828 15.1004 11.1554 13.796 9.81445 14.5175L1.79086 20.461C0.984608 20.8948 0.583202 21.6907 0.585936 22.4858C0.58867 23.2754 0.989999 24.0637 1.79086 24.4943L9.81445 30.4379C11.1554 31.1596 12.6829 29.855 12.1802 28.4172L11.5349 25.9458H27.0023C33.7973 25.9458 39.3951 20.4828 39.4141 13.688C39.433 6.89379 33.9112 1.36035 27.1214 1.36035Z" fill="#FFC93C"/>
<path d="M11.5349 25.9458H9.78911C9.5338 25.9458 9.34739 26.1871 9.41193 26.4342L9.92966 28.4172C10.1726 29.1121 9.9406 29.7752 9.48536 30.1941L9.81443 30.4378C11.1554 31.1595 12.6829 29.8549 12.1801 28.4171L11.5349 25.9458Z" fill="#FFC93C"/>
<path d="M9.92966 16.5382L8.79928 20.9147C8.73553 21.1615 8.92185 21.4021 9.17677 21.4021H10.9239L12.1802 16.5382C12.6829 15.1004 11.1554 13.796 9.81451 14.5175L9.48545 14.7613C9.94068 15.1803 10.1726 15.8433 9.92966 16.5382Z" fill="#FFC93C"/>
<path d="M27.1214 1.36035H24.8709C31.6607 1.36035 37.1825 6.89379 37.1635 13.688C37.1446 20.4829 31.5468 25.9458 24.7519 25.9458H27.0024C33.7973 25.9458 39.3951 20.4828 39.4141 13.688C39.4329 6.89379 33.9112 1.36035 27.1214 1.36035Z" fill="#FFC93C"/>
<path d="M15.3264 7.06888V7.1056C15.3264 8.07232 16.1128 8.85872 17.0795 8.85872H26.9109C29.5448 8.6599 32.0253 11.0388 31.925 13.7278C31.885 16.3355 29.6936 18.4571 27.0398 18.4571H14.3212C13.9976 18.4571 13.7353 18.7194 13.7353 19.043C13.7353 19.3667 13.9976 19.629 14.3212 19.629H27.0398C30.33 19.629 33.0471 16.9898 33.0968 13.7456C33.1211 12.1336 32.5103 10.6122 31.3771 9.46177C30.2487 8.31091 28.5745 7.59911 26.9109 7.68677H17.0795C16.759 7.68677 16.4983 7.42599 16.4983 7.10552V7.0688C16.4983 6.74825 16.759 6.48755 17.0795 6.48755H18.5498C18.8734 6.48755 19.1358 6.22528 19.1358 5.90161C19.1358 5.57794 18.8734 5.31567 18.5498 5.31567H17.0795C16.1128 5.31567 15.3264 6.10216 15.3264 7.06888Z" fill="black"/>
<path d="M11.5308 8.85895H11.8939C12.8608 8.85895 13.6474 8.07231 13.6474 7.10535V7.06902C13.6474 6.10207 12.8608 5.31543 11.8939 5.31543H11.5308C10.564 5.31543 9.77733 6.10207 9.77733 7.06902V7.10535C9.77733 8.07223 10.564 8.85895 11.5308 8.85895ZM10.9492 7.06902C10.9492 6.74832 11.2101 6.48731 11.5308 6.48731H11.8939C12.2146 6.48731 12.4755 6.74832 12.4755 7.06902V7.10535C12.4755 7.42606 12.2146 7.68707 11.8939 7.68707H11.5308C11.2101 7.68707 10.9492 7.42606 10.9492 7.10535V7.06902Z" fill="black"/>
<path d="M14.575 4.44928H18.8359C19.8028 4.44928 20.5895 3.66264 20.5895 2.69569V2.65936C20.5895 1.6924 19.8028 0.905762 18.8359 0.905762H14.575C13.6082 0.905762 12.8215 1.6924 12.8215 2.65936V2.69569C12.8215 3.66264 13.6082 4.44928 14.575 4.44928ZM13.9934 2.65936C13.9934 2.33865 14.2543 2.07764 14.575 2.07764H18.8359C19.1566 2.07764 19.4176 2.33865 19.4176 2.65936V2.69569C19.4176 3.01639 19.1567 3.27741 18.8359 3.27741H14.575C14.2543 3.27741 13.9934 3.01639 13.9934 2.69569V2.65936Z" fill="black"/>
<path d="M36.2362 4.56307C33.7997 2.11979 30.5625 0.77417 27.121 0.77417H24.3179C23.1031 0.77417 22.1148 1.76245 22.1148 2.97729V5.31557H21.3064C20.9828 5.31557 20.7205 5.57783 20.7205 5.9015C20.7205 6.22518 20.9828 6.48744 21.3064 6.48744H22.7007C23.0243 6.48744 23.2867 6.22518 23.2867 5.9015V2.97729C23.2867 2.4087 23.7492 1.94604 24.3179 1.94604H27.121C30.2488 1.94604 33.1913 3.16932 35.4065 5.39057C37.6216 7.61181 38.8367 10.5581 38.828 13.6866C38.8102 20.1234 33.5052 25.3601 27.0023 25.3601H11.5351C11.3536 25.3601 11.1823 25.4442 11.0714 25.5878C10.9604 25.7315 10.9223 25.9184 10.9682 26.094L11.6135 28.5651C11.7783 28.974 11.6257 29.5431 11.308 29.7915C11.0419 30.0187 10.5946 30.173 10.1255 29.939L2.13937 24.0237C0.91523 23.453 0.842262 21.5984 2.13937 20.9317L10.1254 15.0156C10.5947 14.7816 11.0421 14.9363 11.3081 15.1635C11.5806 15.3963 11.8075 15.8288 11.6272 16.3451C11.6219 16.3603 11.6172 16.3759 11.6131 16.3916L10.9654 18.8962C10.965 18.8978 10.9649 18.8994 10.9645 18.901L10.3565 21.2555C10.2755 21.5688 10.464 21.8884 10.7772 21.9694C10.8264 21.982 10.8757 21.9881 10.9242 21.9881C11.1849 21.9881 11.4229 21.8127 11.4911 21.5485L12.1003 19.1895C12.1006 19.1882 12.1007 19.187 12.1011 19.1856L12.742 16.7069C13.0378 15.8285 12.7752 14.8755 12.069 14.2724C11.3908 13.6818 10.2813 13.5453 9.46521 14.0464L1.47406 19.9662C0.547028 20.4823 -0.00312701 21.4215 -2.01706e-06 22.4876C0.00312298 23.5441 0.5532 24.4759 1.4739 24.9891L9.46529 30.9083C9.7363 31.0803 10.1483 31.211 10.6081 31.2257C11.1313 31.2257 11.6489 31.0415 12.0689 30.6829C12.7754 30.0797 13.038 29.1264 12.7418 28.248L12.2936 26.5321H27.0022C34.1495 26.5321 39.9803 20.7712 39.9998 13.6899C40.0094 10.2477 38.6728 7.00642 36.2362 4.56307Z" fill="black"/>
</svg>
