<svg width="64" height="64" viewBox="0 0 64 64" fill="none" xmlns="http://www.w3.org/2000/svg">
<path d="M57.0027 48.3203C57.0027 48.5549 57.0027 48.7896 56.9387 49.0136L56.8853 49.2909C56.3597 52.2691 54.0896 54.6361 51.136 55.2856C50.187 55.5046 49.2031 55.5263 48.2453 55.3496L40.9067 54.0589L22.464 50.8589L14.6454 49.4829C13.939 49.3526 13.3457 48.8755 13.0667 48.2136C12.8702 47.8174 12.8102 47.3674 12.896 46.9336C13.0791 45.903 13.9828 45.1575 15.0294 45.1736C15.1536 45.1631 15.2785 45.1631 15.4027 45.1736L22.496 46.4216L48.8533 51.1256C50.382 51.4284 51.9123 50.6119 52.512 49.1736C52.8823 48.2806 52.8291 47.2681 52.3672 46.4188C51.9053 45.5696 51.0842 44.9746 50.1333 44.8003L40.9493 43.1789L16.5334 38.9123C15.3551 38.8121 14.4812 37.7758 14.5814 36.5976C14.6815 35.4194 15.7178 34.5455 16.896 34.6456C17.0202 34.6351 17.1451 34.6351 17.2694 34.6456L50.6347 40.5229C54.4074 41.1659 57.1264 44.4951 57.0027 48.3203Z" fill="#C13945"/>
<path d="M52.5119 49.1735C51.9122 50.6118 50.3819 51.4283 48.8533 51.1255L22.4746 46.4748L15.3706 45.2268L16.4373 38.9229L40.8533 43.1895L50.1333 44.8002C51.0841 44.9746 51.9052 45.5695 52.3671 46.4187C52.829 47.268 52.8823 48.2805 52.5119 49.1735Z" fill="#E3C288"/>
<path d="M62.933 14.6991C62.9203 15.0283 62.8847 15.3562 62.8263 15.6805L56.9383 49.0671C56.9383 48.8431 56.9383 48.6085 57.0023 48.3738C57.0858 44.5664 54.359 41.2761 50.6023 40.6511L17.2157 34.7205C17.0914 34.7099 16.9665 34.7099 16.8423 34.7205C15.7957 34.7043 14.892 35.4499 14.709 36.4805L18.9757 12.4698L20.6717 2.86981C20.7721 2.3117 21.0907 1.81658 21.557 1.49381C22.005 1.138 22.5803 0.983544 23.1463 1.06714L56.533 6.98714C60.2905 7.60302 63.0204 10.8925 62.933 14.6991Z" fill="#DD636E"/>
<path d="M56.5333 6.98702L23.1467 1.06702C22.629 0.972029 22.0946 1.0789 21.6533 1.36569L53.3333 6.98702C57.0908 7.6029 59.8207 10.8924 59.7333 14.699C59.7206 15.0282 59.685 15.3561 59.6267 15.6804L54.8267 42.8164C56.2779 44.2708 57.0519 46.2677 56.96 48.3204C56.96 48.555 56.96 48.7897 56.896 49.0137L62.816 15.6804C62.8743 15.3561 62.91 15.0282 62.9227 14.699C63.0108 10.8958 60.2866 7.60764 56.5333 6.98702Z" fill="#C13945"/>
<path d="M46.6293 21.5026L24.5653 17.605C23.985 17.5025 23.4316 17.8898 23.329 18.4701L21.473 28.9768C21.3705 29.557 21.7578 30.1105 22.3381 30.213L44.4021 34.1106C44.9824 34.2131 45.5359 33.8258 45.6384 33.2456L47.4944 22.7389C47.5969 22.1586 47.2096 21.6051 46.6293 21.5026Z" fill="#F5F5F5"/>
<path d="M51.1358 55.2855C50.9377 56.1079 50.2724 56.7356 49.4398 56.8855L15.8185 62.8161C13.8297 63.1659 11.7841 62.6952 10.1482 61.5115C8.51223 60.3277 7.4255 58.5319 7.13582 56.5335C7.09459 56.2829 7.06965 56.0299 7.06115 55.7761C6.97671 52.1327 9.48521 48.9401 13.0452 48.1602C13.3241 48.8221 13.9175 49.2991 14.6238 49.4295L22.3998 50.8055L13.9732 52.2668C13.0264 52.4312 12.2036 53.0124 11.7322 53.8498C11.2608 54.6872 11.1906 55.6921 11.5412 56.5868C12.1445 58.028 13.6768 58.8476 15.2105 58.5495L40.9065 54.0161L48.2452 55.3068C49.2 55.4976 50.1839 55.4903 51.1358 55.2855Z" fill="#8F141F"/>
<path d="M40.9064 54.059L15.2104 58.5923C13.6767 58.8905 12.1444 58.0709 11.5411 56.6297C11.1747 55.7301 11.2367 54.7128 11.7096 53.8644C12.1826 53.016 13.0153 52.4284 13.9731 52.267L22.3998 50.8057L40.9064 54.059Z" fill="#E3C288"/>
<path d="M16.4799 38.9228L15.4132 45.2268C15.289 45.2163 15.1641 45.2163 15.0399 45.2268C13.9933 45.2107 13.0896 45.9562 12.9065 46.9868C12.8305 47.3944 12.8827 47.8155 13.0559 48.1922C9.49592 48.9721 6.98742 52.1648 7.07186 55.8082C7.08037 56.062 7.10531 56.3149 7.14653 56.5655L1.24787 23.1468C1.1907 22.8224 1.15507 22.4946 1.1412 22.1655C1.05383 18.3589 3.7837 15.0694 7.5412 14.4535L18.9652 12.4375L14.6985 36.4482C14.6002 37.0134 14.7337 37.5944 15.0689 38.06C15.4041 38.5257 15.9127 38.8367 16.4799 38.9228Z" fill="#EC283A"/>
<path d="M25.1836 7.95749L49.3436 12.2242H49.5357C50.1248 12.2742 50.6429 11.8373 50.693 11.2482C50.7431 10.659 50.3061 10.1409 49.717 10.0908L25.5996 5.86682C25.2186 5.80013 24.8308 5.94181 24.5825 6.23849C24.3342 6.53518 24.2631 6.94179 24.3959 7.30516C24.5287 7.66853 24.8452 7.93346 25.2263 8.00015L25.1836 7.95749Z" fill="black"/>
<path d="M28.7998 11.8507C28.4187 11.784 28.031 11.9257 27.7827 12.2224C27.5344 12.5191 27.4633 12.9257 27.5961 13.289C27.7289 13.6524 28.0454 13.9173 28.4265 13.984L44.1918 16.768H44.3732C44.9623 16.8181 45.4804 16.3811 45.5305 15.792C45.5806 15.2029 45.1436 14.6848 44.5545 14.6347L28.7998 11.8507Z" fill="black"/>
<path d="M22.1653 31.2537L44.224 35.2004C44.3482 35.2109 44.4731 35.2109 44.5973 35.2004C45.6439 35.2165 46.5476 34.4709 46.7307 33.4404L48.5867 22.9337C48.6747 22.369 48.5326 21.7926 48.192 21.3337C47.8692 20.8674 47.3741 20.5489 46.816 20.4484L24.7573 16.555C24.1984 16.4547 23.6226 16.5814 23.1573 16.907C22.6951 17.2318 22.3805 17.7266 22.2827 18.283L20.4373 28.8004C20.2372 29.9573 21.0094 31.0585 22.1653 31.2644V31.2537ZM24.384 18.6564L46.4427 22.539L44.5973 33.067L22.528 29.1524L24.384 18.6564Z" fill="black"/>
<path d="M6.14382 57.0135C6.99279 61.6154 11.3896 64.6751 15.9998 63.8722L49.6212 57.9308C50.6279 57.7511 51.4881 57.101 51.9358 56.1815C55.0214 55.2743 57.3348 52.7093 57.9198 49.5468C57.9198 49.5468 57.9198 49.5468 57.9198 49.4828L63.8505 15.8615C63.9106 15.5085 63.9498 15.1524 63.9678 14.7948C64.0923 10.4428 60.9707 6.67317 56.6718 5.98414L23.3278 0.0534675C22.5003 -0.0968925 21.6471 0.091427 20.9598 0.576134C20.2572 1.06053 19.7772 1.8055 19.6265 2.64547L18.0585 11.5201L7.39182 13.3975C3.08857 14.0764 -0.0430437 17.8426 0.0744902 22.1975C0.0907602 22.5769 0.133531 22.9547 0.20249 23.3281L6.12249 56.9388C6.12289 56.9652 6.13025 56.9909 6.14382 57.0135ZM15.6372 61.7708C13.82 62.0801 11.9572 61.5989 10.5172 60.4482C9.07194 59.2997 8.19944 57.5781 8.12782 55.7335C8.05454 52.871 9.8732 50.3015 12.5972 49.4188C13.0723 49.9748 13.7236 50.3512 14.4425 50.4855L16.3305 50.8161L13.7918 51.2748C12.54 51.5057 11.4566 52.2834 10.8375 53.3957C10.2185 54.508 10.1284 55.8386 10.5918 57.0242C11.2376 58.6715 12.8331 59.7494 14.6025 59.7335C14.8669 59.733 15.1308 59.7116 15.3918 59.6695L40.9065 55.1468L47.0398 56.2135L15.6372 61.7708ZM34.7625 54.0588L15.0292 57.6002C13.9984 57.8018 12.9645 57.2672 12.5332 56.3095C12.2628 55.7026 12.2907 55.0044 12.6086 54.4209C12.9264 53.8375 13.498 53.4355 14.1545 53.3335L22.4532 51.8722L34.7625 54.0588ZM53.5358 52.9921C52.1005 54.1437 50.239 54.6217 48.4265 54.3041L14.8158 48.3735C14.5357 48.3259 14.2861 48.1685 14.1225 47.9361C13.9615 47.7028 13.9001 47.4149 13.9518 47.1361C14.0021 46.8599 14.1592 46.6146 14.3892 46.4535C14.5675 46.329 14.7797 46.262 14.9972 46.2615H15.1785L48.6718 52.1708C50.3183 52.5172 52.0146 51.8635 53.003 50.5019C53.9914 49.1403 54.0873 47.325 53.2478 45.8668C52.6292 44.7471 51.5408 43.9641 50.2825 43.7335L16.6612 37.8668C16.3824 37.8174 16.1348 37.6593 15.9727 37.4272C15.8107 37.1951 15.7475 36.9081 15.7972 36.6295C15.8474 36.3532 16.0045 36.1079 16.2345 35.9468C16.4686 35.7874 16.7545 35.7226 17.0345 35.7655L50.3892 41.6535C53.6322 42.1598 56.0018 44.9852 55.9358 48.2668C55.8661 50.1173 54.9889 51.8443 53.5358 52.9921ZM49.9092 45.8668C50.5383 45.9821 51.0825 46.3736 51.3918 46.9335C51.7094 47.4943 51.7565 48.1687 51.5198 48.7682C51.1209 49.7401 50.1027 50.3068 49.0665 50.1335L16.5972 44.3628L17.3438 40.1601L49.9092 45.8668ZM21.7278 3.0188C21.7781 2.73693 21.9395 2.48709 22.1758 2.32547C22.4033 2.15986 22.687 2.09085 22.9652 2.13347L54.4745 7.71214L53.5145 13.1948C53.4684 13.475 53.5359 13.762 53.7021 13.9922C53.8683 14.2225 54.1194 14.377 54.3998 14.4215C54.4598 14.4318 54.5212 14.4318 54.5812 14.4215C55.1062 14.4291 55.5586 14.0536 55.6478 13.5361L56.5332 8.1068C59.6764 8.68674 61.9352 11.4606 61.8665 14.6561C61.8544 14.9384 61.8259 15.2198 61.7812 15.4988L56.8105 43.6161C55.5103 41.5427 53.4168 40.0931 51.0185 39.6055L54.4745 19.9361C54.5746 19.347 54.1783 18.7883 53.5892 18.6881C53.0001 18.588 52.4413 18.9844 52.3412 19.5735L48.9172 39.2215L17.4078 33.6641C17.0549 33.6026 16.694 33.6026 16.3412 33.6641L21.7278 3.0188ZM2.20782 22.1121C2.13091 18.8341 4.49372 16.0061 7.73316 15.4988L17.6638 13.7495L13.6958 36.2668C13.4668 37.5982 14.0986 38.9299 15.2745 39.5948L14.4638 44.1815C13.1333 44.4079 12.0878 45.4448 11.8505 46.7735C11.8294 46.9899 11.8294 47.2078 11.8505 47.4241C9.94667 48.0856 8.32509 49.3761 7.25316 51.0828L2.30382 22.9761C2.24961 22.691 2.21752 22.4022 2.20782 22.1121Z" fill="black"/>
</svg>
