<svg width="120" height="120" viewBox="0 0 120 120" fill="none" xmlns="http://www.w3.org/2000/svg">
<path d="M116.056 109.614H3.94409C2.73651 109.614 1.75781 108.635 1.75781 107.427V103.754C1.75781 102.547 2.73651 101.567 3.94409 101.567H116.056C117.263 101.567 118.242 102.547 118.242 103.754V107.427C118.242 108.635 117.263 109.614 116.056 109.614Z" fill="#CF7F53"/>
<path d="M116.056 101.567H107.501C108.709 101.567 109.688 102.547 109.688 103.754V107.427C109.688 108.636 108.709 109.614 107.501 109.614H116.056C117.263 109.614 118.242 108.636 118.242 107.427V103.754C118.242 102.547 117.263 101.567 116.056 101.567Z" fill="#B56F49"/>
<path d="M111.594 101.567H8.40637C7.19879 101.567 6.21918 100.588 6.21918 99.3805V36.7419C6.21918 35.5344 7.19879 34.5557 8.40637 34.5557H111.594C112.801 34.5557 113.781 35.5344 113.781 36.7419V99.3805C113.781 100.588 112.801 101.567 111.594 101.567Z" fill="#E88E5D"/>
<path d="M111.594 34.5557H106.515V91.6187C106.515 92.8262 105.536 93.8049 104.328 93.8049H6.21918V99.3805C6.21918 100.588 7.19879 101.567 8.40637 101.567H111.594C112.801 101.567 113.781 100.588 113.781 99.3805V36.7419C113.781 35.5344 112.801 34.5557 111.594 34.5557Z" fill="#CF7F53"/>
<path d="M13.2504 41.5869H106.75V94.5355H13.2504V41.5869Z" fill="#5BB68D"/>
<path d="M52.7344 101.567H29.2969V95.5105C29.2969 93.0514 31.2909 91.0574 33.75 91.0574H48.2812C50.7404 91.0574 52.7344 93.0514 52.7344 95.5105V101.567Z" fill="#B9B7B8"/>
<path d="M48.2812 91.0574H41.4066C43.8657 91.0574 45.8597 93.0514 45.8597 95.5105V101.567H52.7344V95.5105C52.7344 93.0514 50.7404 91.0574 48.2812 91.0574Z" fill="#A3A1A2"/>
<path d="M63.9844 14.4104C63.9844 16.6104 62.2009 18.3948 60 18.3948C57.7991 18.3948 56.0156 16.6104 56.0156 14.4104C56.0156 12.2095 57.7991 10.426 60 10.426C62.2009 10.426 63.9844 12.2095 63.9844 14.4104Z" fill="#495663"/>
<path d="M116.056 99.809H115.514C115.529 99.668 115.539 99.5252 115.539 99.3805V36.742C115.539 34.5676 113.769 32.7979 111.594 32.7979H87.8339L66.0031 11.1411C62.6962 7.85981 57.3257 7.83784 53.9969 11.1411L32.1671 32.7979H8.40637C6.23108 32.7979 4.46136 34.5676 4.46136 36.742V99.3805C4.46136 99.5252 4.47052 99.668 4.48608 99.809H3.94409C1.76971 99.809 0 101.579 0 103.754V107.427C0 109.602 1.76971 111.372 3.94409 111.372H74.7656C75.7361 111.372 76.5234 110.585 76.5234 109.614C76.5234 108.644 75.7361 107.856 74.7656 107.856H3.94409C3.70789 107.856 3.51562 107.664 3.51562 107.427V103.754C3.51562 103.518 3.70789 103.325 3.94409 103.325H116.056C116.292 103.325 116.484 103.518 116.484 103.754V107.427C116.484 107.664 116.292 107.856 116.056 107.856H81.3281C80.3577 107.856 79.5703 108.644 79.5703 109.614C79.5703 110.585 80.3577 111.372 81.3281 111.372H116.056C118.23 111.372 120 109.602 120 107.427V103.754C120 101.579 118.23 99.809 116.056 99.809ZM31.0547 95.5106C31.0547 94.0228 32.2833 92.8153 33.75 92.8153C49.2334 92.8207 48.3746 92.7887 48.7711 92.8619C50.1205 93.1165 50.9766 94.3186 50.9766 95.5106V99.809H31.0547V95.5106ZM62.2266 14.4104C62.2266 15.6381 61.2277 16.637 60 16.637C58.7723 16.637 57.7734 15.6381 57.7734 14.4104C57.7734 13.2568 58.6633 12.1152 60.2747 12.2022C61.3733 12.3386 62.2266 13.2752 62.2266 14.4104ZM54.4034 15.6894C54.9866 18.2419 57.2736 20.1526 60 20.1526C62.7264 20.1526 65.0134 18.2419 65.5966 15.6894L82.8415 32.7979H37.1585L54.4034 15.6894ZM7.97699 36.742C7.97699 36.5057 8.17017 36.3135 8.40637 36.3135H111.595C111.831 36.3135 112.023 36.5057 112.023 36.742V99.3805C112.023 99.6167 111.831 99.809 111.595 99.809H54.4922V96.2933H106.75C107.72 96.2933 108.507 95.5069 108.507 94.5355V41.5869C108.507 40.6155 107.72 39.8291 106.75 39.8291H31.6406C30.6702 39.8291 29.8828 40.6155 29.8828 41.5869C29.8828 42.5574 30.6702 43.3447 31.6406 43.3447H104.992V92.7777H53.8614C52.912 90.8185 51.0031 89.5111 48.8123 89.3243C48.0881 89.263 33.4799 89.3024 33.2181 89.3243C31.0217 89.512 29.1183 90.8212 28.1699 92.7777H15.0082V43.3447H25.0781C26.0486 43.3447 26.8359 42.5574 26.8359 41.5869C26.8359 40.6155 26.0486 39.8291 25.0781 39.8291H13.2504C12.28 39.8291 11.4926 40.6155 11.4926 41.5869V94.5355C11.4926 95.5069 12.28 96.2933 13.2504 96.2933H27.5391V99.809H8.40637C8.16925 99.809 7.97699 99.6167 7.97699 99.3805V36.742Z" fill="black"/>
</svg>
