<svg width="100" height="100" viewBox="0 0 100 100" fill="none" xmlns="http://www.w3.org/2000/svg">
<path d="M64.6484 33.6914H55.8594L64.6484 47.7787C67.8012 46.2209 70.757 44.1299 73.3816 41.5053C72.8926 37.126 69.1529 33.6914 64.6484 33.6914Z" fill="#1B74D6"/>
<path d="M35.3504 33.6914C30.8461 33.6914 27.1064 37.126 26.6172 41.5053C29.2418 44.1299 32.1978 46.2209 35.3504 47.7787L44.1395 33.6914H35.3504Z" fill="#54A5FF"/>
<path d="M55.8611 33.6914H44.1406C39.2865 33.6914 35.3516 37.6264 35.3516 42.4805V47.7787C44.5586 52.3279 55.4432 52.3279 64.6502 47.7787V42.4805C64.6502 37.6264 60.7152 33.6914 55.8611 33.6914Z" fill="#1E8AFF"/>
<path d="M13.1836 14.3577C9.94727 14.3577 7.32422 16.9807 7.32422 20.217V60.2561H19.043V20.217C19.043 16.9807 16.4199 14.3577 13.1836 14.3577Z" fill="#FFB739"/>
<path d="M35.8867 79.7058V94.8263L47.0707 92.6757V86.8164L35.8867 79.7058Z" fill="#FFB739"/>
<path d="M39.7461 73.6349L13.1836 50.5034V14.4794C13.1836 11.2866 10.6805 8.5878 7.48887 8.5003C4.17754 8.40967 1.46484 11.0669 1.46484 14.3575V57.4642C1.46484 58.9124 1.82266 60.338 2.50645 61.6146L16.1133 84.0841L14.1602 94.8263H41.2109V85.2444L39.7461 73.6349Z" fill="#FFD17E"/>
<path d="M41.2109 92.6758L38.2812 95.6055L41.2109 98.5352H47.0703V92.6758H41.2109Z" fill="#B8D8FF"/>
<path d="M8.69238 92.6758L7.62695 98.5352H41.2115V92.6758H8.69238Z" fill="#DBEBFF"/>
<path d="M86.8164 14.3577C90.0527 14.3577 92.6758 16.9807 92.6758 20.217V60.2561H80.957V20.217C80.957 16.9807 83.5801 14.3577 86.8164 14.3577Z" fill="#FFB739"/>
<path d="M92.5111 8.50055C91.7389 8.52165 91.0076 8.69704 90.3418 8.99391V57.0888L83.8867 84.0842L97.4936 61.6146C98.1773 60.3381 98.5352 58.9125 98.5352 57.4642V14.3576C98.5352 11.067 95.8223 8.40973 92.5111 8.50055Z" fill="#FFB739"/>
<path d="M92.2541 60.9817C92.5334 60.1126 92.6758 59.2052 92.6758 58.2923V14.3575C92.6758 11.9606 91.7158 9.90146 90.3418 8.99365C88.2555 9.92393 86.8164 12.0591 86.8164 14.4794V50.5034L60.2539 73.6348L52.9297 86.8163V92.6757L58.7891 94.8263H85.8398L83.8867 84.0841L92.2541 60.9817Z" fill="#FFD17E"/>
<path d="M85.4482 92.6758L83.584 95.6055L86.5137 98.5352H92.373L91.3076 92.6758H85.4482Z" fill="#B8D8FF"/>
<path d="M52.9297 92.6758V98.5352H86.5141L85.4488 92.6758H52.9297Z" fill="#DBEBFF"/>
<path d="M84.9822 46.2455C82.6637 44.0505 78.9852 44.1888 76.7277 46.4464L56.3621 66.8121C54.2414 68.9328 52.9297 71.8625 52.9297 75.0986V86.8164C59.4014 86.8164 64.6479 81.5703 64.6484 75.0986L85.1004 54.6468C87.4272 52.3199 87.3879 48.5226 84.9822 46.2455Z" fill="#FFEAC3"/>
<path d="M47.0713 75.0987C47.0713 71.8625 45.7596 68.9329 43.6391 66.8122L23.2734 46.4465L41.2119 85.2446C42.9359 86.2424 44.9361 86.8163 47.0713 86.8163V75.0987Z" fill="#FFD17E"/>
<path d="M38.6235 66.8121L23.2723 46.4464C21.0147 44.1888 17.3364 44.0505 15.0178 46.2455C12.6121 48.5226 12.5729 52.3199 14.8998 54.6466L35.3514 75.0986C35.3518 79.4349 37.7092 83.2183 41.2106 85.2447V75.0986C41.2108 71.8625 40.2219 68.9328 38.6235 66.8121Z" fill="#FFEAC3"/>
<path d="M50 1.46484V27.832C57.2811 27.832 63.1836 21.9295 63.1836 14.6484C63.1836 7.36738 57.2811 1.46484 50 1.46484Z" fill="#1B74D6"/>
<path d="M57.3242 14.6484C57.3242 7.36738 54.0451 1.46484 50 1.46484C42.7189 1.46484 36.8164 7.36738 36.8164 14.6484C36.8164 21.9295 42.7189 27.832 50 27.832C54.0451 27.832 57.3242 21.9295 57.3242 14.6484Z" fill="#1E8AFF"/>
<path d="M50 29.2969C58.0771 29.2969 64.6484 22.7256 64.6484 14.6484C64.6484 6.57129 58.0771 0 50 0C41.9229 0 35.3516 6.57129 35.3516 14.6484C35.3516 22.7256 41.9229 29.2969 50 29.2969ZM50 2.92969C56.4617 2.92969 61.7188 8.18672 61.7188 14.6484C61.7188 21.1102 56.4617 26.3672 50 26.3672C43.5383 26.3672 38.2812 21.1102 38.2812 14.6484C38.2812 8.18672 43.5383 2.92969 50 2.92969Z" fill="black"/>
<path d="M97.7828 9.10794C96.3537 7.71732 94.4645 6.98255 92.4709 7.03646C89.0369 7.1306 86.1629 9.69759 85.4971 13.0142C82.0863 13.6374 79.4922 16.629 79.4922 20.2171V38.7847C79.4922 39.5939 80.1479 40.2495 80.957 40.2495C81.7662 40.2495 82.4219 39.5939 82.4219 38.7847V20.2171C82.4219 18.3076 83.6467 16.6792 85.3516 16.0745V44.6478C82.4855 42.5121 78.3156 42.7869 75.6918 45.4107L55.3262 65.7763C52.8363 68.2663 51.4648 71.5771 51.4648 75.0984V98.5351C51.4648 99.3443 52.1205 99.9999 52.9297 99.9999H92.3736C92.808 99.9999 93.2199 99.8072 93.4982 99.4738C93.7768 99.1402 93.8928 98.7005 93.8148 98.2732L92.7494 92.4138C92.6229 91.7173 92.0162 91.2111 91.3082 91.2111H86.6713L85.4271 84.3685L98.7463 62.3736C98.7596 62.3517 98.7725 62.3292 98.7846 62.3066C99.5795 60.8224 99.9998 59.1482 99.9998 57.4644V14.3577C100 12.3634 99.2127 10.499 97.7828 9.10794ZM90.6186 97.0703H54.3945V94.1406H90.0857L90.6186 97.0703ZM97.0703 57.4642C97.0703 58.6546 96.7762 59.8384 96.2197 60.8904L82.6338 83.3255C82.4484 83.6314 82.3814 83.9945 82.4455 84.3464L83.6936 91.2109H54.3945V75.0986C54.3945 72.3599 55.4611 69.7847 57.3979 67.848L77.7635 47.4824C79.4777 45.7675 82.2648 45.6902 83.9752 47.3091C84.8461 48.1337 85.3348 49.2464 85.3512 50.4427C85.3676 51.6396 84.9105 52.7646 84.0645 53.6107L63.6125 74.0626C63.0404 74.6349 63.0404 75.5622 63.6125 76.1343C64.1848 76.7062 65.1121 76.7062 65.6842 76.1343L86.1361 55.6824C87.5223 54.296 88.2801 52.4599 88.2795 50.5033C88.2812 50.5035 88.2812 14.4796 88.2812 14.4796C88.2812 12.0548 90.1969 10.0296 92.5512 9.96498C93.7506 9.93197 94.8824 10.3736 95.7398 11.2077C96.5979 12.0423 97.0703 13.1611 97.0703 14.3577V57.4642Z" fill="black"/>
<path d="M74.8382 41.3428C74.2575 36.1457 69.877 32.2266 64.6491 32.2266H35.3505C30.1223 32.2266 25.7421 36.1455 25.1614 41.3426C25.112 41.7854 25.2665 42.2262 25.5813 42.5412C32.1038 49.0637 40.7757 52.6557 49.9997 52.6557C59.2233 52.6557 67.896 49.0633 74.418 42.5414C74.7329 42.2264 74.8876 41.7854 74.8382 41.3428ZM49.9997 49.726C41.805 49.726 34.0862 46.6279 28.1813 40.9861C28.8792 37.618 31.8485 35.1563 35.3505 35.1563H64.6491C68.151 35.1563 71.1202 37.618 71.818 40.9861C65.9132 46.6279 58.1944 49.726 49.9997 49.726Z" fill="black"/>
<path d="M48.5352 75.0985C48.5352 71.5772 47.1639 68.2665 44.6738 65.7763L24.3082 45.4106C21.684 42.7864 17.5143 42.512 14.6484 44.6477V16.0745C16.3533 16.6792 17.5781 18.3075 17.5781 20.2171V38.7847C17.5781 39.5938 18.234 40.2495 19.043 40.2495C19.852 40.2495 20.5078 39.5938 20.5078 38.7847V20.2171C20.5078 16.629 17.9137 13.6376 14.5029 13.0141C13.8369 9.69754 10.9631 7.13035 7.52891 7.03641C5.53125 6.98055 3.64609 7.71727 2.21699 9.10789C0.787305 10.4989 0 12.3634 0 14.3577V57.4642C0 59.1479 0.420117 60.8222 1.21523 62.3063C1.22734 62.329 1.24004 62.3513 1.25332 62.3733L14.5727 84.3683L13.3287 91.2108H8.6918C7.98379 91.2108 7.37734 91.7171 7.25059 92.4136L6.18516 98.2729C6.10742 98.7003 6.22344 99.1401 6.50176 99.4735C6.78008 99.8069 7.19199 99.9997 7.62637 99.9997H47.0703C47.8793 99.9997 48.5352 99.344 48.5352 98.5349V92.6931C48.5352 92.6872 48.5352 92.6813 48.5352 92.6755C48.5352 92.6696 48.5352 92.6638 48.5352 92.6579V75.0985ZM45.6055 97.0702H9.38164L9.91426 94.1405H45.6055V97.0702ZM45.6055 91.2108H16.3062L17.5543 84.3464C17.6184 83.9944 17.5514 83.6315 17.3662 83.3255L3.78027 60.8903C3.22363 59.8384 2.92969 58.6546 2.92969 57.4642V14.3577C2.92969 13.161 3.40215 12.0425 4.26016 11.2077C5.11777 10.3735 6.24883 9.9325 7.44883 9.96492C9.80313 10.0296 11.7188 12.0548 11.7188 14.4796V50.5034C11.7197 52.4602 12.4775 54.2962 13.8639 55.6825L34.3156 76.1345C34.8875 76.7063 35.815 76.7063 36.3871 76.1345C36.9592 75.5622 36.9592 74.6349 36.3871 74.0628L15.9355 53.6106C15.0895 52.7645 14.6324 51.6395 14.6488 50.4427C14.6652 49.2464 15.1539 48.1337 16.0248 47.3091C17.7352 45.6897 20.5217 45.7675 22.2365 47.4823L42.6021 67.8477C44.5389 69.7847 45.6055 72.3599 45.6053 75.0985V91.2108H45.6055Z" fill="black"/>
<g clip-path="url(#clip0_986_1260)">
<path d="M50.0001 48.682C55.5845 48.682 60.1115 44.534 60.1115 32.8729C60.1115 27.2885 55.5845 22.7615 50.0001 22.7615C44.4157 22.7615 39.8887 27.2885 39.8887 32.8729C39.8887 44.5341 44.4157 48.682 50.0001 48.682Z" fill="#F7EF87"/>
<path d="M40.8418 30.504C40.1682 30.317 39.4872 30.7692 39.3954 31.4623C39.3343 31.924 39.3027 32.3949 39.3027 32.873C39.3027 38.4677 40.3373 42.7151 42.3777 45.4967C44.1871 47.9637 46.8228 49.2676 49.9996 49.2676C53.1765 49.2676 55.8121 47.9637 57.6215 45.4967C58.5205 44.2711 59.2239 42.7607 59.73 40.9761C54.968 35.1974 45.7932 31.8786 40.8418 30.504Z" fill="#EFD176"/>
<path d="M67.0947 20.2704C68.7669 18.5982 68.7668 15.8871 67.0947 14.215C65.4226 12.5429 62.7115 12.5429 61.0394 14.215C59.3673 15.8871 59.3673 18.5982 61.0394 20.2703C62.7115 21.9425 65.4226 21.9425 67.0947 20.2704Z" fill="#FFBF9E"/>
<path d="M39.9049 18.8434C40.7871 16.6486 39.723 14.1542 37.5281 13.272C35.3333 12.3898 32.8389 13.4539 31.9567 15.6487C31.0745 17.8435 32.1386 20.338 34.3335 21.2201C36.5283 22.1023 39.0227 21.0382 39.9049 18.8434Z" fill="#FFD4BE"/>
<path d="M63.9231 16.8548C63.9231 9.50034 57.6898 3.53833 50.0006 3.53833C42.3114 3.53833 36.0781 9.50034 36.0781 16.8548C36.0781 24.2093 42.3114 29.1498 50.0006 29.1498C57.6898 29.1498 63.9231 24.2093 63.9231 16.8548Z" fill="#FFD4BE"/>
<path d="M55.021 28.3942C39.8385 25.6176 40.4584 10.5104 44.3869 4.66602C39.4939 6.73066 36.0781 11.4108 36.0781 16.8547C36.0781 24.2092 42.3114 29.1496 50.0006 29.1496C51.7708 29.1496 53.4635 28.8871 55.021 28.3942Z" fill="#FFBF9E"/>
<path d="M42.614 21.7515C44.1191 21.7515 45.3393 20.7798 45.3393 19.5812C45.3393 18.3826 44.1191 17.4109 42.614 17.4109C41.1088 17.4109 39.8887 18.3826 39.8887 19.5812C39.8887 20.7798 41.1088 21.7515 42.614 21.7515Z" fill="#EDA1AB"/>
<path d="M57.3854 21.7515C58.8906 21.7515 60.1107 20.7798 60.1107 19.5812C60.1107 18.3826 58.8906 17.4109 57.3854 17.4109C55.8803 17.4109 54.6602 18.3826 54.6602 19.5812C54.6602 20.7798 55.8803 21.7515 57.3854 21.7515Z" fill="#EDA1AB"/>
<path d="M57.6212 45.4966C59.4406 43.0164 60.4596 39.3701 60.6591 34.6428C60.6907 33.8959 60.0024 33.3218 59.2743 33.4917C50.8552 35.4552 44.2797 39.7657 40.832 42.6449C41.2589 43.7213 41.7737 44.6737 42.3774 45.4966C44.1868 47.9636 46.8225 49.2675 49.9993 49.2675C53.1762 49.2675 55.8118 47.9636 57.6212 45.4966Z" fill="#EAB65F"/>
<path d="M43.7975 36.3822C43.6101 36.3822 43.4226 36.3107 43.2797 36.1678L42.7692 35.6573C42.4832 35.3712 42.4832 34.9075 42.7692 34.6214C43.0553 34.3355 43.519 34.3355 43.805 34.6214L44.3154 35.132C44.6014 35.4181 44.6014 35.8818 44.3154 36.1679C44.1724 36.3106 43.985 36.3822 43.7975 36.3822Z" fill="#EB9C32"/>
<path d="M47.1309 44.0879C46.9435 44.0879 46.756 44.0164 46.6129 43.8733C46.3269 43.5873 46.327 43.1235 46.613 42.8375L47.211 42.2396C47.497 41.9536 47.9607 41.9537 48.2468 42.2397C48.5328 42.5258 48.5327 42.9895 48.2467 43.2756L47.6489 43.8734C47.5058 44.0163 47.3183 44.0879 47.1309 44.0879Z" fill="#EB9C32"/>
<path d="M54.1216 44.0822C53.9342 44.0822 53.7467 44.0107 53.6037 43.8677L53.0173 43.2813C52.7312 42.9952 52.7312 42.5315 53.0173 42.2455C53.3033 41.9595 53.7671 41.9595 54.053 42.2455L54.6394 42.8319C54.9255 43.118 54.9255 43.5817 54.6394 43.8677C54.4964 44.0107 54.309 44.0822 54.1216 44.0822Z" fill="#EB9C32"/>
<path d="M55.4101 39.3968C55.2227 39.3968 55.0352 39.3253 54.8923 39.1824C54.6062 38.8963 54.6062 38.4326 54.8923 38.1465L55.3856 37.6532C55.6717 37.3672 56.1354 37.3672 56.4215 37.6532C56.7075 37.9393 56.7075 38.403 56.4215 38.689L55.9281 39.1824C55.785 39.3253 55.5975 39.3968 55.4101 39.3968Z" fill="#EB9C32"/>
<path d="M54.4883 32.4998C54.3009 32.4998 54.1135 32.4284 53.9704 32.2854C53.6844 31.9993 53.6843 31.5356 53.9703 31.2496L54.1512 31.0687C54.4373 30.7825 54.9009 30.7824 55.187 31.0686C55.4731 31.3546 55.4732 31.8183 55.1871 32.1043L55.0063 32.2853C54.8632 32.4282 54.6757 32.4998 54.4883 32.4998Z" fill="#EFD176"/>
<path d="M44.2017 18.1208C44.9523 18.1208 45.666 17.7958 46.16 17.229C46.4258 16.9241 46.394 16.4615 46.0891 16.1957C45.7842 15.9298 45.3215 15.9616 45.0558 16.2666C44.84 16.5141 44.5288 16.656 44.2018 16.656C43.8747 16.656 43.5634 16.5141 43.3477 16.2666C43.0818 15.9615 42.6191 15.9299 42.3143 16.1957C42.0094 16.4615 41.9775 16.9241 42.2434 17.229C42.7373 17.7958 43.4511 18.1208 44.2017 18.1208ZM55.7972 18.1208C56.5477 18.1208 57.2614 17.7958 57.7555 17.2291C58.0213 16.9241 57.9896 16.4615 57.6847 16.1957C57.3799 15.9299 56.9171 15.9617 56.6513 16.2665C56.4356 16.5141 56.1242 16.656 55.7972 16.656C55.4701 16.656 55.1589 16.5141 54.9432 16.2666C54.6774 15.9615 54.2148 15.9299 53.9098 16.1957C53.6048 16.4615 53.5731 16.9241 53.8389 17.229C54.3329 17.7958 55.0467 18.1208 55.7972 18.1208ZM51.0866 18.6672C51.0866 18.0268 50.5998 17.5077 49.9994 17.5077C49.3989 17.5077 48.9122 18.0269 48.9122 18.6672C48.9122 19.3075 49.3989 19.8267 49.9994 19.8267C50.5999 19.8267 51.0866 19.3075 51.0866 18.6672ZM63.838 12.2315C61.7513 6.50771 55.9284 2.49277 49.22 2.82773C49.4014 2.04805 50.1004 1.46484 50.9345 1.46484C51.339 1.46484 51.6669 1.13701 51.6669 0.732422C51.6669 0.327832 51.339 0 50.9345 0C49.2402 0 47.8479 1.31279 47.7187 2.97451C45.4395 3.31445 43.285 4.16436 41.3928 5.48252C41.0608 5.71377 40.9793 6.17031 41.2105 6.50215C41.4416 6.83398 41.8981 6.91553 42.2301 6.68447C43.9259 5.50303 45.8567 4.73857 47.901 4.42832C48.407 5.96436 49.8547 7.07656 51.558 7.07656C51.9625 7.07656 52.2904 6.74873 52.2904 6.34414C52.2904 5.93965 51.9625 5.61172 51.558 5.61172C50.6222 5.61172 49.8109 5.06973 49.4204 4.2833C57.0145 3.97266 63.1894 9.78574 63.1894 16.8547C63.1894 24.0138 57.0388 28.4171 49.9994 28.4171C42.8897 28.4171 36.8095 23.9612 36.8095 16.8547C36.8095 13.9698 37.8585 11.1513 39.7632 8.91807C40.0257 8.61035 39.989 8.14795 39.6813 7.88555C39.3733 7.62295 38.9111 7.65967 38.6487 7.96748C37.5608 9.24297 36.7232 10.6902 36.1632 12.2315C33.3109 12.0931 30.9121 14.3828 30.9121 17.2401C30.9121 20.2332 33.5362 22.5802 36.5288 22.2185C37.4493 24.163 38.8801 25.8502 40.78 27.1627C40.2278 28.0512 39.8114 29.0078 39.5369 30.0181C39.0395 30.33 38.7403 30.83 38.6693 31.3657C38.6036 31.862 38.5702 32.369 38.5702 32.8728C38.5702 37.2609 39.2007 42.404 41.787 45.9296C43.7399 48.5926 46.5797 50 49.9994 50C52.7293 50 55.1452 49.0756 56.9862 47.3267C57.2794 47.048 57.2913 46.5844 57.0127 46.2912C56.7341 45.998 56.2704 45.9862 55.9773 46.2646C54.3914 47.7713 52.3801 48.5352 49.9994 48.5352C47.0653 48.5352 44.6339 47.3347 42.9681 45.0634C42.4981 44.4228 42.0787 43.6851 41.7179 42.8651C46.6355 38.8912 52.9714 35.7138 59.4407 34.2049C59.6964 34.1452 59.9386 34.3475 59.9275 34.6119C59.7704 38.3338 59.0926 41.3701 57.9127 43.6365C57.7259 43.9953 57.8654 44.4376 58.2242 44.6243C58.583 44.8112 59.0253 44.6717 59.212 44.3128C60.4916 41.8546 61.2247 38.6115 61.3909 34.6736C61.4134 34.1421 61.2142 33.6399 60.841 33.271C60.8425 33.1315 60.8433 33.0002 60.8433 32.8728C60.8433 30.8341 60.2829 28.876 59.2183 27.1633C61.1204 25.8493 62.5506 24.161 63.4702 22.2185C66.4659 22.5806 69.0869 20.2305 69.0869 17.2401C69.0868 14.3861 66.692 12.0947 63.838 12.2315ZM32.3769 17.2403C32.3769 15.3518 33.8595 13.8033 35.7219 13.6967C35.1545 16.0504 35.2213 18.5224 35.96 20.7893C33.9827 20.8085 32.3769 19.2045 32.3769 17.2403ZM41.1721 41.4271C40.4172 39.104 40.035 36.2328 40.035 32.873C40.035 32.4335 40.0641 31.9912 40.1214 31.5584C40.156 31.2978 40.4096 31.144 40.6458 31.2098C42.9311 31.8442 47.1677 33.1896 51.2958 35.3921C46.6301 37.4395 43.1425 39.8761 41.1721 41.4271ZM59.3758 32.7366C59.2865 32.7443 59.1971 32.7577 59.108 32.7785C56.9294 33.2866 54.8959 33.9418 53.025 34.6744C48.5094 32.0926 43.6887 30.5393 41.1276 29.8235C41.3548 29.1612 41.6577 28.5297 42.0293 27.9325C46.7839 30.5351 53.2154 30.5355 57.9711 27.9317C58.8693 29.3751 59.3515 31.021 59.3758 32.7366ZM64.039 20.7893C64.7906 18.4827 64.8328 15.9919 64.2809 13.697C66.1414 13.8055 67.622 15.353 67.622 17.2403C67.622 19.202 66.0184 20.8085 64.039 20.7893Z" fill="black"/>
</g>
<defs>
<clipPath id="clip0_986_1260">
<rect width="50" height="50" fill="white" transform="translate(25)"/>
</clipPath>
</defs>
</svg>
