<svg width="160" height="160" viewBox="0 0 160 160" fill="none" xmlns="http://www.w3.org/2000/svg">
<path d="M152.727 0H7.27273C3.25611 0 0 3.25611 0 7.27273V152.727C0 156.744 3.25611 160 7.27273 160H152.727C156.744 160 160 156.744 160 152.727V7.27273C160 3.25611 156.744 0 152.727 0Z" fill="#16A492"/>
</svg>
