<svg width="200" height="200" viewBox="0 0 200 200" fill="none" xmlns="http://www.w3.org/2000/svg">
<path d="M172.899 2.92969H41.484C33.2778 2.92969 26.625 9.58252 26.625 17.7887V182.211C26.625 190.417 33.2778 197.07 41.484 197.07H172.899C181.105 197.07 187.758 190.417 187.758 182.211V17.7887C187.756 9.58252 181.105 2.92969 172.899 2.92969Z" fill="#7EB9E7"/>
<path d="M46.1562 182.211V17.7887C46.1562 9.58252 52.8091 2.92969 61.0153 2.92969H41.484C33.2778 2.92969 26.625 9.58252 26.625 17.7887V182.211C26.625 190.417 33.2778 197.07 41.484 197.07H61.0153C52.8091 197.07 46.1562 190.417 46.1562 182.211Z" fill="#73A8D3"/>
<path d="M32.5118 25.0947H20.7397C16.0812 25.0947 12.3062 28.8698 12.3062 33.5283C12.3062 38.1868 16.0812 41.9618 20.7397 41.9618H32.5118C37.1688 41.9618 40.9454 38.1868 40.9454 33.5283C40.9454 28.8713 37.1688 25.0947 32.5118 25.0947Z" fill="#495059"/>
<path d="M32.5118 174.905H20.7397C16.0812 174.905 12.3062 171.13 12.3062 166.472C12.3062 161.813 16.0812 158.038 20.7397 158.038H32.5118C37.1688 158.038 40.9454 161.813 40.9454 166.472C40.9454 171.129 37.1688 174.905 32.5118 174.905Z" fill="#495059"/>
<path d="M32.5118 141.67H20.7397C16.0812 141.67 12.3062 137.894 12.3062 133.237C12.3062 128.578 16.0812 124.802 20.7397 124.802H32.5118C37.1688 124.802 40.9454 128.578 40.9454 133.237C40.9454 137.894 37.1688 141.67 32.5118 141.67Z" fill="#495059"/>
<path d="M32.5118 108.433H20.7397C16.0812 108.433 12.3062 104.658 12.3062 99.9999C12.3062 95.3414 16.0812 91.5664 20.7397 91.5664H32.5118C37.1688 91.5664 40.9454 95.3414 40.9454 99.9999C40.9454 104.658 37.1688 108.433 32.5118 108.433Z" fill="#495059"/>
<path d="M32.5118 75.1987H20.7397C16.0812 75.1987 12.3062 71.4221 12.3062 66.7636C12.3062 62.1066 16.0812 58.3301 20.7397 58.3301H32.5118C37.1688 58.3301 40.9454 62.1066 40.9454 66.7636C40.9454 71.4221 37.1688 75.1987 32.5118 75.1987Z" fill="#495059"/>
<path d="M169.803 113.49V62.5852C169.803 57.3087 165.527 53.0332 160.255 53.0332H68.4464C63.1744 53.0332 58.8989 57.3087 58.8989 62.5852V123.182L73.9914 146.966L169.803 113.49Z" fill="#F6E05F"/>
<path d="M108.67 111.92C103.566 106.816 96.637 103.946 89.418 103.946C85.8032 103.946 82.2693 104.663 78.9963 106.018C75.7233 107.371 72.7142 109.367 70.1614 111.92L58.8989 123.183V137.414C58.8989 142.691 63.1729 146.966 68.4464 146.966H73.9914L94.0567 136.523L108.131 112.828L108.855 112.105L108.67 111.92Z" fill="#AD8A71"/>
<path d="M169.803 113.49V137.414C169.803 142.691 165.527 146.966 160.255 146.966H73.9912L108.853 112.104L119.383 101.579C124.487 96.4702 131.415 93.6016 138.635 93.6016H138.638C145.859 93.6016 152.786 96.4702 157.89 101.579L169.803 113.49Z" fill="#CAA488"/>
<path d="M106.371 77.4718C106.371 83.3861 101.576 88.1804 95.6622 88.1804C89.7479 88.1804 84.9551 83.3861 84.9551 77.4718C84.9551 71.5575 89.7479 66.7632 95.6622 66.7632C101.576 66.7632 106.371 71.5575 106.371 77.4718Z" fill="#EC8B98"/>
<path d="M95.6622 91.1101C103.183 91.1101 109.3 84.9913 109.3 77.4718C109.3 69.9523 103.183 63.8335 95.6622 63.8335C88.1426 63.8335 82.0254 69.9523 82.0254 77.4718C82.0254 84.9913 88.1426 91.1101 95.6622 91.1101ZM95.6622 69.6944C99.9514 69.6944 103.441 73.1841 103.441 77.4718C103.441 81.761 99.9514 85.2507 95.6622 85.2507C91.3729 85.2507 87.8848 81.761 87.8848 77.4718C87.8848 73.1841 91.3729 69.6944 95.6622 69.6944Z" fill="black"/>
<path d="M84.6968 31.2974V25.3999C84.6968 23.7825 83.3845 22.4702 81.7671 22.4702C80.1497 22.4702 78.8374 23.7825 78.8374 25.3999V31.2974C78.8374 32.9149 80.1497 34.2271 81.7671 34.2271C83.3845 34.2271 84.6968 32.9149 84.6968 31.2974Z" fill="black"/>
<path d="M146.935 22.4702C145.316 22.4702 144.005 23.7825 144.005 25.3999V31.2974C144.005 32.9149 145.316 34.2271 146.935 34.2271C148.552 34.2271 149.864 32.9149 149.864 31.2974V25.3999C149.864 23.7825 148.552 22.4702 146.935 22.4702Z" fill="black"/>
<path d="M114.351 37.3748C118.331 37.3748 122.066 35.7131 124.599 32.8155C125.664 31.5963 125.539 29.7454 124.321 28.6804C123.103 27.6153 121.253 27.7404 120.188 28.9581C118.767 30.5831 116.64 31.5139 114.351 31.5139C112.062 31.5139 109.935 30.5831 108.515 28.9581C107.449 27.7404 105.599 27.6153 104.381 28.6804C103.162 29.7454 103.038 31.5963 104.103 32.814C106.636 35.7131 110.372 37.3748 114.351 37.3748Z" fill="black"/>
<path d="M55.9692 62.5852V137.414C55.9692 144.296 61.5662 149.896 68.4463 149.896H160.255C167.136 149.896 172.733 144.296 172.733 137.414V62.5852C172.733 55.7035 167.134 50.1035 160.254 50.1035H68.4463C61.5662 50.1035 55.9692 55.7035 55.9692 62.5852ZM61.8286 137.414V124.396C61.8286 124.396 72.2321 113.992 72.2336 113.991C76.741 109.483 83.0414 106.875 89.418 106.875H89.4318C94.6197 106.875 99.9023 108.658 104.086 111.815C104.259 111.944 104.431 112.079 104.601 112.214L72.7783 144.035H68.4463C64.798 144.037 61.8286 141.066 61.8286 137.414ZM160.255 144.037H81.0654L120.799 104.306C125.597 99.5115 131.769 96.5314 138.64 96.5314C144.374 96.5314 149.974 98.5792 154.343 102.296C154.849 102.727 166.873 114.703 166.873 114.703V137.414C166.873 141.066 163.904 144.037 160.255 144.037ZM166.873 62.5852V106.418C166.873 106.418 159.964 99.5084 159.964 99.5069C154.33 93.8749 146.6 90.6705 138.635 90.6705C130.736 90.6705 122.899 93.9176 117.313 99.5054L108.769 108.047C108.728 108.012 108.684 107.98 108.643 107.947C103.31 103.546 96.3379 101.016 89.418 101.016C81.4758 101.016 73.703 104.234 68.0893 109.848L61.8286 116.108V62.5852C61.8286 58.9338 64.798 55.9629 68.4463 55.9629H160.255C163.904 55.9629 166.873 58.9338 166.873 62.5852Z" fill="black"/>
<path d="M172.899 194.14H75.4214C73.804 194.14 72.4917 195.452 72.4917 197.07C72.4917 198.687 73.804 200 75.4214 200H172.899C182.706 200 190.686 192.019 190.686 182.211V17.7887C190.686 7.98033 182.707 0 172.899 0H153.156C151.538 0 150.226 1.31225 150.226 2.92968C150.226 4.54711 151.538 5.85936 153.156 5.85936H172.899C179.475 5.85936 184.827 11.2106 184.827 17.7887V182.211C184.827 188.789 179.475 194.14 172.899 194.14Z" fill="black"/>
<path d="M20.7382 155.108C14.473 155.108 9.375 160.206 9.375 166.472C9.375 172.738 14.473 177.835 20.7382 177.835H23.6953V182.212C23.6953 192.019 31.6757 200 41.484 200H63.7023C65.3212 200 66.632 198.689 66.632 197.07C66.632 195.452 65.3212 194.14 63.7023 194.14H41.484C34.906 194.14 29.5547 188.789 29.5547 182.212V177.835H32.5103C38.7756 177.835 43.8735 172.737 43.8735 166.472C43.8735 160.307 38.6703 155.108 32.5103 155.108H29.5547V144.6H32.5103C38.7008 144.6 43.8735 139.416 43.8735 133.236C43.8735 126.97 38.7756 121.872 32.5103 121.872H29.5547V111.363H32.5103C38.7771 111.363 43.8735 106.265 43.8735 99.9998C43.8735 96.1256 41.9235 92.7 38.9556 90.6477C37.1231 89.3812 34.9029 88.6366 32.5103 88.6366H29.5547V78.1279H32.5103C38.7771 78.1279 43.8735 73.0299 43.8735 66.7647C43.8735 60.4979 38.7756 55.4015 32.5103 55.4015H29.5547V44.8913H32.5103C34.8785 44.8913 37.0773 44.1634 38.8992 42.9198C41.899 40.8721 43.8735 37.4267 43.8735 33.5281C43.8735 29.6539 41.9235 26.2283 38.9556 24.1775C37.1231 22.9095 34.9029 22.1649 32.5103 22.1649H29.5547V17.7887C29.5547 11.2106 34.906 5.85936 41.484 5.85936H141.437C143.055 5.85936 144.366 4.54711 144.366 2.92968C144.366 1.31225 143.055 0 141.437 0H41.484C31.6742 0 23.6953 7.98033 23.6953 17.7887V22.1649H20.7382C14.473 22.1649 9.375 27.2628 9.375 33.5281C9.375 39.7933 14.473 44.8913 20.7382 44.8913H23.6953V55.4015H20.7382C14.473 55.4015 9.375 60.4995 9.375 66.7647C9.375 73.0299 14.473 78.1279 20.7382 78.1279H23.6953V88.6366H20.7382C14.473 88.6366 9.375 93.7346 9.375 99.9998C9.375 106.265 14.473 111.363 20.7382 111.363H23.6953V121.872H20.7382C14.473 121.872 9.375 126.97 9.375 133.235C9.375 139.5 14.473 144.598 20.7382 144.598H23.6953V155.108H20.7382ZM15.2344 33.5281C15.2344 30.4931 17.7048 28.0242 20.7382 28.0242H32.5103C35.4675 28.0242 38.0157 30.5099 38.0157 33.5281C38.0157 36.5173 35.498 39.0319 32.5103 39.0319H20.7382C17.7048 39.0319 15.2344 36.563 15.2344 33.5281ZM15.2344 66.7647C15.2344 63.7297 17.7048 61.2609 20.7382 61.2609H32.5103C35.5087 61.2609 38.0157 63.7694 38.0157 66.7647C38.0157 69.7386 35.4827 72.2685 32.5103 72.2685H20.7382C17.7048 72.2685 15.2344 69.7997 15.2344 66.7647ZM15.2344 99.9998C15.2344 96.9648 17.7048 94.496 20.7382 94.496H32.5103C35.4537 94.496 38.0157 96.9984 38.0157 99.9998C38.0157 103.035 35.5453 105.504 32.5103 105.504H20.7382C17.7048 105.504 15.2344 103.035 15.2344 99.9998ZM15.2344 133.235C15.2344 130.2 17.7048 127.731 20.7382 127.731H32.5103C35.5453 127.731 38.0157 130.2 38.0157 133.235C38.0157 136.22 35.4934 138.739 32.5103 138.739H20.7382C17.7048 138.74 15.2344 136.27 15.2344 133.235ZM15.2344 166.472C15.2344 163.437 17.7048 160.968 20.7382 160.968H32.5103C35.4599 160.968 38.0157 163.459 38.0157 166.472C38.0157 169.507 35.5453 171.975 32.5103 171.975H20.7382C17.7048 171.975 15.2344 169.507 15.2344 166.472Z" fill="black"/>
</svg>
