<svg width="100" height="100" viewBox="0 0 100 100" fill="none" xmlns="http://www.w3.org/2000/svg">
<path d="M57.8125 66.7695L86.6602 81.1939C88.364 82.0456 89.8345 83.2998 90.9443 84.8479C92.0542 86.396 92.77 88.1913 93.0297 90.0783L93.75 95.3127H6.25L6.97031 90.0783C7.23001 88.1913 7.94578 86.396 9.05566 84.8479C10.1655 83.2998 11.636 82.0456 13.3398 81.1939L42.1875 66.7695H57.8125Z" fill="#EA9D2D"/>
<path d="M13.3379 81.1936L15.625 80.051V95.3127H6.25L6.9707 90.0784C7.23065 88.1917 7.94626 86.3967 9.05565 84.8486C10.165 83.3006 11.6348 82.0461 13.3379 81.1936Z" fill="#EA9D2D"/>
<path d="M93.75 95.3127H84.375V80.051L86.6621 81.1936C88.3652 82.0461 89.835 83.3006 90.9443 84.8486C92.0537 86.3967 92.7694 88.1917 93.0293 90.0784L93.75 95.3127Z" fill="#EA9D2D"/>
<path d="M69.9609 72.844L50 89.0627L30.0391 72.844L36.7617 69.4827L42.1875 66.7698H57.8125L64.1445 69.9358L69.9609 72.844Z" fill="#EA9D2D"/>
<path d="M60.9375 68.332L57.8125 66.7695V60.5195H42.1875V66.7695L39.0625 68.332L50 73.0195L60.9375 68.332Z" fill="#F6BB92"/>
<path d="M57.8125 60.5195V62.793C57.7969 62.8047 57.7793 62.8145 57.7637 62.8262C55.4635 64.3835 52.7482 65.2131 49.9705 65.2072C47.1927 65.2013 44.481 64.3601 42.1875 62.793V60.5195H57.8125Z" fill="#F6BB92"/>
<path d="M57.8125 60.5195V62.793C57.7969 62.8047 57.7793 62.8145 57.7637 62.8262C55.4635 64.3835 52.7482 65.2131 49.9705 65.2072C47.1927 65.2013 44.481 64.3601 42.1875 62.793V60.5195H57.8125Z" fill="#E6AF89"/>
<path d="M15.625 80.0508V95.3125H6.25L6.9707 90.0781C7.23065 88.1914 7.94626 86.3965 9.05565 84.8484C10.165 83.3004 11.6348 82.0459 13.3379 81.1934L15.625 80.0508Z" fill="#CBCBCB"/>
<path d="M93.75 95.3125H84.375V80.0508L86.6621 81.1934C88.3652 82.0459 89.835 83.3004 90.9443 84.8484C92.0537 86.3965 92.7694 88.1914 93.0293 90.0781L93.75 95.3125Z" fill="#CBCBCB"/>
<path d="M50 63.6443C47.2325 63.6443 44.5286 62.815 42.2369 61.2636C39.9453 59.7121 38.1711 57.5095 37.1432 54.94C35.3146 50.3685 34.375 45.4901 34.375 40.5664V28.125C34.375 23.981 36.0212 20.0067 38.9515 17.0765C41.8817 14.1462 45.856 12.5 50 12.5C54.144 12.5 58.1183 14.1462 61.0485 17.0765C63.9788 20.0067 65.625 23.981 65.625 28.125V40.5664C65.6251 45.4905 64.6856 50.3695 62.8568 54.9414C61.8287 57.5106 60.0544 59.7129 57.7628 61.2641C55.4711 62.8154 52.7673 63.6444 50 63.6443Z" fill="#F6BB92"/>
<path d="M59.375 35.9375H54.6875C54.2731 35.9375 53.8757 35.7729 53.5826 35.4799C53.2896 35.1868 53.125 34.7894 53.125 34.375C53.125 33.9606 53.2896 33.5632 53.5826 33.2701C53.8757 32.9771 54.2731 32.8125 54.6875 32.8125H59.375C59.7894 32.8125 60.1868 32.9771 60.4799 33.2701C60.7729 33.5632 60.9375 33.9606 60.9375 34.375C60.9375 34.7894 60.7729 35.1868 60.4799 35.4799C60.1868 35.7729 59.7894 35.9375 59.375 35.9375Z" fill="#683B0D"/>
<path d="M56.6406 40.9883C57.7193 40.9883 58.5938 40.1138 58.5938 39.0352C58.5938 37.9565 57.7193 37.082 56.6406 37.082C55.5619 37.082 54.6875 37.9565 54.6875 39.0352C54.6875 40.1138 55.5619 40.9883 56.6406 40.9883Z" fill="#683B0D"/>
<path d="M45.3125 35.9375H40.625C40.2106 35.9375 39.8132 35.7729 39.5201 35.4799C39.2271 35.1868 39.0625 34.7894 39.0625 34.375C39.0625 33.9606 39.2271 33.5632 39.5201 33.2701C39.8132 32.9771 40.2106 32.8125 40.625 32.8125H45.3125C45.7269 32.8125 46.1243 32.9771 46.4174 33.2701C46.7104 33.5632 46.875 33.9606 46.875 34.375C46.875 34.7894 46.7104 35.1868 46.4174 35.4799C46.1243 35.7729 45.7269 35.9375 45.3125 35.9375Z" fill="#683B0D"/>
<path d="M43.3594 40.9883C44.4381 40.9883 45.3125 40.1138 45.3125 39.0352C45.3125 37.9565 44.4381 37.082 43.3594 37.082C42.2807 37.082 41.4062 37.9565 41.4062 39.0352C41.4062 40.1138 42.2807 40.9883 43.3594 40.9883Z" fill="#683B0D"/>
<path d="M51.5625 48.4375H48.4375C48.0231 48.4375 47.6257 48.2729 47.3326 47.9799C47.0396 47.6869 46.875 47.2894 46.875 46.875V44.1682C46.875 43.7538 47.0396 43.3564 47.3326 43.0634C47.6257 42.7703 48.0231 42.6057 48.4375 42.6057C48.8519 42.6057 49.2493 42.7703 49.5424 43.0634C49.8354 43.3564 50 43.7538 50 44.1682V45.3125H51.5625C51.9769 45.3125 52.3743 45.4772 52.6674 45.7702C52.9604 46.0632 53.125 46.4606 53.125 46.875C53.125 47.2894 52.9604 47.6869 52.6674 47.9799C52.3743 48.2729 51.9769 48.4375 51.5625 48.4375Z" fill="#E6AF89"/>
<path d="M34.9609 33.957H32.2156C31.1308 33.957 30.0904 34.3879 29.3233 35.1549C28.5562 35.922 28.1252 36.9623 28.125 38.0471V40.8031C28.125 41.4382 28.2729 42.0646 28.5568 42.6326C28.8966 43.3121 29.4189 43.8835 30.0651 44.2828C30.7113 44.6822 31.456 44.8937 32.2156 44.8938H35.1562L34.9609 33.957Z" fill="#F6BB92"/>
<path d="M65.0391 33.957H67.7844C68.8692 33.957 69.9096 34.3879 70.6767 35.1549C71.4438 35.922 71.8748 36.9623 71.875 38.0471V40.8031C71.875 41.4382 71.7271 42.0646 71.4432 42.6326C71.1034 43.3121 70.5811 43.8835 69.9349 44.2828C69.2887 44.6822 68.544 44.8937 67.7844 44.8938H64.8438L65.0391 33.957Z" fill="#F6BB92"/>
<path d="M65.6249 35.9376L65.4296 35.153C64.5502 31.6361 62.3915 28.5733 59.3749 26.5626L59.3359 26.578C54.1997 28.6326 48.7213 29.6974 43.1894 29.7163L36.5146 29.7392C34.9441 29.7451 33.4031 29.3126 32.065 28.4904C30.727 27.6681 29.6449 26.4887 28.9408 25.0849L28.7888 24.7821C28.1096 23.4282 27.8141 21.9142 27.9344 20.4042C28.0546 18.8943 28.586 17.4461 29.4708 16.2167L29.583 16.0605C31.0732 13.9891 33.0349 12.3022 35.3062 11.1391C37.5774 9.97596 40.0928 9.37011 42.6445 9.37158C44.4472 9.37276 46.3324 9.37354 48.0619 9.37393C52.3053 9.3753 56.3746 11.0618 59.3749 14.0626L60.0074 14.0608C61.2233 14.0574 62.416 14.3935 63.4512 15.0312C64.4864 15.669 65.323 16.5831 65.8667 17.6706L65.9253 17.7899C67.7502 21.4313 68.21 25.606 67.2212 29.5571C66.4285 32.7233 65.6249 35.9376 65.6249 35.9376Z" fill="#683B0D"/>
<path d="M43.75 76.5627L50 81.2502L56.25 76.5627L50 73.0195L43.75 76.5627Z" fill="#CBCBCB"/>
<path d="M69.9609 72.8437L50 89.0625L30.0391 72.8437L36.7617 69.4824L50 81.25L64.1445 69.9355L69.9609 72.8437Z" fill="#C38325"/>
<path d="M40.625 65.625L50 73.0193L37.5 82.8125L35.9375 69.8943L40.625 65.625Z" fill="#EAEAE8"/>
<path d="M59.375 65.625L50 73.0193L62.5 82.8125L64.0625 69.8943L59.375 65.625Z" fill="#EAEAE8"/>
<path d="M54.6875 35.9375H59.375C59.7894 35.9375 60.1868 35.7729 60.4799 35.4799C60.7729 35.1868 60.9375 34.7894 60.9375 34.375C60.9375 33.9606 60.7729 33.5632 60.4799 33.2701C60.1868 32.9771 59.7894 32.8125 59.375 32.8125H54.6875C54.2731 32.8125 53.8757 32.9771 53.5826 33.2701C53.2896 33.5632 53.125 33.9606 53.125 34.375C53.125 34.7894 53.2896 35.1868 53.5826 35.4799C53.8757 35.7729 54.2731 35.9375 54.6875 35.9375Z" fill="black"/>
<path d="M56.6406 40.9883C57.7193 40.9883 58.5938 40.1138 58.5938 39.0352C58.5938 37.9565 57.7193 37.082 56.6406 37.082C55.5619 37.082 54.6875 37.9565 54.6875 39.0352C54.6875 40.1138 55.5619 40.9883 56.6406 40.9883Z" fill="black"/>
<path d="M45.3125 35.9375C45.7269 35.9375 46.1243 35.7729 46.4174 35.4799C46.7104 35.1868 46.875 34.7894 46.875 34.375C46.875 33.9606 46.7104 33.5632 46.4174 33.2701C46.1243 32.9771 45.7269 32.8125 45.3125 32.8125H40.625C40.2106 32.8125 39.8132 32.9771 39.5201 33.2701C39.2271 33.5632 39.0625 33.9606 39.0625 34.375C39.0625 34.7894 39.2271 35.1868 39.5201 35.4799C39.8132 35.7729 40.2106 35.9375 40.625 35.9375H45.3125Z" fill="black"/>
<path d="M43.3594 40.9883C44.4381 40.9883 45.3125 40.1138 45.3125 39.0352C45.3125 37.9565 44.4381 37.082 43.3594 37.082C42.2807 37.082 41.4062 37.9565 41.4062 39.0352C41.4062 40.1138 42.2807 40.9883 43.3594 40.9883Z" fill="black"/>
<path d="M6.25017 96.8751H93.7502C93.9734 96.8751 94.194 96.8273 94.3972 96.7349C94.6004 96.6425 94.7814 96.5076 94.9281 96.3394C95.0748 96.1712 95.1837 95.9735 95.2475 95.7596C95.3114 95.5457 95.3287 95.3206 95.2982 95.0995L94.5777 89.8651C94.284 87.7265 93.4731 85.6918 92.2154 83.9373C90.9578 82.1828 89.2912 80.7615 87.3601 79.7966L64.9549 68.5938L60.4273 64.4702C60.1397 64.2082 59.7643 64.0633 59.3752 64.0642V62.0431C61.5773 60.3529 63.2816 58.0989 64.3078 55.5196C65.4755 52.6049 66.2971 49.5633 66.7558 46.4571H67.7846C68.8352 46.4607 69.8658 46.1699 70.7595 45.6175C71.6532 45.0652 72.3742 44.2734 72.8408 43.3321C73.2323 42.5468 73.4366 41.6814 73.4377 40.8038V38.047C73.4359 36.6063 72.8847 35.2205 71.8966 34.1721C70.9084 33.1236 69.5576 32.4915 68.1195 32.4046C68.3164 31.6187 68.5273 30.7761 68.7379 29.936C69.8154 25.6226 69.314 21.0659 67.3244 17.0899L67.2658 16.9716C66.5981 15.6241 65.5661 14.4908 64.2868 13.7002C63.0076 12.9096 61.5323 12.4934 60.0285 12.4989H60.0051C56.7645 9.47658 52.4953 7.80067 48.064 7.81143C46.3349 7.81143 44.4496 7.81025 42.6472 7.80908H42.6363C39.8389 7.8127 37.0822 8.47993 34.5928 9.75594C32.1033 11.032 29.9521 12.8804 28.3158 15.1493L28.2047 15.3036C27.1504 16.7632 26.5172 18.4844 26.3743 20.2793C26.2313 22.0742 26.5841 23.8738 27.3941 25.4819L27.5461 25.7854C28.6435 27.9908 30.5201 29.7106 32.8127 30.6118V32.3944H32.2158C30.7171 32.3961 29.2803 32.9922 28.2205 34.0519C27.1607 35.1115 26.5645 36.5483 26.5627 38.047V40.803C26.5638 41.6805 26.768 42.5458 27.1595 43.3312C27.6262 44.2725 28.3472 45.0642 29.2409 45.6165C30.1346 46.1689 31.1652 46.4598 32.2158 46.4562H33.2445C33.7032 49.5627 34.5248 52.6048 35.6926 55.5198C36.7188 58.0991 38.4231 60.3529 40.6252 62.0431V64.0642C40.2361 64.0632 39.8607 64.208 39.573 64.47L35.0457 68.5938L12.6402 79.7964C10.7092 80.7613 9.04259 82.1826 7.78487 83.9371C6.52715 85.6916 5.71625 87.7263 5.42244 89.8649L4.70212 95.0993C4.67166 95.3204 4.68892 95.5455 4.75276 95.7594C4.8166 95.9733 4.92552 96.1711 5.07221 96.3393C5.21889 96.5076 5.39992 96.6425 5.60312 96.7349C5.80631 96.8273 6.02695 96.8751 6.25017 96.8751ZM67.1877 40.5665V36.1298L67.3404 35.5194H67.7846C68.4547 35.5202 69.0972 35.7867 69.5711 36.2606C70.0451 36.7344 70.3118 37.3768 70.3127 38.047V40.803C70.3122 41.1954 70.2209 41.5823 70.0459 41.9335C69.8372 42.3545 69.5147 42.7085 69.115 42.9556C68.7153 43.2026 68.2544 43.3327 67.7846 43.3312H67.0926C67.1551 42.414 67.1868 41.4924 67.1877 40.5665ZM85.9377 82.5782L85.9625 82.5905C87.4392 83.3285 88.7137 84.4154 89.6755 85.7571C90.6373 87.0988 91.2574 88.6548 91.482 90.2903L91.958 93.7501H85.9377V82.5782ZM65.3476 72.2833L67.0967 73.1577L65.0392 74.8298L65.3476 72.2833ZM62.4146 70.5079L61.2818 79.8741L52.5285 73.0163L59.3025 67.6733L62.4146 70.5079ZM56.2576 66.0938L50.0002 71.0296L43.7502 66.0999V63.8956C45.7204 64.7604 47.8486 65.2069 50.0002 65.2069C52.1518 65.2069 54.28 64.7604 56.2502 63.8956V65.9464C56.2502 65.9962 56.2531 66.0454 56.2576 66.0938ZM50.0002 75.0044L52.6808 77.1046L50.0531 79.2067L47.5156 76.9511L50.0002 75.0044ZM48.9621 82.4179C49.2377 82.6629 49.591 82.8025 49.9597 82.8121C50.3283 82.8217 50.6884 82.7006 50.9763 82.4702L55.2082 79.0847L57.5472 80.9173L50.0002 87.0493L42.4531 80.9165L45.0154 78.9091L48.9621 82.4179ZM32.2158 43.3319C31.7459 43.3335 31.285 43.2034 30.8853 42.9564C30.4857 42.7093 30.1632 42.3552 29.9545 41.9343C29.7795 41.5831 29.6882 41.1962 29.6877 40.8038V38.047C29.6884 37.3767 29.955 36.734 30.4289 36.2601C30.9029 35.7861 31.5455 35.5194 32.2158 35.5187H32.8127V40.5665C32.8127 41.4924 32.8444 42.4144 32.9078 43.3325L32.2158 43.3319ZM30.3383 24.3851L30.1863 24.0815C29.633 22.9838 29.3918 21.7552 29.489 20.5298C29.5862 19.3043 30.018 18.1291 30.7375 17.1323L30.8519 16.9731C32.1982 15.1063 33.9682 13.5855 36.0165 12.5357C38.0648 11.4859 40.3329 10.937 42.6346 10.9341H42.6437C44.4465 10.9353 46.3322 10.936 48.0615 10.9364C49.9583 10.9319 51.8372 11.3035 53.5896 12.0298C55.3419 12.756 56.9328 13.8225 58.2703 15.1675C58.4154 15.3126 58.5877 15.4277 58.7772 15.5062C58.9668 15.5847 59.17 15.6251 59.3752 15.6251H59.3793L60.0119 15.6233H60.0265C60.9499 15.6201 61.8556 15.8758 62.641 16.3614C63.4263 16.8469 64.0598 17.543 64.4695 18.3704L64.5281 18.4888C66.1841 21.7968 66.6018 25.5882 65.7058 29.1774C65.5765 29.6931 65.4471 30.2103 65.3207 30.7146C64.0769 28.5252 62.3372 26.6579 60.2412 25.2626C60.0301 25.1218 59.7879 25.0346 59.5355 25.0084C59.2832 24.9823 59.0282 25.018 58.7928 25.1124L58.7556 25.1272C53.8034 27.1128 48.5192 28.1398 43.1838 28.1536L36.5086 28.1767H36.4814C35.2056 28.181 33.9541 27.8281 32.8684 27.1581C31.7828 26.488 30.9063 25.5274 30.3383 24.3851ZM38.5939 54.3599C36.8354 49.974 35.9337 45.2918 35.9377 40.5665V31.2856C36.118 31.2952 36.299 31.3017 36.4812 31.3017H36.5203L43.1951 31.2786C48.6505 31.2646 54.0585 30.2638 59.1576 28.3245C61.5188 30.1137 63.1968 32.6569 63.9129 35.5315L64.0625 36.1298V40.5665C64.0665 45.2919 63.1649 49.9743 61.4062 54.3603C60.4943 56.6398 58.9202 58.5938 56.8871 59.9702C54.854 61.3466 52.4552 62.0822 50 62.0822C47.5448 62.0822 45.1459 61.3466 43.1128 59.9702C41.0797 58.5938 39.5057 56.6398 38.5937 54.3603L38.5939 54.3599ZM40.6976 67.6724L47.4717 73.0153L38.7185 79.8731L37.5857 70.5079L40.6976 67.6724ZM34.6525 72.2839L34.9611 74.8298L32.9041 73.1585L34.6525 72.2839ZM29.8357 74.6923L35.4998 79.295L35.948 83.0003C35.9813 83.2753 36.0871 83.5365 36.2545 83.7572C36.4219 83.9779 36.645 84.1501 36.9009 84.2561C37.1568 84.3622 37.4363 84.3983 37.7108 84.3608C37.9853 84.3233 38.2448 84.2135 38.4629 84.0427L39.9291 82.8938L49.0139 90.2753C49.2924 90.5016 49.6403 90.6252 49.9992 90.6252C50.3581 90.6252 50.706 90.5016 50.9846 90.2753L60.0693 82.8938L61.5355 84.0427C61.7536 84.2135 62.0131 84.3233 62.2876 84.3608C62.5621 84.3983 62.8416 84.3622 63.0975 84.2561C63.3534 84.1501 63.5765 83.9779 63.7439 83.7572C63.9114 83.5365 64.0171 83.2753 64.0504 83.0003L64.4996 79.2952L70.1637 74.6925L82.8299 81.0255C82.8188 81.0999 82.813 81.1749 82.8127 81.2501V93.7501H17.1877V81.2501C17.1871 81.1749 17.1811 81.0998 17.1697 81.0255L29.8357 74.6923ZM8.51814 90.2911C8.74285 88.6556 9.36298 87.0996 10.3248 85.7579C11.2866 84.4162 12.5611 83.3293 14.0379 82.5913L14.0627 82.5782V93.7501H8.04236L8.51814 90.2911Z" fill="black"/>
<path d="M57.8125 54.6875C58.2269 54.6875 58.6243 54.5229 58.9174 54.2299C59.2104 53.9369 59.375 53.5394 59.375 53.125C59.3727 51.0538 58.5488 49.068 57.0842 47.6033C55.6196 46.1387 53.6338 45.3149 51.5625 45.3125H50V44.1682C50 43.7538 49.8354 43.3564 49.5424 43.0634C49.2493 42.7703 48.8519 42.6057 48.4375 42.6057C48.0231 42.6057 47.6257 42.7703 47.3326 43.0634C47.0396 43.3564 46.875 43.7538 46.875 44.1682V45.4698C45.1117 45.8323 43.5272 46.7916 42.3888 48.186C41.2503 49.5805 40.6274 51.3249 40.625 53.125C40.625 53.5394 40.7896 53.9369 41.0826 54.2299C41.3757 54.5229 41.7731 54.6875 42.1875 54.6875H57.8125ZM48.4375 48.4375H51.5625C52.5316 48.4387 53.4766 48.7396 54.2679 49.2991C55.0592 49.8586 55.6581 50.6493 55.9822 51.5625H44.0178C44.3419 50.6493 44.9407 49.8586 45.732 49.2991C46.5233 48.7396 47.4684 48.4387 48.4375 48.4375Z" fill="black"/>
</svg>
