<svg width="100" height="100" viewBox="0 0 100 100" fill="none" xmlns="http://www.w3.org/2000/svg">
<g clip-path="url(#clip0_718_5485)">
<path d="M49.5628 69.0425C46.0851 69.0425 42.7466 69.6493 39.6458 70.7599C32.1355 73.4495 25.8291 79.1894 22.5152 86.7898C20.9451 90.3907 20.071 94.3622 20.071 98.5351H49.5632V69.0425C49.563 69.0425 49.563 69.0425 49.5628 69.0425Z" fill="#D4D4FF"/>
<path d="M76.6108 86.7894C73.4212 79.4743 67.2798 73.5523 59.4765 70.7587C56.3642 69.6442 53.0144 69.0425 49.563 69.0425V98.5351H79.0552C79.0554 94.362 78.1811 90.3905 76.6108 86.7894V86.7894Z" fill="#EFEDFF"/>
<path d="M66.9866 75.4085L66.8276 74.6111H38.2409L29.9456 98.5351H69.2633V98.5316C69.2633 90.7679 68.5008 83.0232 66.9866 75.4085V75.4085Z" fill="#9EA2E3"/>
<path d="M39.2441 88.2993C42.1963 79.7257 48.4699 73.2403 56.1305 69.7831C54.009 69.2985 51.8076 69.0425 49.5629 69.0425C46.0852 69.0425 42.7467 69.6493 39.6459 70.7599C37.04 71.6931 34.5795 72.9931 32.3383 74.611C30.7916 82.3864 29.9023 89.9036 29.9023 98.5349H37.515C37.5211 95.1401 38.0771 91.6886 39.2441 88.2993V88.2993Z" fill="#8288CB"/>
<path d="M29.9082 97.6355C29.9061 97.9351 29.9023 98.2329 29.9023 98.5351H49.5631L39.2441 88.2993L29.9082 97.6355Z" fill="#70DCBA"/>
<path d="M41.6945 70.1116C41.0013 70.3038 40.3177 70.5192 39.6461 70.7598C37.0402 71.693 34.5796 72.993 32.3384 74.611C31.955 76.5385 31.6123 78.4514 31.3132 80.368L39.2445 88.2991L49.5634 77.9801L41.6945 70.1116Z" fill="#70DCBA"/>
<path d="M67.8176 80.364C67.5605 78.7069 67.2707 77.0546 66.9433 75.4085L66.7844 74.611C64.5725 73.014 62.1203 71.705 59.4768 70.7587C58.8059 70.5185 58.1234 70.3036 57.4318 70.1118L49.5635 77.9804L59.8824 88.2993L67.8176 80.364Z" fill="#70DCBA"/>
<path d="M69.2146 97.6317L59.8822 88.2993L49.5632 98.5351H69.2203V98.5315C69.2201 98.2315 69.2169 97.9317 69.2146 97.6317Z" fill="#70DCBA"/>
<path d="M47.3057 75.7229L41.6946 70.1118C41.6942 70.1118 41.6938 70.112 41.6934 70.1122C41.0018 70.304 40.3192 70.5185 39.6479 70.7587C37.0399 71.6915 34.5903 72.9856 32.3383 74.6114C31.9567 76.53 31.6133 78.4438 31.3131 80.3685L39.2444 88.2995C40.9483 83.3505 43.7606 79.0995 47.3057 75.7229V75.7229Z" fill="#06CCAB"/>
<path d="M29.9082 97.6355C29.9061 97.9351 29.9023 98.2329 29.9023 98.5351H37.515C37.5209 95.1401 38.0771 91.6886 39.2441 88.2993L29.9082 97.6355Z" fill="#06CCAB"/>
<path d="M61.0247 74.9978L59.4765 70.7612H39.6478L38.0993 74.9983C37.146 77.6067 39.6257 80.1632 42.262 79.2899L45.8778 78.0921L53.247 78.0915L56.862 79.2894C59.4982 80.1628 61.978 77.6064 61.0247 74.9978V74.9978Z" fill="#EA5B70"/>
<path d="M49.5622 80.0434C51.7369 80.0434 53.4999 78.2804 53.4999 76.1057C53.4999 73.9309 51.7369 72.168 49.5622 72.168C47.3875 72.168 45.6245 73.9309 45.6245 76.1057C45.6245 78.2804 47.3875 80.0434 49.5622 80.0434Z" fill="#FF8E9E"/>
<path d="M14.2117 45.6057C19.0657 45.6057 23.0007 41.6707 23.0007 36.8167C23.0007 31.9626 19.0657 28.0276 14.2117 28.0276C9.3576 28.0276 5.42261 31.9626 5.42261 36.8167C5.42261 41.6707 9.3576 45.6057 14.2117 45.6057Z" fill="#FFBD86"/>
<path d="M84.9148 45.6057C89.7689 45.6057 93.7039 41.6707 93.7039 36.8167C93.7039 31.9626 89.7689 28.0276 84.9148 28.0276C80.0607 28.0276 76.1257 31.9626 76.1257 36.8167C76.1257 41.6707 80.0607 45.6057 84.9148 45.6057Z" fill="#FFBD86"/>
<path d="M84.8999 35.837C84.5394 22.5885 76.8911 11.1598 65.8183 5.41587C65.8021 5.40747 65.7861 5.39868 65.7699 5.39028C62.5749 3.73931 59.0958 2.56118 55.4255 1.94849L33.3075 5.41763L14.2257 35.837L47.3056 71.6827H55.4255C56.8034 71.4522 58.1542 71.1422 59.4734 70.7576C74.1734 66.4727 84.9148 52.8998 84.9148 36.8166C84.9148 36.4889 84.9089 36.1627 84.8999 35.837Z" fill="#FED2A4"/>
<path d="M31.0667 36.8166C31.0667 19.2887 41.605 4.74063 55.4257 1.94863C53.5189 1.63027 51.5603 1.46484 49.563 1.46484C43.7017 1.46484 38.1746 2.89277 33.3078 5.41758L14.2257 35.8369C14.2169 36.1625 14.2117 36.4889 14.2117 36.8166C14.2117 52.8998 24.9531 66.4725 39.6527 70.7576C42.7974 71.6744 46.1224 72.168 49.563 72.168C51.5605 72.168 53.5189 72.0016 55.4257 71.6828C41.605 68.8908 31.0667 54.3441 31.0667 36.8166V36.8166Z" fill="#FFBD86"/>
<path d="M65.3339 18.4988C64.7829 20.3436 65.6747 22.3109 67.4405 23.0783L74.7065 26.2357C76.5606 27.0414 77.8307 28.8016 77.9856 30.8172C77.9878 30.8449 77.9899 30.8729 77.9919 30.9006C78.2013 33.6908 80.5483 35.8371 83.3466 35.8371H84.8999C84.5393 22.5887 76.8911 11.16 65.8183 5.41602C66.5976 8.89512 66.855 13.4068 65.3339 18.4988V18.4988Z" fill="#EFEDFF"/>
<path d="M21.1341 30.9005C21.1363 30.8728 21.1382 30.8449 21.1404 30.8171C21.2954 28.8015 22.5654 27.0414 24.4197 26.2357L31.6857 23.0783C33.4515 22.3109 34.3433 20.3435 33.7923 18.4988C32.2718 13.4082 32.5288 8.89644 33.3075 5.41772C22.2353 11.1617 14.5863 22.589 14.2257 35.8371H15.7796C18.5777 35.8369 20.9247 33.6908 21.1341 30.9005V30.9005Z" fill="#D4D4FF"/>
<path d="M83.4745 34.0332C82.5542 32.4391 80.5156 31.8928 78.9214 32.8133C78.7243 32.927 78.239 33.2072 77.6239 33.5623C77.3704 32.8578 77.0146 32.2424 76.5425 31.7609C72.5384 27.6772 57.4948 27.6375 53.5575 31.7795C53.265 32.0873 53.0197 32.4488 52.8195 32.857C52.2068 34.1059 52.0796 35.5537 52.207 36.9959C51.3689 36.5709 50.465 36.3578 49.5634 36.3572C48.4378 36.3578 47.307 36.6844 46.3073 37.349L44.1691 41.6182L49.5634 42.6594L53.4501 41.9213C54.1609 43.6397 55.154 45.2168 56.3753 46.0967C60.0454 48.7408 70.8816 48.8682 74.5531 46.0699C75.7495 45.158 76.7464 43.4061 77.3794 41.4008L82.2546 38.5861C83.8486 37.666 84.3948 35.6275 83.4745 34.0332V34.0332Z" fill="#CE857A"/>
<path d="M46.3072 32.8573C46.107 32.4491 45.8617 32.0876 45.5691 31.7797C41.6316 27.6377 26.5882 27.6774 22.5841 31.7612C22.1121 32.2426 21.7562 32.8581 21.5027 33.5626C20.8877 33.2075 20.4023 32.9272 20.2052 32.8135C18.6111 31.893 16.5724 32.4393 15.6521 34.0335C14.7316 35.6276 15.2779 37.6663 16.872 38.5866L21.7472 41.4012C22.3802 43.4063 23.3769 45.1583 24.5736 46.0704C28.2451 48.8686 39.0812 48.7413 42.7513 46.0971C44.4586 44.867 45.7232 42.2762 46.3881 39.8387C46.3925 39.8223 46.3966 39.8055 46.4009 39.7891C46.4338 39.6678 46.466 39.5458 46.4968 39.4223C47.0359 37.2715 47.2695 34.8188 46.3072 32.8573V32.8573Z" fill="#BD7669"/>
<path d="M41.8265 37.3444C41.5006 39.2439 40.606 41.4804 39.8285 42.0405C37.8463 43.4687 29.4017 43.5079 27.606 42.0954C26.8615 41.5097 26.159 39.1177 26.0289 37.2064C25.9441 35.9605 26.7211 34.8134 27.9187 34.4599C31.1562 33.504 36.3984 33.4071 39.8846 34.3392C41.2082 34.6931 42.0584 35.994 41.8265 37.3444V37.3444Z" fill="#FFBD86"/>
<path d="M73.0975 37.2063C72.9674 39.1177 72.2649 41.5097 71.5203 42.0954C69.7246 43.5079 61.2801 43.4688 59.2979 42.0405C58.5203 41.4804 57.6256 39.2437 57.2998 37.3444C57.0682 35.994 57.9182 34.6931 59.242 34.3392C62.7281 33.4071 67.9703 33.504 71.2078 34.4599C72.4053 34.8134 73.1822 35.9606 73.0975 37.2063Z" fill="#FFBD86"/>
<path d="M58.9129 43.8854C57.5679 43.8854 56.3068 43.3084 55.3574 42.3561C54.6515 41.6482 53.6756 41.21 52.5968 41.21C51.3713 41.21 50.2783 41.7756 49.5632 42.6598C48.8482 41.7758 47.7552 41.21 46.5297 41.21C45.4509 41.21 44.475 41.648 43.7691 42.3561C42.8195 43.3084 41.5584 43.8854 40.2136 43.8854C39.6084 43.8854 39.1572 44.4404 39.2754 45.034C39.8091 47.715 42.1752 49.7357 45.0131 49.7357C46.8513 49.7357 48.4908 48.8871 49.5632 47.5611C50.6357 48.8871 52.2752 49.7357 54.1134 49.7357C56.9513 49.7357 59.3173 47.715 59.8511 45.034C59.9693 44.4404 59.5181 43.8854 58.9129 43.8854V43.8854Z" fill="#EFEDFF"/>
<path d="M79.0554 98.5352C77.4375 98.5352 76.1257 97.2234 76.1257 95.6055V76.5881C76.1257 71.501 80.2644 67.3623 85.3515 67.3623C90.4386 67.3623 94.5773 71.501 94.5773 76.5881C94.5773 78.2061 93.2656 79.5178 91.6476 79.5178C90.0296 79.5178 88.7179 78.2061 88.7179 76.5881C88.7179 74.7318 87.2078 73.2217 85.3515 73.2217C83.4953 73.2217 81.9851 74.7318 81.9851 76.5881V95.6055C81.9851 97.2234 80.6734 98.5352 79.0554 98.5352Z" fill="#BD7669"/>
<path d="M77.1693 91.9219C79.3267 91.9219 81.0756 90.173 81.0756 88.0156C81.0756 85.8583 79.3267 84.1094 77.1693 84.1094C75.0119 84.1094 73.2631 85.8583 73.2631 88.0156C73.2631 90.173 75.0119 91.9219 77.1693 91.9219Z" fill="#FFBF9D"/>
<path d="M83.2 93.3462C86.436 93.3462 89.0593 90.7229 89.0593 87.4868C89.0593 84.2508 86.436 81.6274 83.2 81.6274C79.9639 81.6274 77.3406 84.2508 77.3406 87.4868C77.3406 90.7229 79.9639 93.3462 83.2 93.3462Z" fill="#FFD4BD"/>
<path d="M34.3513 36.688C33.5423 36.688 32.8865 37.3437 32.8865 38.1528V39.9042C32.8865 40.7134 33.5423 41.369 34.3513 41.369C35.1603 41.369 35.8162 40.7134 35.8162 39.9042V38.1528C35.8162 37.3437 35.1603 36.688 34.3513 36.688Z" fill="black"/>
<path d="M66.2397 39.9042V38.1528C66.2397 37.3437 65.5839 36.688 64.7749 36.688C63.9659 36.688 63.3101 37.3437 63.3101 38.1528V39.9042C63.3101 40.7134 63.9659 41.369 64.7749 41.369C65.5839 41.369 66.2397 40.7132 66.2397 39.9042Z" fill="black"/>
<path d="M85.3515 65.8975C79.4566 65.8975 74.6609 70.6934 74.6609 76.5881V80.4465C71.7744 76.4582 68.008 73.1855 63.4976 70.9022C66.0763 69.8477 68.5285 68.5006 70.8208 66.8768C71.4812 66.409 71.6373 65.4949 71.1695 64.8346C70.7019 64.1746 69.7875 64.0184 69.1275 64.4859C63.3591 68.5723 56.5478 70.7031 49.5628 70.7031C31.6042 70.7031 17.2419 56.7654 15.7955 39.6334C16.0648 39.8205 15.7207 39.6133 20.5341 42.3922C21.2982 44.5529 22.4058 46.2598 23.6855 47.2352C27.0066 49.7664 34.5757 50.1627 39.7054 48.9131C42.33 51.6797 46.6144 51.9641 49.563 49.6141C52.5142 51.9662 56.799 51.6775 59.4212 48.9127C61.2697 49.3631 63.433 49.6004 65.6021 49.6004C69.4527 49.6004 73.3164 48.8545 75.4406 47.2354C76.7205 46.26 77.8283 44.5531 78.5919 42.3924C83.4017 39.6156 83.0621 39.8205 83.3331 39.632C82.6767 47.6719 79.2175 55.1314 73.423 60.877C72.8488 61.4467 72.8447 62.374 73.4142 62.9484C73.9841 63.523 74.9115 63.5268 75.4859 62.9572C80.0109 58.4705 83.2238 53.0209 84.9392 47.0672C90.6333 47.0508 95.1683 42.4311 95.1683 36.8168C95.1683 31.1645 90.5986 26.5842 84.9375 26.5689C80.4697 11.0543 66.1683 0 49.5628 0C32.8673 0 18.6613 11.1965 14.1996 26.5689C8.48901 26.5789 3.95776 31.2049 3.95776 36.8168C3.95776 42.4395 8.50093 47.05 14.1847 47.0674C17.3066 57.8834 25.3082 66.6563 35.6359 70.8994C30.488 73.5055 26.1925 77.452 23.1685 82.3783C22.7453 83.0678 22.9611 83.9697 23.6505 84.393C24.3402 84.8164 25.2421 84.6002 25.6652 83.9109C26.9294 81.8516 28.4361 79.9848 30.1632 78.3285C29.0626 84.7838 28.5179 90.7451 28.446 97.0705H21.5734C21.7179 94.276 22.2771 91.5385 23.2408 88.9133C23.5195 88.1539 23.13 87.3121 22.3705 87.0334C21.6109 86.7543 20.7693 87.1441 20.4906 87.9037C19.24 91.3103 18.606 94.8873 18.606 98.5354C18.606 99.3443 19.2619 100 20.0708 100H79.0552C81.4783 100 83.4498 98.0289 83.4498 95.6057V94.8049C87.373 94.6725 90.5242 91.4418 90.5242 87.4869C90.5242 83.532 87.373 80.3016 83.4498 80.1689V76.5881C83.4498 75.5395 84.3029 74.6865 85.3513 74.6865C86.3998 74.6865 87.2529 75.5397 87.2529 76.5881C87.2529 79.0113 89.2244 80.9826 91.6474 80.9826C94.0705 80.9826 96.0419 79.0113 96.0419 76.5881C96.0421 70.6934 91.2464 65.8975 85.3515 65.8975V65.8975ZM40.275 37.1111C39.9689 38.8951 39.2027 40.509 38.8796 40.8105C37.3892 41.8342 29.9732 41.8496 28.6214 40.9102C28.3209 40.5566 27.7193 38.8941 27.599 37.123C27.5611 36.567 27.897 36.0717 28.4162 35.9186C31.4076 35.0355 36.3462 34.9867 39.425 35.8098C40.0001 35.9639 40.3736 36.5354 40.275 37.1111V37.1111ZM50.7021 46.6398C50.1154 45.9148 49.0095 45.9164 48.4242 46.6398C46.2476 49.3309 41.981 48.5502 40.8654 45.316C42.3283 45.1619 43.7082 44.4918 44.8064 43.3904C45.8062 42.3877 47.4943 42.4314 48.4242 43.5811C49.0107 44.3061 50.1167 44.3045 50.7019 43.5811C51.6136 42.4539 53.2962 42.3639 54.3197 43.3904C55.4179 44.4918 56.7978 45.1619 58.2607 45.316C57.1431 48.5563 52.8746 49.3256 50.7021 46.6398ZM60.1652 40.86C59.8367 40.5564 59.0556 38.9158 58.7435 37.0967C58.6416 36.5025 59.0267 35.9129 59.6203 35.7543C62.7449 34.9187 67.7568 34.9684 70.7929 35.8646C71.3283 36.0229 71.6751 36.5336 71.6361 37.1068C71.513 38.9137 70.8988 40.6051 70.5929 40.9602C69.2357 41.9109 61.6882 41.91 60.1652 40.86ZM81.5222 37.3178L76.6468 40.1324C76.3296 40.3156 76.0925 40.6109 75.9824 40.9602C75.4156 42.7566 74.5492 44.2314 73.665 44.9051C71.4847 46.567 65.5759 47.1318 61.0302 46.2656C61.4 45.19 61.374 44.6934 61.2595 44.2449C64.3017 44.8105 70.3986 44.8414 72.4259 43.2465C73.9244 42.068 74.4736 38.5584 74.5589 37.3057C74.6917 35.3525 73.4843 33.6047 71.6224 33.0549C68.0333 31.9953 62.548 31.9389 58.8636 32.924C56.7876 33.4791 55.4945 35.4859 55.856 37.5922C56.0728 38.8551 56.6287 40.7551 57.4392 42.0697C57.0638 41.8867 56.7097 41.6379 56.3945 41.3219C54.5234 39.4453 51.6394 39.2566 49.563 40.6838C47.4296 39.2176 44.5453 39.5027 42.7316 41.3219C42.371 41.6836 41.9611 41.9609 41.5244 42.1473C42.3656 40.8451 42.9416 38.8918 43.1621 37.6068C43.5201 35.5191 42.2386 33.5299 40.181 32.9799C36.5441 32.0076 31.1294 32.0633 27.5861 33.1092C25.7406 33.6541 24.5437 35.3865 24.6755 37.3225C24.7597 38.5605 25.3031 42.0295 26.7869 43.1965C28.7937 44.7752 34.8539 44.7514 37.8896 44.1709C37.7515 44.6473 37.7146 45.1566 38.096 46.266C33.5505 47.1322 27.6416 46.5672 25.4611 44.9055C24.5771 44.2318 23.7109 42.757 23.1437 40.9605C23.0335 40.6113 22.7964 40.316 22.4792 40.133L17.6041 37.3184C16.7097 36.802 16.4039 35.6607 16.9203 34.7662C17.4365 33.8721 18.5779 33.5658 19.4722 34.0824L20.7699 34.8314C21.5589 35.2873 22.5714 34.9182 22.8806 34.0588C23.072 33.5266 23.3242 33.0986 23.6296 32.7871C25.2119 31.1734 29.5291 30.1113 34.363 30.152C38.9648 30.1875 43.0414 31.2475 44.507 32.7893C45.44 33.7709 45.5791 35.5193 45.4603 36.8686C45.3597 38.0113 46.5574 38.8227 47.582 38.3035C48.8796 37.6453 50.3208 37.6828 51.5441 38.3031C52.5671 38.8221 53.7667 38.0123 53.6658 36.868C53.5468 35.5189 53.6863 33.7703 54.6191 32.7895C56.0847 31.2475 60.1611 30.1877 64.7626 30.1521C69.5966 30.1131 73.914 31.1736 75.4964 32.7873C75.8019 33.0988 76.054 33.5268 76.2457 34.059C76.5552 34.9197 77.5689 35.2867 78.3564 34.8316L79.6539 34.0826C80.546 33.5676 81.6912 33.8742 82.206 34.7664C82.7222 35.6602 82.4164 36.8016 81.5222 37.3178V37.3178ZM92.239 36.8166C92.239 40.5711 89.4052 43.7115 85.6648 44.0973C86.606 39.3773 86.632 34.393 85.6587 29.5291C89.3732 29.8918 92.239 33.0578 92.239 36.8166V36.8166ZM83.0433 31.5803C81.9732 30.9449 80.6785 30.7395 79.4462 31.0408C79.5746 29.8418 78.6748 26.3631 75.2904 24.8922L68.0244 21.7348C66.9496 21.2676 66.3931 20.0672 66.7302 18.9426C67.8138 15.3262 68.1472 11.7904 67.7416 8.21582C76.0226 13.4723 81.5566 21.9723 83.0433 31.5803V31.5803ZM64.4867 6.38437C65.2923 10.3086 65.1082 14.149 63.9238 18.1018C63.1613 20.6467 64.4222 23.3637 66.8568 24.4219L74.1228 27.5791C75.0617 27.9871 75.7898 28.7295 76.1923 29.642C73.2658 27.8369 68.5585 27.191 64.74 27.2221C59.1441 27.2654 54.5667 28.592 52.4957 30.7705C51.4257 31.8965 50.896 33.4582 50.7466 34.992C49.9632 34.8611 49.1638 34.8607 48.3796 34.992C48.2298 33.4547 47.699 31.8943 46.6306 30.7703C44.5595 28.5916 39.982 27.2652 34.3859 27.2219C30.563 27.1938 25.8591 27.8379 22.9339 29.642C23.3365 28.7295 24.0648 27.9871 25.0037 27.5791L32.2697 24.4217C34.7042 23.3637 35.9652 20.6467 35.2027 18.1018C34.0201 14.1545 33.8343 10.3191 34.6363 6.4002C39.1423 4.17969 44.2091 2.92969 49.5628 2.92969C54.7707 2.92969 59.8488 4.10508 64.4867 6.38437V6.38437ZM31.383 8.23125C30.98 11.8008 31.3142 15.3314 32.396 18.9426C32.733 20.0674 32.1765 21.2678 31.1019 21.7348L23.8359 24.8922C20.5076 26.3387 19.5462 29.7736 19.6798 31.0387C18.4855 30.7445 17.1962 30.9178 16.0812 31.5805C17.6076 21.782 23.347 13.3602 31.383 8.23125V8.23125ZM6.88745 36.8166C6.88745 33.0967 9.68979 29.9193 13.4714 29.5346C12.5064 34.3256 12.5074 39.3117 13.4621 44.0975C9.67378 43.7074 6.88745 40.5225 6.88745 36.8166V36.8166ZM76.307 90.3242C76.1117 90.1996 74.7277 89.6492 74.7277 88.0156C74.7277 87.0672 75.2724 86.2453 76.0644 85.8412C75.7076 87.3896 75.8669 88.9621 76.4597 90.3516C76.4097 90.3398 76.3589 90.3307 76.307 90.3242V90.3242ZM73.5445 84.0561C70.7832 86.5859 71.4064 91.0387 74.6609 92.7625V95.6055C74.6609 96.1189 74.7503 96.6119 74.9128 97.0703H70.6765C70.6048 90.7471 70.0605 84.7867 68.9603 78.3316C70.7275 80.0324 72.2746 81.9643 73.5445 84.0561V84.0561ZM58.5595 72.5197L59.6488 75.5006C60.1826 76.9605 58.8003 78.3881 57.3226 77.8988L54.8736 77.0873C55.1076 75.818 54.8894 74.4914 54.2013 73.341C55.599 73.1652 56.9783 72.917 58.5595 72.5197V72.5197ZM39.4751 75.5012L40.5638 72.5221C41.9982 72.8826 43.4537 73.1561 44.9226 73.3414C44.2552 74.4572 44.0089 75.7785 44.2505 77.0881L41.8011 77.8994C40.3259 78.3881 38.9406 76.9637 39.4751 75.5012V75.5012ZM47.0894 76.1057C47.0894 74.7422 48.1988 73.6328 49.5623 73.6328C50.9257 73.6328 52.0351 74.7422 52.0351 76.1057C52.0351 77.4691 50.9257 78.5785 49.5623 78.5785C48.1986 78.5785 47.0894 77.4691 47.0894 76.1057ZM31.3757 97.0703C31.4601 89.8385 32.1761 83.0912 33.6623 75.4705C34.7652 74.7076 35.9185 74.0299 37.1109 73.4354L36.7234 74.4957C35.3503 78.2529 38.9255 81.9385 42.7226 80.6807L45.5667 79.7385C47.7154 82.0996 51.4119 82.0973 53.5582 79.7379L56.4011 80.6801C60.2015 81.9387 63.7736 78.2516 62.4005 74.4951L62.0126 73.4338C63.2058 74.0281 64.3587 74.7053 65.4601 75.467C66.9462 83.0895 67.6625 89.8375 67.7468 97.0705L31.3757 97.0703ZM79.0554 97.0703C78.2476 97.0703 77.5906 96.4133 77.5906 95.6055V92.1895C78.3699 93.1176 79.375 93.8492 80.5203 94.3012V95.6055C80.5203 96.4133 79.863 97.0703 79.0554 97.0703ZM87.5945 87.4869C87.5945 89.9102 85.623 91.8814 83.2 91.8814C80.7769 91.8814 78.8054 89.9102 78.8054 87.4869C78.8054 85.0637 80.7769 83.0924 83.2 83.0924C85.623 83.0924 87.5945 85.0637 87.5945 87.4869ZM91.6476 78.0529C90.8398 78.0529 90.1828 77.3959 90.1828 76.5881C90.1828 73.924 88.0154 71.7568 85.3515 71.7568C82.6876 71.7568 80.5203 73.9242 80.5203 76.5881V80.6725C79.4214 81.1061 78.4523 81.7977 77.6871 82.6727C77.6548 82.6695 77.6228 82.6645 77.5906 82.6619V76.5879C77.5906 72.3084 81.072 68.827 85.3515 68.827C89.631 68.827 93.1124 72.3086 93.1124 76.5879C93.1124 77.3959 92.4554 78.0529 91.6476 78.0529V78.0529Z" fill="black"/>
</g>
<defs>
<clipPath id="clip0_718_5485">
<rect width="100" height="100" fill="white"/>
</clipPath>
</defs>
</svg>
