<svg width="110" height="110" viewBox="0 0 110 110" fill="none" xmlns="http://www.w3.org/2000/svg">
<g clip-path="url(#clip0_57_266)">
<path d="M97.5959 85.3868C100.69 83.6004 102.596 80.2992 102.596 76.7265V33.2735C102.596 29.7008 100.69 26.3996 97.5959 24.6132L59.9646 2.88676C56.8706 1.10043 53.0586 1.10043 49.9646 2.88676L12.3333 24.6132C9.23933 26.3996 7.33334 29.7008 7.33334 33.2735V76.7265C7.33334 80.2992 9.23933 83.6004 12.3333 85.3868L49.9646 107.113C53.0586 108.9 56.8706 108.9 59.9646 107.113L97.5959 85.3868Z" fill="#D6610D"/>
<mask id="mask0_57_266" style="mask-type:alpha" maskUnits="userSpaceOnUse" x="7" y="1" width="96" height="108">
<path d="M97.5959 85.3868C100.69 83.6004 102.596 80.2992 102.596 76.7265V33.2735C102.596 29.7008 100.69 26.3996 97.5959 24.6132L59.9646 2.88676C56.8706 1.10043 53.0586 1.10043 49.9646 2.88676L12.3333 24.6132C9.23933 26.3996 7.33334 29.7008 7.33334 33.2735V76.7265C7.33334 80.2992 9.23933 83.6004 12.3333 85.3868L49.9646 107.113C53.0586 108.9 56.8706 108.9 59.9646 107.113L97.5959 85.3868Z" fill="#00E499"/>
</mask>
<g mask="url(#mask0_57_266)">
<path d="M54.9646 0L47.9098 4.07322L95.207 31.0179V78.9821L47.9098 105.927L54.9646 110L102.596 82.5V27.5L54.9646 0Z" fill="#AC4A03"/>
</g>
<path d="M25.377 59.5957C25.3906 59.582 25.418 59.5752 25.459 59.5752C25.4863 59.5752 25.5 59.6162 25.5 59.6982C25.5 60.3066 25.0659 61.0586 24.1978 61.9541C23.8218 62.3437 23.2065 62.6514 22.3521 62.877C21.6206 63.0684 20.9268 63.1641 20.2705 63.1641C19.457 63.1641 18.7837 63.0171 18.2505 62.7231C18.0591 62.6138 17.8301 62.4053 17.5635 62.0977C16.6064 60.9629 16.1279 59.4282 16.1279 57.4937V57.3501C16.0732 57.562 16.0459 57.8765 16.0459 58.2935C16.0459 60.2144 16.3843 61.4209 17.061 61.9131C16.0356 61.5713 15.5229 60.1494 15.5229 57.6475C15.5229 56.4717 15.6768 55.1968 15.9844 53.8228C16.374 52.1274 16.8799 50.979 17.502 50.3774C17.707 50.1655 17.9907 50.0391 18.353 49.998C18.6812 49.9707 18.999 49.9502 19.3066 49.9365C19.416 49.9092 19.5049 49.8955 19.5732 49.8955C19.7031 49.8955 19.7886 49.916 19.8296 49.957C19.939 49.9297 20.0928 49.916 20.291 49.916C20.585 49.916 20.8892 49.9502 21.2036 50.0186C21.5181 50.0801 21.6479 50.1108 21.5933 50.1108C21.7437 50.1108 21.9282 50.0459 22.147 49.916C22.3657 49.7793 22.5879 49.7109 22.8135 49.7109C23.2031 49.7109 23.7124 49.8511 24.3413 50.1313C24.5532 50.2271 24.6592 50.562 24.6592 51.1362C24.6592 51.3345 24.6489 51.625 24.6284 52.0078C24.6079 52.3906 24.5977 52.6812 24.5977 52.8794C24.5977 53.2144 24.625 53.481 24.6797 53.6792C24.7891 53.9868 24.8437 54.2021 24.8437 54.3252C24.8437 54.2568 24.8027 54.4243 24.7207 54.8276C24.6113 55.3472 24.4438 55.6992 24.2183 55.8838C24.0747 55.9932 23.9961 56.1025 23.9824 56.2119C23.9551 56.4102 23.9277 56.5298 23.9004 56.5708C23.873 56.5708 23.832 56.4888 23.7773 56.3247C23.5928 55.6821 23.292 54.7217 22.875 53.4434C22.4785 52.4932 21.877 51.7993 21.0703 51.3618C20.3662 51.9224 19.8467 52.9956 19.5117 54.5815C19.2588 55.73 19.1323 56.9331 19.1323 58.1909C19.1323 60.2485 19.8467 61.2773 21.2754 61.2773C22.0752 61.2773 22.8032 61.0552 23.4595 60.6108C23.9243 60.2964 24.3584 59.8828 24.7617 59.3701C25.1104 58.9189 25.2915 58.6934 25.3052 58.6934C25.3667 58.6934 25.3975 58.7515 25.3975 58.8677C25.3975 58.936 25.3838 59.042 25.3564 59.1855C25.3359 59.3223 25.3257 59.4248 25.3257 59.4932C25.3257 59.5615 25.3428 59.5957 25.377 59.5957ZM35.6924 62.2822C35.0703 61.667 34.7251 60.7305 34.6567 59.4727V59.6572C34.6431 60.1221 34.7012 60.6211 34.8311 61.1543C34.9678 61.7969 35.1694 62.2446 35.436 62.4976C35.4634 62.5386 35.477 62.5728 35.477 62.6001C35.477 62.7847 35.2173 62.9385 34.6978 63.0615C34.3081 63.1572 33.98 63.2051 33.7134 63.2051C32.647 63.2051 32.1138 62.6035 32.1138 61.4004C32.1138 60.8877 32.2129 60.1221 32.4111 59.1035C32.6094 58.0781 32.7085 57.3057 32.7085 56.7861C32.7085 56.1436 32.4556 55.8223 31.9497 55.8223C31.2046 55.8223 30.6372 56.4922 30.2476 57.832C29.9536 58.7822 29.8066 59.7563 29.8066 60.7544C29.8066 62.0395 29.8989 62.894 30.0835 63.3179C29.9536 63.3315 29.8477 63.3384 29.7656 63.3384C28.8291 63.3384 28.1729 62.7437 27.7969 61.5542C27.4551 60.5425 27.2705 58.748 27.2432 56.1709V56.0479C27.2432 55.1523 27.2363 54.5576 27.2227 54.2637C27.1953 53.5937 27.1406 53.0059 27.0586 52.5C27.0039 52.1787 26.9116 51.9189 26.7817 51.7207C26.7681 51.6934 26.6758 51.584 26.5049 51.3926C26.3408 51.1943 26.2588 51.0679 26.2588 51.0132C26.2588 50.7056 26.7407 50.4663 27.7046 50.2954C28.3813 50.186 29.0342 50.1313 29.6631 50.1313C30.2236 50.1313 30.5039 50.3467 30.5039 50.7773C30.5039 50.9482 30.4458 51.6694 30.3296 52.9409C30.1929 54.5679 30.0903 55.8496 30.022 56.7861C30.7056 55.0498 31.502 54.0894 32.4111 53.9048C32.7187 53.8364 33.0059 53.8022 33.2725 53.8022C33.9287 53.8022 34.4414 54.0039 34.8105 54.4072C35.1865 54.8037 35.3745 55.3301 35.3745 55.9863C35.3745 56.1982 35.3096 56.7007 35.1797 57.4937C35.0703 58.1294 35.0156 58.7104 35.0156 59.2368C35.0156 60.4263 35.2412 61.4414 35.6924 62.2822ZM45.7412 62.3232C45.96 62.3232 46.0693 62.3608 46.0693 62.436C46.0693 62.6001 45.8745 62.7812 45.4849 62.9795C45.1909 63.1299 44.9277 63.2358 44.6953 63.2974C44.4629 63.3657 44.2373 63.3999 44.0186 63.3999C43.7656 63.3999 43.5879 63.3589 43.4853 63.2769C43.0547 62.9214 42.7197 61.8755 42.4805 60.1392C41.9336 62.3677 41.1851 63.4819 40.2349 63.4819C39.4761 63.4819 38.8472 63.082 38.3481 62.2822C37.9517 61.667 37.6851 60.9185 37.5483 60.0366C37.5483 60.064 37.5415 60.2246 37.5278 60.5186C37.5005 61.168 37.6372 61.749 37.938 62.2617C38.2388 62.7676 38.6182 63.082 39.0762 63.2051C38.3652 63.2393 37.8491 62.9556 37.5278 62.354C37.2612 61.8755 37.1279 60.9287 37.1279 59.5137C37.1279 59.1924 37.1484 58.7104 37.1895 58.0679C37.2305 57.4253 37.251 56.9468 37.251 56.6323C37.251 55.853 37.1108 55.2891 36.8306 54.9404C36.7759 54.8652 36.7485 54.8003 36.7485 54.7456C36.7485 54.4517 37.0698 54.1851 37.7124 53.9458C38.2456 53.7407 38.6865 53.6382 39.0352 53.6382C39.8896 53.6382 40.3169 54.2671 40.3169 55.5249C40.3169 55.9282 40.2725 56.5366 40.1836 57.3501C40.0947 58.1636 40.0503 58.772 40.0503 59.1753C40.0503 60.3921 40.3511 61.0005 40.9526 61.0005C41.3013 61.0005 41.5645 60.4912 41.7422 59.4727C41.8447 58.8984 41.937 57.938 42.019 56.5913C42.0737 55.5454 42.1455 55.002 42.2344 54.9609C42.248 54.5098 42.3027 54.2021 42.3984 54.0381C42.5352 53.7988 42.8154 53.6792 43.2393 53.6792C43.5605 53.6792 44.1553 53.8125 45.0234 54.0791C45.1875 54.1338 45.2695 54.855 45.2695 56.2427C45.2695 56.5503 45.2627 57.0117 45.249 57.627C45.249 58.2422 45.249 58.7036 45.249 59.0112C45.249 61.2192 45.4131 62.3232 45.7412 62.3232ZM41.0654 49.4854C41.3047 49.4375 41.5269 49.4136 41.7319 49.4136C42.5112 49.4136 43.0171 49.7485 43.2495 50.4185C43.2905 50.5415 43.311 50.6714 43.311 50.8081C43.311 51.1362 43.1982 51.4644 42.9727 51.7925C42.8975 51.895 42.771 52.0249 42.5933 52.1821C42.395 52.353 42.2583 52.4795 42.1831 52.5615C41.9644 52.8281 41.79 53.1392 41.6602 53.4946C41.6875 53.187 41.7935 52.8999 41.978 52.6333C42.0259 52.5581 42.2207 52.3154 42.5625 51.9053C42.5352 51.9189 42.5044 51.936 42.4702 51.9565C42.2173 52.1821 41.9917 52.4419 41.7935 52.7358C41.5542 53.0913 41.438 53.4023 41.4448 53.6689V53.7202C41.4175 53.7749 41.373 53.8022 41.3115 53.8022C41.127 53.8022 40.9526 53.6416 40.7886 53.3203C40.645 53.0469 40.5732 52.8042 40.5732 52.5923C40.5732 52.2778 40.7749 51.9155 41.1782 51.5054C41.5815 51.0952 41.7832 50.7842 41.7832 50.5723C41.7832 50.4902 41.7627 50.4082 41.7217 50.3262C41.5986 50.0322 41.3013 49.8784 40.8296 49.8647C40.6724 50.0562 40.5698 50.2339 40.522 50.3979C40.4878 50.5278 40.457 50.709 40.4297 50.9414C40.3955 51.208 40.3682 51.3892 40.3477 51.4849C40.3477 51.5054 40.3408 51.5259 40.3271 51.5464C40.3271 51.5464 40.3237 51.543 40.3169 51.5361C40.2964 51.4951 40.2485 51.4609 40.1733 51.4336C40.0981 51.3994 40.0298 51.3174 39.9683 51.1875C39.9067 51.0576 39.876 50.9482 39.876 50.8594C39.876 50.832 39.8794 50.7944 39.8862 50.7466C39.8931 50.6919 39.8965 50.6543 39.8965 50.6338C39.8965 50.5244 39.8657 50.3672 39.8042 50.1621C39.7427 49.957 39.7119 49.8032 39.7119 49.7007C39.7119 49.6323 39.729 49.5845 39.7632 49.5571C39.9614 49.3931 40.1426 49.311 40.3066 49.311C40.3408 49.311 40.3853 49.3213 40.4399 49.3418C40.4946 49.3623 40.5391 49.3726 40.5732 49.3726C40.6074 49.3726 40.6553 49.3623 40.7168 49.3418C40.7783 49.3145 40.8262 49.3008 40.8604 49.3008C40.9697 49.3008 41.0381 49.3623 41.0654 49.4854ZM61.8398 52.7358C62.2158 52.811 62.4824 52.8999 62.6396 53.0024C62.127 52.9546 61.6655 52.917 61.2554 52.8896C61.2349 53.6689 61.1973 54.6567 61.1426 55.853C61.0537 57.5825 61.0093 58.8813 61.0093 59.7495C61.0093 61.2466 61.1221 62.0635 61.3477 62.2002C61.4639 62.2686 61.522 62.3472 61.522 62.436C61.522 62.6548 61.3442 62.8428 60.9888 63C60.7085 63.123 60.4453 63.1846 60.1992 63.1846C59.8574 63.1846 59.5327 63.0889 59.2251 62.8975C58.7397 62.5898 58.4458 61.1816 58.3433 58.6729C57.2837 61.5986 56.1011 63.0615 54.7954 63.0615C54.0435 63.0615 53.4897 62.9556 53.1343 62.7437C52.7446 62.4976 52.4746 62.0293 52.3242 61.3389C52.2217 60.8809 52.1704 60.3921 52.1704 59.8726C52.1704 58.9224 52.3379 57.873 52.6728 56.7246C53.083 55.3779 53.582 54.4585 54.1699 53.9663C54.375 53.8022 54.6416 53.6997 54.9697 53.6587C55.25 53.6313 55.5303 53.6006 55.8105 53.5664C55.9336 53.5391 56.0293 53.5254 56.0977 53.5254C56.1797 53.5254 56.2446 53.5391 56.2925 53.5664C56.4702 53.5254 56.7983 53.5425 57.2769 53.6177C56.9966 53.7271 56.665 53.9937 56.2822 54.4175C55.9062 54.8345 55.7183 55.1763 55.7183 55.4429C55.7183 55.4702 55.7251 55.4976 55.7388 55.5249C56.4019 54.3765 57.1606 53.8022 58.0151 53.8022C58.1519 53.8022 58.2339 53.8159 58.2612 53.8433C58.2612 53.8569 58.2544 53.8638 58.2407 53.8638C58.0698 53.9321 57.8237 54.0586 57.5024 54.2432C56.8872 54.7217 56.354 55.46 55.9028 56.458C55.4585 57.4561 55.2363 58.3618 55.2363 59.1753C55.2363 59.4829 55.2944 59.7905 55.4106 60.0981C55.5474 60.5083 55.7422 60.7134 55.9951 60.7134C56.3164 60.7134 56.6377 60.334 56.959 59.5752C57.1572 59.1309 57.4102 58.3823 57.7178 57.3296C57.998 56.3931 58.186 55.8325 58.2817 55.6479C58.2817 55.2993 58.2886 54.7319 58.3022 53.9458V52.8691C57.5093 52.9375 57.0615 52.9785 56.959 52.9922H56.877C56.6172 52.9922 56.3335 52.8486 56.0259 52.5615C55.7183 52.2676 55.5645 52.0249 55.5645 51.8335C55.5645 51.731 55.6362 51.6694 55.7798 51.6489C55.8481 51.6489 56.2925 51.6318 57.1128 51.5977C57.5571 51.5771 57.9536 51.5635 58.3022 51.5566C58.2886 50.9687 58.2612 50.5962 58.2202 50.439C58.1929 50.3706 58.1792 50.3228 58.1792 50.2954C58.1792 49.9604 58.5142 49.793 59.1841 49.793C59.9429 49.793 60.4419 49.9468 60.6811 50.2544C60.7905 50.3774 60.8452 50.6064 60.8452 50.9414C60.8452 51.0303 60.8384 51.1567 60.8247 51.3208C60.8179 51.4028 60.8145 51.4746 60.8145 51.5361C60.8623 51.543 60.9136 51.5464 60.9683 51.5464C60.9751 51.478 60.9819 51.4028 60.9888 51.3208C61.0024 51.1021 61.0161 50.8867 61.0298 50.6748C61.0503 50.6064 61.0742 50.5723 61.1016 50.5723C61.1152 50.5723 61.1357 50.5996 61.1631 50.6543C61.2178 50.7842 61.252 51.085 61.2656 51.5566C62.0586 51.584 62.5576 51.6421 62.7627 51.731C63.1523 51.9019 63.3472 52.0864 63.3472 52.2847C63.3472 52.4009 63.2856 52.5137 63.1626 52.623C63.0395 52.7324 62.8926 52.7871 62.7217 52.7871C62.4961 52.7871 62.2021 52.77 61.8398 52.7358ZM65.7466 59.1958C65.7739 61.062 66.396 61.9951 67.6128 61.9951C68.146 61.9951 68.6348 61.8105 69.0791 61.4414C69.3184 61.2637 69.6841 60.8809 70.1763 60.293C70.1899 60.2656 70.2173 60.2383 70.2583 60.2109C70.313 60.2109 70.3403 60.3135 70.3403 60.5186C70.3403 60.8398 70.2275 61.1919 70.0019 61.5747C69.3047 62.7368 68.1562 63.3315 66.5566 63.3589L66.3311 63.3794C63.7266 63.4204 62.4243 61.7832 62.4243 58.4678C62.4243 57.75 62.5098 57.0493 62.6807 56.3657C62.8857 55.5112 63.1797 54.8721 63.5625 54.4482C63.7402 54.2705 63.9897 54.1406 64.311 54.0586C64.5913 53.9834 64.8716 53.9185 65.1519 53.8638C65.3091 53.8091 65.4219 53.7817 65.4902 53.7817C65.5449 53.7817 65.5859 53.7954 65.6133 53.8228C65.7568 53.7544 66.0166 53.7202 66.3926 53.7202C66.6455 53.7202 66.8916 53.7339 67.1309 53.7612C67.4795 53.604 67.7393 53.5254 67.9102 53.5254C68.5527 53.5254 69.1064 53.7817 69.5713 54.2944C70.043 54.8071 70.2788 55.3848 70.2788 56.0273C70.2788 57.6543 69.1851 58.7822 66.9976 59.4111C66.6763 59.5068 66.3823 59.5547 66.1157 59.5547C66.02 59.5547 65.9311 59.5479 65.8491 59.5342C66.854 59.4111 67.5684 58.9907 67.9922 58.2729L67.9717 58.2935C67.3086 58.8403 66.5669 59.1411 65.7466 59.1958ZM65.7466 58.8164C67.0864 58.4678 67.7563 57.5039 67.7563 55.9248C67.7563 55.3643 67.4351 54.978 66.7925 54.7661C66.1362 55.7915 65.7876 57.1416 65.7466 58.8164ZM64.6289 47.8242C64.6699 47.8242 64.7041 47.8447 64.7314 47.8857C64.957 48.2754 65.4321 48.7573 66.1567 49.3315C66.8882 49.9058 67.4556 50.2578 67.8589 50.3877C67.8999 50.4014 67.9272 50.415 67.9409 50.4287C67.9272 50.5654 67.7393 50.6338 67.377 50.6338C67.3086 50.6338 67.2231 50.627 67.1206 50.6133C66.2114 50.4766 65.6885 50.3945 65.5518 50.3672C64.8613 50.21 64.3931 50.022 64.147 49.8032C63.9624 49.646 63.8701 49.4341 63.8701 49.1675C63.8701 48.9692 63.9453 48.7095 64.0957 48.3882C64.2666 48.0122 64.4443 47.8242 64.6289 47.8242ZM67.418 51.7412C67.5752 51.8848 67.8281 52.0522 68.1768 52.2437C68.5869 52.4692 68.9014 52.582 69.1201 52.582C69.1475 52.582 69.1782 52.582 69.2124 52.582C69.2534 52.5957 69.2739 52.623 69.2739 52.6641C69.2739 52.7803 69.1714 52.9204 68.9663 53.0845C68.7612 53.2417 68.563 53.3203 68.3716 53.3203C68.0776 53.3203 67.4658 52.8794 66.5361 51.9976C66.2695 52.3599 65.9004 52.7803 65.4287 53.2588C65.3125 53.2998 65.1929 53.3203 65.0698 53.3203C64.9194 53.3203 64.6973 53.2793 64.4033 53.1973C64.0615 53.1084 63.8906 53.0298 63.8906 52.9614C63.8906 52.9478 63.9043 52.9409 63.9316 52.9409C64.1299 52.9136 64.458 52.606 64.916 52.0181C65.3809 51.4302 65.6133 51.0508 65.6133 50.8799C65.6133 50.7568 65.7466 50.6953 66.0132 50.6953C66.2251 50.6953 66.4917 50.7158 66.813 50.7568C67.2163 50.8252 67.418 50.9038 67.418 50.9927C67.3496 51.0474 67.2676 51.1226 67.1719 51.2183C67.7324 51.8745 68.3613 52.2881 69.0586 52.459C68.5527 52.4453 68.0059 52.1992 67.418 51.7207V51.7412ZM84.9214 57.1245C85.5229 57.0356 85.9434 56.8579 86.1826 56.5913C86.251 56.5229 86.3057 56.4888 86.3467 56.4888C86.5312 56.4888 86.6851 56.6836 86.8081 57.0732C86.9106 57.3672 86.9619 57.6338 86.9619 57.873C86.9619 58.8437 86.521 59.3291 85.6392 59.3291C85.4136 59.3291 85.1333 59.3052 84.7983 59.2573C84.771 60.0981 84.7573 60.8262 84.7573 61.4414C84.7573 62.6787 84.8257 63.4512 84.9624 63.7588C84.7368 63.4375 84.5967 63.2187 84.542 63.1025C84.4463 62.9385 84.3643 62.689 84.2959 62.354C84.1387 61.6226 84.0669 60.71 84.0806 59.6162V59.1548L84.019 59.1343C83.9917 59.4692 83.978 59.835 83.978 60.2314C83.978 60.874 84.0054 61.5029 84.0601 62.1182C84.1147 62.5967 84.1865 62.9385 84.2754 63.1436C84.3711 63.3555 84.5659 63.6016 84.8599 63.8818C84.1899 63.6699 83.6841 63.4102 83.3423 63.1025C82.9663 62.7539 82.6929 62.2515 82.522 61.5952C82.3852 61.021 82.2759 60.0947 82.1938 58.8164C81.3257 58.6934 80.6592 58.6318 80.1943 58.6318L79.9687 58.6523C79.7432 58.7617 79.3979 58.8164 78.9331 58.8164C78.8647 58.8643 78.728 58.9736 78.5229 59.1445C78.3247 59.3086 78.1811 59.3906 78.0923 59.3906C77.8394 59.3906 77.6445 59.1377 77.5078 58.6318C76.9199 58.4609 76.626 58.2217 76.626 57.9141C76.626 57.2715 77.0942 56.1401 78.0308 54.52C78.7622 53.2827 79.4697 52.2095 80.1533 51.3003C80.7002 50.603 81.0796 50.1963 81.2915 50.0801C81.4282 50.0117 81.5684 49.9775 81.7119 49.9775C82.1973 49.752 82.9458 49.6494 83.9575 49.6699C84.0259 49.6699 84.1216 49.6597 84.2446 49.6392C84.3882 49.6392 84.4873 49.6392 84.542 49.6392C85.1025 49.6392 85.3828 49.8647 85.3828 50.3159C85.3828 50.4868 85.3281 51.3003 85.2187 52.7563C85.0752 54.5747 84.9761 56.0308 84.9214 57.1245ZM80.0098 57.0117C80.4678 57.0391 81.1685 57.0835 82.1118 57.145C82.1118 56.2905 82.1016 55.436 82.0811 54.5815C82.0811 53.5562 82.0264 52.7085 81.917 52.0386C81.4863 52.6948 81.0864 53.4912 80.7173 54.4277C80.3276 55.4395 80.0918 56.3008 80.0098 57.0117Z" fill="white"/>
<g clip-path="url(#clip1_57_266)">
<path d="M79.8275 93.4483V87.3793C79.8275 83.4181 83.0387 80.2069 87 80.2069C90.9612 80.2069 94.1724 83.4181 94.1724 87.3793V93.4483H96.3793V87.3793C96.3793 82.1993 92.18 78 87 78C81.8199 78 77.6207 82.1993 77.6207 87.3793V93.4483H79.8275V93.4483Z" fill="#959CB5"/>
<path d="M79.8275 91.2415H77.6207V93.4483H79.8275V91.2415Z" fill="#7F8499"/>
<path d="M96.3793 91.2415H94.1724V93.4483H96.3793V91.2415Z" fill="#7F8499"/>
<path d="M76.5173 94.5518V105.311C76.5173 106.596 77.253 107.778 78.4223 108.311C80.7326 109.364 83.7268 110 87 110C90.2732 110 93.2675 109.364 95.5778 108.311C96.7471 107.778 97.4828 106.596 97.4828 105.311V94.5518C97.4828 93.333 96.4948 92.345 95.276 92.345H78.7241C77.5053 92.3449 76.5173 93.333 76.5173 94.5518Z" fill="#FFDC64"/>
<path d="M89.2069 99.5172C89.2069 98.1258 87.9193 97.0352 86.4706 97.3719C85.6884 97.5537 85.0517 98.1834 84.861 98.9636C84.6304 99.9067 85.0086 100.771 85.6769 101.272C85.8086 101.371 85.8966 101.517 85.8966 101.682V103.32C85.8966 103.87 86.2721 104.379 86.8147 104.468C87.506 104.58 88.1034 104.049 88.1034 103.379V101.671C88.1034 101.513 88.1877 101.373 88.3142 101.279C88.8541 100.878 89.2069 100.241 89.2069 99.5172Z" fill="#464655"/>
<path d="M95 96.2069C95.4571 96.2069 95.8276 95.8363 95.8276 95.3793V94.8276C95.8276 94.3705 95.457 94 95 94C94.5429 94 94.1724 94.3706 94.1724 94.8276V95.3793C94.1724 95.8364 94.5429 96.2069 95 96.2069Z" fill="#FFC93C"/>
<path d="M95 101.724C95.4571 101.724 95.8276 101.353 95.8276 100.896V98.1379C95.8276 97.6808 95.457 97.3103 95 97.3103C94.5429 97.3103 94.1724 97.6809 94.1724 98.1379V100.896C94.1724 101.353 94.5429 101.724 95 101.724Z" fill="#FFC93C"/>
<path d="M81.6828 108.311C80.8827 107.778 80.3793 106.596 80.3793 105.311V94.5518C80.3793 93.333 81.0554 92.345 81.8893 92.345H78.7241C77.5053 92.345 76.5173 93.333 76.5173 94.5518V105.311C76.5173 106.596 77.253 107.778 78.4224 108.311C80.7326 109.364 83.7268 110 87 110C87.1105 110 87.2178 109.994 87.3276 109.992C85.1765 109.951 83.2101 109.328 81.6828 108.311Z" fill="#FFC850"/>
</g>
</g>
<defs>
<clipPath id="clip0_57_266">
<rect width="110" height="110" fill="white"/>
</clipPath>
<clipPath id="clip1_57_266">
<rect width="32" height="32" fill="white" transform="translate(71 78)"/>
</clipPath>
</defs>
</svg>
