<svg width="32" height="32" viewBox="0 0 32 32" fill="none" xmlns="http://www.w3.org/2000/svg">
<g clip-path="url(#clip0_57_326)">
<path d="M8.82754 15.4483V9.37931C8.82754 5.41806 12.0387 2.20688 16 2.20688C19.9612 2.20688 23.1724 5.41806 23.1724 9.37931V15.4483H25.3793V9.37931C25.3793 4.19925 21.18 0 16 0C10.8199 0 6.62067 4.19925 6.62067 9.37931V15.4483H8.82754Z" fill="#959CB5"/>
<path d="M8.82754 13.2415H6.62067V15.4483H8.82754V13.2415Z" fill="#7F8499"/>
<path d="M25.3793 13.2415H23.1724V15.4483H25.3793V13.2415Z" fill="#7F8499"/>
<path d="M5.51727 16.5518V27.3107C5.51727 28.5958 6.25302 29.7778 7.42234 30.3108C9.73259 31.364 12.7268 32.0001 16 32.0001C19.2732 32.0001 22.2675 31.364 24.5778 30.3108C25.7471 29.7777 26.4828 28.5957 26.4828 27.3107V16.5518C26.4828 15.333 25.4948 14.345 24.276 14.345H7.72415C6.50534 14.3449 5.51727 15.333 5.51727 16.5518Z" fill="#FFDC64"/>
<path d="M18.2069 21.5172C18.2069 20.1258 16.9193 19.0352 15.4706 19.3719C14.6884 19.5537 14.0517 20.1834 13.861 20.9636C13.6304 21.9067 14.0086 22.7708 14.6769 23.2724C14.8086 23.3712 14.8966 23.517 14.8966 23.6816V25.3203C14.8966 25.8699 15.2721 26.3795 15.8147 26.4677C16.506 26.5801 17.1034 26.0494 17.1034 25.3792V23.6705C17.1034 23.5129 17.1877 23.373 17.3142 23.2789C17.8541 22.8779 18.2069 22.2414 18.2069 21.5172Z" fill="#464655"/>
<path d="M24 18.2069C24.4571 18.2069 24.8276 17.8363 24.8276 17.3793V16.8276C24.8276 16.3705 24.457 16 24 16C23.5429 16 23.1724 16.3706 23.1724 16.8276V17.3793C23.1724 17.8364 23.5429 18.2069 24 18.2069Z" fill="#FFC93C"/>
<path d="M24 23.7241C24.4571 23.7241 24.8276 23.3535 24.8276 22.8965V20.1379C24.8276 19.6808 24.457 19.3103 24 19.3103C23.5429 19.3103 23.1724 19.6809 23.1724 20.1379V22.8965C23.1724 23.3535 23.5429 23.7241 24 23.7241Z" fill="#FFC93C"/>
<path d="M10.6828 30.3108C9.88271 29.7777 9.37934 28.5957 9.37934 27.3107V16.5518C9.37934 15.333 10.0554 14.345 10.8893 14.345H7.72415C6.50534 14.345 5.51727 15.333 5.51727 16.5518V27.3106C5.51727 28.5957 6.25302 29.7777 7.4224 30.3107C9.73259 31.364 12.7268 32.0001 16 32.0001C16.1105 32.0001 16.2178 31.9936 16.3276 31.9922C14.1765 31.9509 12.2101 31.3285 10.6828 30.3108Z" fill="#FFC850"/>
</g>
<defs>
<clipPath id="clip0_57_326">
<rect width="32" height="32" fill="white"/>
</clipPath>
</defs>
</svg>
