<svg width="100" height="100" viewBox="0 0 100 100" fill="none" xmlns="http://www.w3.org/2000/svg">
<g clip-path="url(#clip0_738_8195)">
<path d="M5.23994 84.0131C5.23994 84.0131 3.63645 95.6985 13.0697 98.487H40.445C49.8782 95.6983 48.2748 84.0131 48.2748 84.0131L27.161 76.9072L5.23994 84.0131Z" fill="#FFB983"/>
<path d="M30.0997 76.9078H23.4129C20.418 76.9078 17.9902 74.48 17.9902 71.4852V63.366H35.5226V71.4852C35.5226 74.48 33.0948 76.9078 30.0997 76.9078Z" fill="#FCD0A3"/>
<path d="M47.4369 53.1127H47.4658C49.9528 53.1127 51.968 51.0959 51.968 48.6105C51.968 46.1235 49.9528 44.1067 47.4658 44.1067C47.4334 44.1067 47.4011 44.1067 47.3687 44.1084H6.14228C6.10986 44.1067 6.07763 44.1067 6.0452 44.1067C3.55822 44.1067 1.54297 46.1235 1.54297 48.6105C1.54297 51.0957 3.55822 53.1127 6.0452 53.1127H6.07411" fill="#FFB983"/>
<path d="M35.5219 67.7415C35.5219 67.7415 48.2729 69.3448 48.2729 75.4556C48.2729 81.5664 48.2729 84.0127 48.2729 84.0127H40.4432V98.4869H13.068V84.0129H5.23828C5.23828 84.0129 5.23828 81.5666 5.23828 75.4557C5.23828 69.3449 17.9894 67.7415 17.9894 67.7415" fill="#EC6161"/>
<path d="M19.1226 98.4874H13.0692V84.0132H5.23828C5.23828 84.0132 5.23828 81.5676 5.23828 75.4556C5.23828 69.3456 17.9896 67.7419 17.9896 67.7419H20.9255L21.0661 67.8513C17.9896 67.8513 13.7782 77.8797 19.1226 98.4874Z" fill="#D63030"/>
<path d="M35.521 70.8135V71.4856C35.521 74.4808 33.0944 76.9077 30.0989 76.9077H27.1603C24.1671 76.9077 21.7383 74.4808 21.7383 71.4856V70.9404C26.3319 71.0557 30.9275 71.0127 35.521 70.8135Z" fill="#FCD0A3"/>
<path d="M35.5224 63.3667V70.8149L35.5204 70.813C30.9268 71.0122 26.3313 71.0552 21.7377 70.94V71.4851C21.7377 74.4804 24.1665 76.9072 27.1598 76.9072H23.4123C20.419 76.9072 17.9902 74.4804 17.9902 71.4851V63.3667H35.5224Z" fill="#FFB983"/>
<path d="M46.4033 32.35C33.3062 31.0803 20.2089 31.0803 7.11181 32.35C6.0955 40.4932 5.79605 48.6366 6.21367 56.7799C6.51761 62.7078 11.2611 67.4263 17.1902 67.7062C23.5682 68.0074 29.9464 68.0074 36.3245 67.7062C42.2536 67.4263 46.9971 62.7078 47.301 56.7799C47.7188 48.6366 47.4196 40.4932 46.4033 32.35Z" fill="#FCD0A3"/>
<path d="M7.11168 32.3484C13.659 31.7134 20.2086 31.397 26.7579 31.397C23.4421 31.397 20.1263 31.7173 16.8107 32.3582C16.2949 40.5802 16.1445 48.8021 16.3554 57.022C16.4941 62.4323 18.4715 66.8441 21.0663 67.8502C19.7747 67.8151 18.4812 67.7663 17.1897 67.7057C11.2617 67.4264 6.51767 62.7077 6.21276 56.7795C5.7967 48.6361 6.09575 40.4923 7.11168 32.3484Z" fill="#FFB983"/>
<path d="M47.2599 40.4595C43.0786 44.6428 34.798 36.2782 34.798 36.2782C35.0324 37.7925 34.6066 39.2676 32.9652 40.44C31.8026 41.2704 30.4876 41.6358 29.1259 41.6905C23.6687 41.9093 17.4827 37.1106 17.4827 37.1106C16.3806 40.1409 13.1295 40.0804 10.4351 39.4161C7.95551 38.8045 5.86095 37.1633 4.66531 34.9066C2.60982 31.0281 -0.176409 24.467 2.66452 21.6261C6.82628 17.4643 11.9884 21.6261 11.9884 21.6261C11.9884 21.6261 17.002 19.7445 23.4009 18.4119C23.4028 18.4119 23.4067 18.4099 23.4087 18.4099C31.066 16.8156 40.7045 16.0029 46.1185 20.1293C51.7068 24.3889 51.4431 36.2782 47.2599 40.4595Z" fill="#3C5959"/>
<path d="M29.1259 41.6905C23.6687 41.9093 17.4827 37.1105 17.4827 37.1105C16.3806 40.1409 13.1295 40.0804 10.4351 39.416C7.9555 38.8044 5.86095 37.1633 4.66531 34.9066C2.60982 31.028 -0.176409 24.467 2.66452 21.6261C6.82628 17.4643 11.9883 21.6261 11.9883 21.6261C11.9883 21.6261 17.002 19.7444 23.4009 18.4119C15.1283 20.5846 21.9101 39.0996 29.1259 41.6905Z" fill="#394949"/>
<path d="M88.0414 56.7805C97.008 56.7805 97.2627 68.0219 98.5357 71.5866C98.5357 71.5866 88.8972 69.9137 85.8867 62.9204" fill="#FCB143"/>
<path d="M45.9782 84.0133C45.9782 84.0133 44.3747 95.6987 53.8079 98.4873H81.1833C90.6165 95.6985 89.013 84.0133 89.013 84.0133L67.8993 76.9075L45.9782 84.0133Z" fill="#FFB983"/>
<path d="M70.84 76.9081H64.1531C61.1583 76.9081 58.7305 74.4803 58.7305 71.4854V63.3662H76.2628V71.4854C76.2628 74.4803 73.835 76.9081 70.84 76.9081Z" fill="#FCD0A3"/>
<path d="M88.1771 53.1132H88.206C90.693 53.1132 92.7082 51.0964 92.7082 48.611C92.7082 46.124 90.693 44.1072 88.206 44.1072C88.1736 44.1072 88.1413 44.1072 88.1089 44.1089H46.8825C46.8501 44.1072 46.8179 44.1072 46.7854 44.1072C44.2985 44.1072 42.2832 46.124 42.2832 48.611C42.2832 51.0962 44.2985 53.1132 46.7854 53.1132H46.8143" fill="#FFB983"/>
<path d="M89.0143 75.4556V84.0132H81.1834V98.4874H53.8094V84.0132H45.9785C45.9785 84.0132 45.9785 81.5676 45.9785 75.4556C45.9785 69.3456 58.7299 67.7419 58.7299 67.7419H76.263C76.263 67.7419 89.0143 69.3456 89.0143 75.4556Z" fill="#0A93A3"/>
<path d="M59.8628 98.4874H53.8094V84.0132H45.9785C45.9785 84.0132 45.9785 81.5676 45.9785 75.4556C45.9785 69.3456 58.7299 67.7419 58.7299 67.7419H61.6657L61.8064 67.8513C58.7299 67.8513 54.5185 77.8797 59.8628 98.4874Z" fill="#046B74"/>
<path d="M76.2612 70.814V71.4861C76.2612 74.4813 73.8346 76.9082 70.8392 76.9082H67.9006C64.9073 76.9082 62.4785 74.4815 62.4785 71.4861V70.9409C67.0722 71.0564 71.6678 71.0134 76.2612 70.814Z" fill="#FCD0A3"/>
<path d="M76.2626 63.3669V70.8152L76.2606 70.8132C71.667 71.0125 67.0716 71.0554 62.4779 70.9402V71.4854C62.4779 74.4806 64.9067 76.9074 67.9 76.9074H64.1525C61.1592 76.9074 58.7305 74.4806 58.7305 71.4854V63.3669H76.2626Z" fill="#FFB983"/>
<path d="M87.1416 32.3502C74.0445 31.0805 60.9472 31.0805 47.8501 32.3502C46.8338 40.4934 46.5343 48.6369 46.952 56.7801C47.2559 62.7081 51.9996 67.4264 57.9285 67.7065C64.3065 68.0077 70.6847 68.0077 77.0628 67.7065C82.9919 67.4266 87.7354 62.7081 88.0393 56.7801C88.4573 48.6369 88.1581 40.4936 87.1416 32.3502Z" fill="#FCD0A3"/>
<path d="M47.8519 32.3492C54.3993 31.7141 60.9488 31.3977 67.4981 31.3977C64.1824 31.3977 60.8668 31.7181 57.551 32.3589C57.0351 40.5809 56.8847 48.8029 57.0957 57.0227C57.2344 62.433 59.2117 66.8448 61.8065 67.851C60.515 67.8158 59.2215 67.767 57.9299 67.7064C52.002 67.4271 47.2579 62.7084 46.953 56.7803C46.5369 48.6366 46.836 40.4928 47.8519 32.3492Z" fill="#FFB983"/>
<path d="M87.9716 41.2999C87.9716 41.2999 73.0519 40.6063 67.497 31.3977C65.1388 35.3114 61.0883 37.6852 57.2098 39.1213C51.9577 41.0713 47.0222 41.2999 47.0222 41.2999C47.0222 41.2999 39.9707 18.3711 67.4968 18.3711C95.023 18.3711 87.9716 41.2999 87.9716 41.2999Z" fill="#FCB143"/>
<path d="M67.4969 18.3711C60.2696 21.556 57.5498 32.3569 57.2097 39.1213C51.9576 41.0713 47.0221 41.2999 47.0221 41.2999C47.0221 41.2999 39.9708 18.3711 67.4969 18.3711Z" fill="#FA9801"/>
<path d="M54.2707 55.227C56.3273 55.227 57.9945 54.4575 57.9945 53.5083C57.9945 52.5591 56.3273 51.7896 54.2707 51.7896C52.2141 51.7896 50.5469 52.5591 50.5469 53.5083C50.5469 54.4575 52.2141 55.227 54.2707 55.227Z" fill="#EC6161"/>
<path d="M80.7199 55.227C82.7765 55.227 84.4437 54.4575 84.4437 53.5083C84.4437 52.5591 82.7765 51.7896 80.7199 51.7896C78.6633 51.7896 76.9961 52.5591 76.9961 53.5083C76.9961 54.4575 78.6633 55.227 80.7199 55.227Z" fill="#EC6161"/>
<path d="M48.2946 27.8904C32.2611 19.5846 30.1126 5.5628 37.4472 2.19896C44.7017 -1.12737 48.2946 8.76665 48.2946 8.76665C48.2946 8.76665 51.8868 -1.12717 59.1411 2.19896C59.5323 2.37789 59.896 2.58826 60.232 2.8254C60.233 2.82637 60.2349 2.82735 60.2369 2.82833C60.2863 2.8629 60.3338 2.89845 60.3812 2.93302C66.1613 7.25965 63.3448 20.0934 48.2946 27.8904Z" fill="#EC6161"/>
<path d="M64.1148 86.8555H64.1374C66.0896 86.8555 67.6712 85.2726 67.6712 83.3218C67.6712 81.3696 66.0894 79.7866 64.1374 79.7866C64.112 79.7866 64.0866 79.7866 64.0612 79.788H27.7955C27.7701 79.7866 27.7447 79.7866 27.7193 79.7866C25.7672 79.7866 24.1855 81.3696 24.1855 83.3218C24.1855 85.2726 25.7674 86.8555 27.7193 86.8555H27.742" fill="#FFB983"/>
<path d="M61.3486 70.5587C51.0685 69.5621 40.7885 69.5621 30.5083 70.5587C29.7106 76.9506 29.4756 83.3423 29.8033 89.734C30.042 94.3868 33.7653 98.0903 38.4191 98.3101C43.4253 98.5464 48.4317 98.5464 53.4379 98.3101C58.0917 98.0903 61.8149 94.3868 62.0536 89.734C62.3814 83.3423 62.1464 76.9506 61.3486 70.5587Z" fill="#FCD0A3"/>
<path d="M30.5081 70.5577C35.6474 70.0593 40.7879 69.8108 45.9287 69.8108C43.3261 69.8108 40.7237 70.0624 38.1211 70.5654C37.7161 77.0188 37.5981 83.4724 37.7638 89.9242C37.8726 94.1708 39.4247 97.6338 41.4614 98.4236C40.4477 98.396 39.4325 98.3575 38.4187 98.3101C33.7657 98.0907 30.0421 94.387 29.8028 89.7342C29.476 83.3419 29.7106 76.9498 30.5081 70.5577Z" fill="#FFB983"/>
<path d="M61.9996 77.5832C61.9996 77.5832 50.2887 77.0388 45.9287 69.8109C44.0775 72.8827 40.8985 74.746 37.8542 75.8732C33.7319 77.4039 29.8579 77.5832 29.8579 77.5832C29.8579 77.5832 24.3231 59.5862 45.9287 59.5862C67.5343 59.5862 61.9996 77.5832 61.9996 77.5832Z" fill="#D5694C"/>
<path d="M45.9287 59.5862C40.2558 62.0861 38.121 70.5639 37.8542 75.8732C33.7319 77.4039 29.8579 77.5832 29.8579 77.5832C29.8579 77.5832 24.3231 59.5862 45.9287 59.5862Z" fill="#A64C31"/>
<path d="M26.7561 58.7366C29.1098 58.7366 31.2829 57.3623 32.2922 55.2355C32.6391 54.5046 32.3278 53.6308 31.5966 53.2839C30.8655 52.9372 29.992 53.2484 29.6451 53.9795C29.1182 55.0896 27.9843 55.8066 26.7561 55.8066C25.5278 55.8066 24.3937 55.0894 23.8669 53.9793C23.5202 53.2484 22.6467 52.937 21.9153 53.2839C21.1844 53.6308 20.873 54.5046 21.22 55.2355C22.2294 57.3625 24.4025 58.7366 26.7561 58.7366Z" fill="black"/>
<path d="M17.1691 49.825C18.2075 49.825 19.0492 48.5733 19.0492 47.0292C19.0492 45.4851 18.2075 44.2334 17.1691 44.2334C16.1308 44.2334 15.2891 45.4851 15.2891 47.0292C15.2891 48.5733 16.1308 49.825 17.1691 49.825Z" fill="black"/>
<path d="M36.3432 49.825C37.38 49.825 38.2233 48.5708 38.2233 47.0292C38.2233 45.4876 37.3798 44.2334 36.3432 44.2334C35.3065 44.2334 34.4629 45.4876 34.4629 47.0292C34.4629 48.5708 35.3063 49.825 36.3432 49.825Z" fill="black"/>
<path d="M72.3371 53.2845C71.6059 52.9377 70.7322 53.2489 70.3853 53.9798C69.8585 55.0899 68.7246 55.8072 67.4963 55.8072C66.2681 55.8072 65.134 55.0899 64.6071 53.9798C64.2602 53.2491 63.3865 52.9374 62.6556 53.2845C61.9246 53.6314 61.6133 54.5053 61.9602 55.236C62.9695 57.3628 65.1426 58.737 67.4963 58.737C69.8501 58.737 72.023 57.3626 73.0324 55.2358C73.3794 54.5051 73.068 53.6314 72.3371 53.2845Z" fill="black"/>
<path d="M57.9094 49.8255C58.9477 49.8255 59.7894 48.5738 59.7894 47.0297C59.7894 45.4856 58.9477 44.2339 57.9094 44.2339C56.871 44.2339 56.0293 45.4856 56.0293 47.0297C56.0293 48.5738 56.871 49.8255 57.9094 49.8255Z" fill="black"/>
<path d="M77.0834 44.2339C76.0466 44.2339 75.2031 45.4881 75.2031 47.0297C75.2031 48.5713 76.0466 49.8255 77.0834 49.8255C78.1202 49.8255 78.9635 48.5713 78.9635 47.0297C78.9635 45.4881 78.12 44.2339 77.0834 44.2339Z" fill="black"/>
<path d="M99.9144 71.0938C99.7015 70.4976 99.5036 69.57 99.2745 68.4958C98.7434 66.0067 98.0824 62.9089 96.542 60.2868C94.8795 57.4568 92.5361 55.8275 89.5661 55.4206C89.5797 55.0845 89.5924 54.7481 89.6038 54.4116C92.2222 53.7808 94.174 51.4204 94.174 48.6111C94.174 45.7692 92.1777 43.3866 89.5145 42.7885C89.493 42.3513 89.4698 41.9147 89.444 41.4787C89.7936 40.2019 91.1711 34.4251 89.2436 28.7323C88.984 27.966 88.1521 27.5552 87.3862 27.8144C86.6199 28.074 86.2089 28.9055 86.4683 29.6718C87.8091 33.6312 87.2461 37.7809 86.8449 39.7309C83.3191 39.3383 72.9555 37.6096 68.7527 30.6409C68.4877 30.2014 68.0118 29.9326 67.4983 29.9326C66.985 29.9326 66.5091 30.2012 66.2439 30.6407C62.0397 37.6094 51.6754 39.3383 48.1502 39.7309C47.7371 37.7205 47.1552 33.3765 48.6575 29.3091C48.7643 29.2818 48.8688 29.2433 48.9688 29.1915C53.9115 26.6309 57.4875 23.6171 59.9643 20.5699C62.1862 20.0849 64.7152 19.8358 67.4983 19.8358C75.0786 19.8358 80.5684 21.6241 83.8149 25.1507C84.1038 25.4644 84.4978 25.6234 84.8931 25.6234C85.2476 25.6234 85.6035 25.4954 85.885 25.2362C86.4802 24.6881 86.5187 23.7614 85.9706 23.1661C82.1463 19.0119 75.9314 16.9056 67.4983 16.9056C65.6522 16.9056 63.9048 17.0113 62.264 17.2139C63.9923 14.1544 64.6898 11.2189 64.6328 8.84561C64.5441 5.15694 62.7654 2.24902 59.7528 0.867429C57.5625 -0.136974 55.433 -0.21999 53.4228 0.621114C51.053 1.61263 49.3593 3.72515 48.2949 5.48003C47.2306 3.72515 45.5368 1.61263 43.167 0.621114C41.1571 -0.21999 39.0273 -0.137169 36.8371 0.867429C33.8243 2.24902 32.0456 5.15694 31.9571 8.84561C31.9049 11.0124 32.4503 13.3471 33.519 15.6618C24.4991 15.9001 14.9416 19.0301 12.2179 19.9862C9.80337 18.3986 5.27261 16.9455 1.6277 20.5908C-1.72402 23.9425 0.725846 30.5991 3.37085 35.5924C3.82715 36.455 4.39928 37.2385 5.06146 37.9295C4.92629 39.5446 4.81886 41.1645 4.73955 42.7873C2.07599 43.3852 0.0790985 45.7681 0.0790985 48.6102C0.0790985 51.4183 2.0293 53.7779 4.64599 54.4098C4.67353 55.2261 4.7081 56.0412 4.74971 56.855C4.9927 61.6113 7.74221 65.6553 11.7149 67.7178C11.5141 67.7858 11.3127 67.8561 11.1109 67.9298C7.7635 69.1528 3.77304 71.451 3.77304 75.454C3.77304 75.454 3.43922 87.383 4.19125 90.5429C5.33317 95.3407 8.23992 98.5658 12.5984 99.8742C12.7463 99.9244 12.9041 99.9529 13.0689 99.9529L81.1839 99.9521C81.3279 99.9521 81.4668 99.9304 81.598 99.8917C81.5984 99.8917 81.623 99.8845 81.6299 99.8824C86.0018 98.5787 88.9172 95.3504 90.0612 90.5435C90.817 87.3678 90.4785 75.4558 90.4785 75.4558C90.4785 71.4522 86.4882 69.1541 83.1408 67.9311C82.9388 67.8573 82.737 67.7868 82.5362 67.7188C83.6756 67.1273 84.7142 66.3736 85.6219 65.4856C89.6133 71.4577 97.8986 72.9627 98.2844 73.0297C98.368 73.0442 98.4518 73.0512 98.535 73.0512C98.9628 73.0512 99.3745 72.8635 99.6556 72.5299C99.9912 72.1314 100.09 71.5845 99.9144 71.0938ZM91.2438 48.6109C91.2438 49.7533 90.6093 50.7493 89.6749 51.2679C89.695 49.4858 89.6798 47.705 89.6325 45.9294C90.5902 46.4412 91.2438 47.4509 91.2438 48.6109ZM45.3591 45.9298C45.3118 47.7073 45.2966 49.4882 45.3167 51.2673C44.3828 50.7487 43.7485 49.7529 43.7485 48.6109C43.7487 47.4513 44.4019 46.442 45.3591 45.9298ZM38.0585 3.5308C38.8599 3.16337 39.6194 2.97996 40.3499 2.97996C40.9252 2.97996 41.4827 3.09384 42.0286 3.32101C45.1878 4.63638 46.9018 9.223 46.918 9.26695C47.1284 9.84631 47.6788 10.2319 48.2951 10.2319C48.9114 10.2319 49.4618 9.84611 49.6722 9.26695C50.1365 7.98791 51.9189 4.42659 54.554 3.32413C55.7949 2.80494 57.096 2.87252 58.5315 3.5308C60.5157 4.44066 61.6424 6.35316 61.704 8.91593C61.7688 11.616 60.6378 14.7167 58.5192 17.6465C56.1471 20.927 52.6225 23.8849 48.2953 26.2324C43.9681 23.8849 40.4433 20.9272 38.0712 17.6465C35.9526 14.7165 34.8216 11.616 34.8865 8.91593C34.9476 6.35316 36.0741 4.44066 38.0585 3.5308ZM3.69921 22.6629C6.86536 19.4965 10.9009 22.6355 11.0668 22.7674C11.4701 23.0926 12.0155 23.1809 12.5009 22.9989C12.6261 22.9518 24.8419 18.4179 35.157 18.5824C35.3309 18.8441 35.5092 19.1051 35.6963 19.3637C38.1398 22.7428 41.6515 25.7917 45.9199 28.2584C44.207 32.8532 44.7375 37.5856 45.2176 40.0366C42.3615 40.9281 37.4709 36.8917 35.8389 35.2466C35.3924 34.7954 34.7062 34.6831 34.1391 34.9683C33.5721 35.2537 33.2533 35.8717 33.3496 36.4991C33.5279 37.6623 33.1468 38.5099 32.1137 39.2477C29.6703 40.9935 26.1719 40.0835 23.6671 39.0131C20.7231 37.7547 18.4017 35.9709 18.3795 35.9537C18.0095 35.6668 17.5247 35.5736 17.075 35.7037C16.6252 35.8336 16.2646 36.1706 16.1046 36.6107C15.8821 37.2224 15.2051 39.084 10.7835 37.9936C8.71731 37.4857 6.95951 36.1114 5.96019 34.2223C2.96358 28.5649 2.11838 24.2437 3.69921 22.6629ZM3.0087 48.6106C3.0087 47.4497 3.66307 46.4398 4.62177 45.9282C4.5743 47.7089 4.55965 49.4899 4.57957 51.2686C3.64412 50.7504 3.0087 49.7536 3.0087 48.6106ZM7.6756 56.7055C7.3912 51.1632 7.44648 45.5544 7.83714 39.9964C8.54581 40.3593 9.29765 40.6451 10.0831 40.8381C14.5039 41.9284 16.7838 40.6986 17.9556 39.2361C20.1267 40.6671 24.5217 43.1613 28.7776 43.1612C30.5366 43.1612 32.2721 42.7349 33.8166 41.6315C34.7785 40.9447 35.4697 40.1235 35.8794 39.1932C36.614 39.7858 37.4975 40.4419 38.4609 41.0426C40.9742 42.6095 42.9664 43.1272 44.5244 43.0883C42.3525 43.9815 40.8187 46.1199 40.8187 48.6107C40.8187 51.4198 42.7703 53.7802 45.3886 54.4112C45.4161 55.2273 45.4483 56.0426 45.4901 56.856C45.512 57.2816 45.5552 57.7047 45.6179 58.1237C38.4052 58.1805 33.2717 60.2053 30.36 64.1473C29.8106 64.8912 29.3701 65.6657 29.0177 66.4517C25.1091 66.4952 21.1587 66.4257 17.2592 66.2421C12.061 65.9975 7.94087 61.8977 7.6756 56.7055ZM74.7979 69.2655V71.4852C74.7979 73.6673 73.0227 75.4427 70.8405 75.4427H64.1523C64.0759 75.4427 64.0007 75.4368 63.9253 75.4327C64.1382 73.8294 64.2351 71.647 63.7655 69.3581C65.0025 69.3805 66.2417 69.3961 67.4833 69.3961C69.922 69.3963 72.3656 69.3524 74.7979 69.2655ZM63.6202 81.2519H64.1366C65.2784 81.2519 66.2072 82.1807 66.2072 83.3224C66.2072 84.463 65.2784 85.391 64.1366 85.391H63.6528C63.6682 84.0096 63.6563 82.6288 63.6202 81.2519ZM60.6025 78.9307C60.7761 82.484 60.7732 86.0866 60.5907 89.6588C60.3896 93.5721 57.2847 96.6621 53.3689 96.8467C48.4313 97.0795 43.4245 97.0795 38.4882 96.8467C34.571 96.6621 31.4664 93.5723 31.2666 89.6588C31.0833 86.0991 31.08 82.4958 31.2537 78.9286C32.4935 78.7837 34.4775 78.4711 36.68 77.8115C40.676 76.6149 43.8292 74.7272 45.9269 72.2955C50.1689 77.2431 57.5768 78.5823 60.6025 78.9307ZM28.2034 85.3912H27.7187C26.5782 85.3912 25.6502 84.4632 25.6502 83.3226C25.6502 82.1809 26.578 81.2521 27.7187 81.2521H28.236C28.1998 82.6307 28.1881 84.0116 28.2034 85.3912ZM19.4542 69.2649C21.8925 69.3516 24.3432 69.3956 26.7848 69.3956C27.2185 69.3956 27.6515 69.3932 28.0844 69.3903C27.6222 71.6706 27.7209 73.8458 27.934 75.4427H23.4116C21.2296 75.4427 19.4542 73.6673 19.4542 71.4852V69.2649ZM7.0603 89.9428C6.6376 88.2095 6.58096 86.5587 6.60791 85.4771H11.6038V96.3074C9.31601 95.0643 7.78968 92.9336 7.0603 89.9428ZM13.0687 82.5471H6.70284V75.4546C6.70284 72.1154 12.858 70.1986 16.5242 69.4694V71.4854C16.5242 75.2831 19.614 78.3729 23.4116 78.3729H27.0126C24.5897 78.7172 22.7202 80.8052 22.7202 83.3226C22.7202 86.0788 24.9624 88.3212 27.7187 88.3212H28.2741C28.2928 88.8177 28.3147 89.3137 28.3401 89.8088C28.4864 92.674 29.7564 95.22 31.7217 97.0233H14.5337V84.0121C14.5337 83.2031 13.8778 82.5471 13.0687 82.5471ZM87.2109 89.8653C86.4894 92.8971 84.9568 95.0541 82.6489 96.308V85.4783H87.6469C87.6741 86.5384 87.6194 88.1493 87.2109 89.8653ZM87.5485 75.4562V82.5485H81.1839C80.3749 82.5485 79.7189 83.2044 79.7189 84.0135V97.0225H60.1348C62.0995 95.2194 63.3696 92.6736 63.5168 89.8088C63.5422 89.3135 63.5637 88.8175 63.5825 88.3212H64.1366C66.894 88.3212 69.1372 86.0788 69.1372 83.3226C69.1372 80.8052 67.2668 78.7172 64.843 78.3729H70.8405C74.6381 78.3729 77.7279 75.2831 77.7279 71.4854V69.469C81.3941 70.1947 87.5485 72.1078 87.5485 75.4562ZM76.9946 66.2423C72.2922 66.4646 67.5296 66.5195 62.8213 66.4101C62.5673 65.8491 62.2679 65.294 61.9161 64.7517C61.4754 64.0729 60.5681 63.8803 59.8895 64.3206C59.2109 64.7613 59.0179 65.6684 59.4584 66.3472C61.6622 69.7415 61.2383 74.0001 60.8621 76.0072C57.9059 75.6507 50.3155 74.2453 47.1843 69.0531C46.9192 68.6134 46.4432 68.3447 45.9298 68.3447C45.4165 68.3447 44.9405 68.6134 44.6754 69.0531C41.5542 74.2287 33.9557 75.6441 30.9974 76.005C30.6038 73.9015 30.1598 69.3354 32.7279 65.8733C35.1015 62.6734 39.5432 61.0509 45.9298 61.0509C49.9355 61.0509 53.2091 61.6988 55.66 62.9769C56.3774 63.3514 57.2623 63.0728 57.6363 62.3554C58.0106 61.6379 57.7322 60.753 57.0148 60.379C54.7364 59.1908 51.9176 58.469 48.6139 58.2204C48.5121 57.7236 48.443 57.2177 48.4166 56.7054C48.1766 52.0431 48.1793 47.3237 48.4184 42.656C52.0408 42.2757 62.0821 40.6382 67.4985 33.9414C72.9118 40.6363 82.9478 42.2747 86.5734 42.6556C86.8127 47.3061 86.816 52.0258 86.5767 56.7055C86.3097 61.8975 82.1905 65.9975 76.9946 66.2423ZM87.5745 63.0494C88.4454 61.6434 89.0535 60.0549 89.3371 58.3504C93.8804 59.098 95.2882 63.8542 96.409 69.1072C96.44 69.2528 96.4705 69.3958 96.5008 69.5362C93.8431 68.674 89.569 66.7679 87.5745 63.0494Z" fill="black"/>
<path d="M43.9452 87.4005C43.5983 86.6696 42.7246 86.358 41.9935 86.7051C41.2625 87.0521 40.9512 87.926 41.2981 88.6569C42.1423 90.4356 43.9597 91.585 45.9283 91.585C47.8968 91.585 49.7142 90.4356 50.5584 88.6569C50.9054 87.926 50.594 87.0523 49.8631 86.7051C49.1317 86.3584 48.2582 86.6696 47.9113 87.4005C47.5497 88.1625 46.7713 88.6548 45.9283 88.6548C45.0852 88.6548 44.3068 88.1625 43.9452 87.4005Z" fill="black"/>
<path d="M38.4043 84.2857C39.2251 84.2857 39.8905 83.2985 39.8905 82.0806C39.8905 80.8628 39.2251 79.8755 38.4043 79.8755C37.5834 79.8755 36.918 80.8628 36.918 82.0806C36.918 83.2985 37.5834 84.2857 38.4043 84.2857Z" fill="black"/>
<path d="M53.4531 84.2857C54.2725 84.2857 54.9394 83.2966 54.9394 82.0806C54.9394 80.8647 54.2725 79.8755 53.4531 79.8755C52.6335 79.8755 51.9668 80.8647 51.9668 82.0806C51.9668 83.2966 52.6335 84.2857 53.4531 84.2857Z" fill="black"/>
</g>
<defs>
<clipPath id="clip0_738_8195">
<rect width="100" height="100" fill="white"/>
</clipPath>
</defs>
</svg>
