<svg width="100" height="100" viewBox="0 0 100 100" fill="none" xmlns="http://www.w3.org/2000/svg">
<path fill-rule="evenodd" clip-rule="evenodd" d="M81.7414 81.7413L71.3834 71.3833L66.2044 76.5622C63.356 79.4106 63.356 84.0718 66.2044 86.9202C69.0529 89.7687 73.714 89.7687 76.5625 86.9202L81.7414 81.7413Z" fill="#FF6A47"/>
<path fill-rule="evenodd" clip-rule="evenodd" d="M71.3832 71.3836L81.7412 81.7416L86.9203 76.5627C89.7687 73.7143 89.7689 69.0531 86.9203 66.2047C84.0718 63.3562 79.4107 63.3562 76.5623 66.2047L71.3832 71.3836Z" fill="white"/>
<path fill-rule="evenodd" clip-rule="evenodd" d="M86.9203 76.5625L76.5623 86.9205C73.7139 89.7689 69.0527 89.7689 66.2043 86.9205C63.3559 84.0721 63.3559 79.4109 66.2043 76.5625L76.5623 66.2045C79.4107 63.3561 84.0719 63.3561 86.9203 66.2045C89.7689 69.0529 89.7688 73.7141 86.9203 76.5625ZM54.5898 76.5625C54.5898 88.6311 64.3604 98.5352 76.5625 98.5352C88.6977 98.5352 98.5352 88.6977 98.5352 76.5625C98.5352 64.4273 88.6977 54.5898 76.5625 54.5898C64.3564 54.5898 54.5898 64.4979 54.5898 76.5625Z" fill="#94B7F7"/>
<path fill-rule="evenodd" clip-rule="evenodd" d="M41.9969 39.103C41.9969 40.714 43.3153 42.0327 44.9266 42.0327H53.7155C55.3268 42.0327 56.6452 40.7144 56.6452 39.103V33.2437H41.9967V39.103H41.9969ZM33.2081 42.0327C34.8194 42.0327 36.1377 40.7144 36.1377 39.103V33.2437H21.4895V39.103C21.4895 40.7144 22.8077 42.0327 24.419 42.0327H33.2081Z" fill="white"/>
<path fill-rule="evenodd" clip-rule="evenodd" d="M25.884 33.2437H21.4895V39.103V39.1286C21.5034 40.728 22.8163 42.0327 24.419 42.0327H25.8838V33.2437H25.884Z" fill="#9CE4F8"/>
<path fill-rule="evenodd" clip-rule="evenodd" d="M56.6452 44.9624H59.5749C62.7975 44.9624 65.4342 42.3257 65.4342 39.103V36.1733C65.4342 34.562 64.1159 33.2437 62.5045 33.2437H56.6452C56.6454 37.1499 56.6452 41.0562 56.6452 44.9624ZM21.4895 44.9624V33.2437H15.6301C14.0188 33.2437 12.7004 34.562 12.7004 36.1733V39.103C12.7004 42.3257 15.3372 44.9624 18.5598 44.9624H21.4895Z" fill="#FFB680"/>
<path fill-rule="evenodd" clip-rule="evenodd" d="M24.419 24.454H53.7155C55.3268 24.454 56.6452 25.7723 56.6452 27.3837L56.6454 33.2432H62.5051V17.1298C62.5051 -2.6009 19.968 -3.12961 19.968 12.3759C17.477 13.0503 15.6305 15.3364 15.6305 18.0331L15.6301 33.2434H21.4895V27.3839C21.4895 25.7723 22.8079 24.454 24.419 24.454Z" fill="#9C9A9F"/>
<path fill-rule="evenodd" clip-rule="evenodd" d="M53.7156 24.4541H24.4189C22.8076 24.4541 21.4893 25.7725 21.4893 27.3838V33.2434H36.1377V39.1027C36.1377 40.7141 34.8193 42.0324 33.208 42.0324H24.4191C22.8162 42.0324 21.5033 40.7277 21.4895 39.1283V44.9621C21.4895 54.6721 29.4426 62.54 39.0674 62.54C48.6926 62.54 56.6453 54.6728 56.6453 44.9621V39.1283C56.6315 40.7279 55.3186 42.0324 53.7158 42.0324H44.927C43.3156 42.0324 41.9973 40.7139 41.9973 39.1027V33.2434H56.6455V27.3838C56.6451 25.7725 55.3268 24.4541 53.7156 24.4541Z" fill="#FFDAAA"/>
<path fill-rule="evenodd" clip-rule="evenodd" d="M25.8838 24.4541H24.4189C22.8076 24.4541 21.4893 25.7725 21.4893 27.3838V33.2434H25.8838V24.4541ZM25.8838 42.0326H24.4189C22.816 42.0326 21.5031 40.7279 21.4893 39.1285V44.9623C21.4893 54.6723 29.4424 62.5402 39.0672 62.5402C39.8105 62.5402 40.5439 62.493 41.2645 62.4019C32.6559 61.3137 25.8838 53.9225 25.8838 44.9625V42.0326Z" fill="#FFB680"/>
<path fill-rule="evenodd" clip-rule="evenodd" d="M24.3625 5.04541C21.6579 6.83564 19.968 9.28682 19.968 12.3759C17.477 13.0503 15.6305 15.3364 15.6305 18.0331L15.6301 33.2434H20.0247L20.025 18.0333C20.025 16.3782 23.0243 16.1013 24.3625 15.7388V5.04541Z" fill="#79787D"/>
<path fill-rule="evenodd" clip-rule="evenodd" d="M30.2783 66.9347L39.0674 76.0181L47.8564 66.9347V60.1694C45.267 61.6759 42.2633 62.5401 39.0674 62.5401C35.8717 62.5401 32.868 61.6757 30.2783 60.1694V66.9347Z" fill="#FFDAAA"/>
<path fill-rule="evenodd" clip-rule="evenodd" d="M30.2783 66.9347L34.6729 71.4763V61.9802C33.115 61.5755 31.6395 60.961 30.2783 60.1694V66.9347Z" fill="#FFB680"/>
<path fill-rule="evenodd" clip-rule="evenodd" d="M39.0674 76.018L30.2783 66.9346V98.5354H47.8564L47.8563 66.9346L39.0674 76.018Z" fill="#FF6A47"/>
<path fill-rule="evenodd" clip-rule="evenodd" d="M30.2784 98.5354V66.9346L21.7311 69.8643L17.3879 84.4692L21.2676 86.3153L23.545 98.5354H30.2784ZM47.8563 66.9346V98.5354H54.5899L56.8672 86.3153C55.4094 83.3768 54.5899 80.0654 54.5899 76.5627C54.5899 74.0904 54.9983 71.7135 55.7514 69.4959L47.8563 66.9346Z" fill="#9CE4F8"/>
<path fill-rule="evenodd" clip-rule="evenodd" d="M23.545 98.5354L21.2676 86.3153L17.3879 84.4692L21.7311 69.8643L13.1838 72.7939C7.08716 74.8836 1.46509 78.0678 1.46509 84.5127V98.5354H23.545ZM56.8672 86.3151L54.5899 98.5354H76.5625C67.9299 98.5354 60.4602 93.5572 56.8672 86.3151Z" fill="white"/>
<path fill-rule="evenodd" clip-rule="evenodd" d="M34.6729 71.4762L30.2783 66.9346V98.5354H34.6729V71.4762Z" fill="#FD3501"/>
<path fill-rule="evenodd" clip-rule="evenodd" d="M6.96133 75.6167C3.73848 77.6349 1.46484 80.4144 1.46484 84.5124V98.5353H5.85937V80.1181C5.85937 78.3993 6.25937 76.9126 6.96133 75.6167Z" fill="#9CE4F8"/>
<path fill-rule="evenodd" clip-rule="evenodd" d="M54.5898 76.5627C54.5898 89.5961 65.8412 99.7088 78.7598 98.4264C67.6562 97.3238 58.9844 87.9565 58.9844 76.5627C58.9844 65.232 67.599 55.8041 78.7582 54.699C65.8385 53.4174 54.5898 63.5301 54.5898 76.5627Z" fill="#5B92F2"/>
<path fill-rule="evenodd" clip-rule="evenodd" d="M74.4907 74.4907L71.3832 71.3833L66.2043 76.5622C62.6971 80.0694 63.6567 85.9823 67.9977 88.2343C66.5663 85.4749 67.0039 81.9773 69.3118 79.6696L74.4907 74.4907Z" fill="#FD3501"/>
<path fill-rule="evenodd" clip-rule="evenodd" d="M71.3832 71.3836L74.4906 74.491L79.6695 69.3121C81.9773 67.0043 85.4748 66.5664 88.2344 67.998C85.9822 63.657 80.0695 62.6972 76.5621 66.2047L71.3832 71.3836Z" fill="#9CE4F8"/>
<path d="M55.6121 14.3398H52.6824V11.4102H55.6121V14.3398ZM49.7529 11.4102H46.8232V8.48047H49.7529V11.4102Z" fill="white"/>
<path d="M75.5265 65.1687L65.1685 75.5265C61.7418 78.9534 61.7416 84.5294 65.1685 87.9566C66.8228 89.6109 69.0301 90.522 71.3834 90.5218C73.7369 90.5218 75.9439 89.6107 77.5982 87.9564L87.9562 77.5986C89.6105 75.9441 90.5217 73.737 90.5217 71.3837C90.5217 69.0302 89.6105 66.8232 87.9562 65.1689C84.5293 61.7419 78.9533 61.7419 75.5265 65.1687ZM75.5265 85.8847C74.4256 86.9857 72.9543 87.5919 71.3834 87.5919C69.8125 87.5919 68.3412 86.9857 67.2402 85.8847C64.9556 83.6001 64.9556 79.8827 67.2402 77.5982L71.3834 73.455L79.6699 81.7413L75.5265 85.8847ZM85.8846 75.5267L81.7414 79.6698L73.4549 71.3835L77.598 67.2404C78.699 66.1392 80.1705 65.5331 81.7412 65.5331C83.3119 65.5331 84.7834 66.1394 85.8844 67.2404C86.9853 68.3413 87.5916 69.8126 87.5916 71.3835C87.5916 72.9544 86.9855 74.4257 85.8846 75.5267Z" fill="black"/>
<path d="M90.0092 92.1665L92.0717 90.0864L94.1517 92.1489L92.0892 94.229L90.0092 92.1665Z" fill="black"/>
<path d="M76.5625 53.125C66.7844 53.125 58.3871 59.1447 54.8781 67.6722L49.3213 65.8695V61.0021C54.2162 57.8619 57.5869 52.5439 58.0543 46.4269H59.575C63.6137 46.4269 66.8992 43.1414 66.8992 39.1027V36.173C66.8992 34.2636 65.6748 32.6355 63.9699 32.0306V17.1297C63.9699 12.5629 61.8822 8.55858 57.9324 5.55018C54.4883 2.92674 49.7912 1.13963 44.3486 0.381624C39.2723 -0.325212 34.0434 -0.0439619 29.6248 1.17381L30.4031 3.99823C39.0508 1.61561 50.1228 3.28455 56.157 7.88084C59.3971 10.349 61.04 13.4605 61.04 17.1297V31.7785H58.11V27.3838C58.11 24.9605 56.1387 22.989 53.7154 22.989H24.4189C21.9959 22.989 20.0244 24.9605 20.0244 27.3838V31.7785H17.0947L17.0951 18.033C17.0951 16.0535 18.4338 14.3088 20.3506 13.7896L21.4326 13.4967V12.3758C21.4326 8.40526 24.8525 6.12987 27.7213 4.9201L26.583 2.22049C21.799 4.23787 18.9883 7.44315 18.5604 11.3226C15.9268 12.4758 14.1654 15.0996 14.1654 18.033L14.165 32.0304C12.4602 32.6351 11.2354 34.2635 11.2354 36.173V39.1027C11.2354 43.1414 14.5209 46.4269 18.5596 46.4269H20.0803C20.5479 52.5441 23.9184 57.8621 28.8133 61.0021V65.8879L12.7084 71.408C7.25293 73.2779 0 76.6707 0 84.5123V100H76.5625C81.1813 100 85.6508 98.6564 89.4879 96.1148L87.8699 93.6722C84.5141 95.8953 80.6041 97.0703 76.5625 97.0703C65.2545 97.0703 56.0547 87.8705 56.0547 76.5625C56.0547 65.2545 65.2545 56.0547 76.5625 56.0547C87.8705 56.0547 97.0703 65.2545 97.0703 76.5625C97.0703 80.6035 95.8953 84.5135 93.6725 87.8699L96.115 89.4877C98.6566 85.65 100 81.1806 100 76.5625C100 63.639 89.4859 53.125 76.5625 53.125ZM55.3418 86.5051L53.3729 97.0703H49.3213V68.9496L53.9361 70.4467C53.4084 72.3972 53.125 74.4472 53.125 76.5625C53.125 80.1152 53.9211 83.4849 55.3418 86.5051ZM22.5707 85.3129L19.1492 83.6847L22.9199 71.0051L28.8135 68.9849V97.0703H24.7619L22.5707 85.3129ZM31.7432 70.5549L39.0674 78.1244L46.3916 70.5549V97.0703H31.7432V70.5549ZM55.1803 39.1047C55.1793 39.9115 54.5227 40.5676 53.7154 40.5676H44.9264C44.1186 40.5676 43.4615 39.9105 43.4615 39.1027V34.7082H55.1801V39.1047H55.1803ZM62.5045 34.7082C63.3123 34.7082 63.9693 35.3652 63.9693 36.173V39.1027C63.9693 41.5258 61.9981 43.4972 59.5748 43.4972H58.11V39.1064C58.11 39.1051 58.11 39.1039 58.11 39.1027V34.7082H62.5045ZM24.4189 25.9187H53.7154C54.5232 25.9187 55.1803 26.576 55.1803 27.3838V31.7785H22.9543V27.3838C22.9543 26.576 23.6113 25.9187 24.4189 25.9187ZM22.9543 34.7082H34.673V39.1027C34.673 39.9105 34.016 40.5676 33.2082 40.5676H24.4191C23.6113 40.5676 22.9543 39.9105 22.9543 39.1027V34.7082ZM14.1652 39.1027V36.173C14.1652 35.3652 14.8223 34.7082 15.6301 34.7082H20.0246V43.4972H18.5598C16.1365 43.4972 14.1652 41.5258 14.1652 39.1027ZM22.9543 44.9621V43.2453C23.4127 43.408 23.9057 43.4972 24.4191 43.4972H33.2082C35.6314 43.4972 37.6027 41.5258 37.6027 39.1027V34.7082H40.5322V39.1027C40.5322 41.5258 42.5035 43.4972 44.9268 43.4972H53.7158C54.2293 43.4972 54.7221 43.4078 55.1807 43.2453V44.9621C55.1807 53.8469 47.9523 61.0752 39.0676 61.0752C30.1826 61.0752 22.9543 53.8469 22.9543 44.9621ZM39.0672 64.0049C41.6613 64.0049 44.1355 63.4826 46.3914 62.5392V66.3418L39.0672 73.9111L31.743 66.3418V62.5392C33.999 63.4826 36.4732 64.0049 39.0672 64.0049ZM2.92969 84.5123C2.92969 79.9094 6.23848 76.7224 13.6586 74.1795L19.5166 72.1717L15.6266 85.2531L19.9643 87.3172L21.7818 97.0703H2.92969V84.5123ZM65.2271 97.0703H56.3529L57.6088 90.332C59.6217 93.0951 62.2229 95.4031 65.2271 97.0703Z" fill="black"/>
<path d="M28.28 39H28.7192C29.9767 39 31 38.5395 31 37.9736V37.0264C31 36.4605 29.9767 36 28.72 36H28.2808C27.0233 36 26 36.4605 26 37.0264V37.9736C26 38.5395 27.0233 39 28.28 39ZM27.6667 37.0264C27.6667 36.8741 27.9417 36.75 28.28 36.75H28.7192C29.0583 36.75 29.3333 36.8741 29.3333 37.0264V37.9736C29.3333 38.1259 29.0583 38.25 28.72 38.25H28.2808C27.9417 38.25 27.6667 38.1259 27.6667 37.9736V37.0264Z" fill="black"/>
<path d="M49.72 36H49.2808C48.0233 36 47 36.4605 47 37.0264V37.9736C47 38.5395 48.0233 39 49.28 39H49.7192C50.9767 39 52 38.5395 52 37.9736V37.0264C52 36.4605 50.9767 36 49.72 36ZM50.3333 37.9736C50.3333 38.1259 50.0583 38.25 49.72 38.25H49.2808C48.9417 38.25 48.6667 38.1259 48.6667 37.9736V37.0264C48.6667 36.8741 48.9417 36.75 49.28 36.75H49.7192C50.0583 36.75 50.3333 36.8741 50.3333 37.0264V37.9736Z" fill="black"/>
</svg>
