<svg width="120" height="120" viewBox="0 0 120 120" fill="none" xmlns="http://www.w3.org/2000/svg">
<path d="M4 89H118V97C118 98.1046 117.105 99 116 99H4C2.89543 99 2 98.1046 2 97V91C2 89.8954 2.89543 89 4 89Z" fill="#7F8E94"/>
<path d="M112 89V97C112 98.1046 111.105 99 110 99H116C117.105 99 118 98.1046 118 97V89H112Z" fill="#545C60"/>
<path d="M18 115C22.4183 115 26 111.418 26 107C26 102.582 22.4183 99 18 99C13.5817 99 10 102.582 10 107C10 111.418 13.5817 115 18 115Z" fill="#607D8B"/>
<path d="M18 99C16.9706 99.0043 15.9519 99.2081 15 99.6C18.022 100.817 20.0015 103.748 20.0015 107.006C20.0015 110.264 18.022 113.195 15 114.412C17.9928 115.628 21.423 114.924 23.6956 112.628C25.9682 110.333 26.6373 106.896 25.3917 103.915C24.1461 100.935 21.2302 98.9958 18 99Z" fill="#37474F"/>
<path d="M42 115C46.4183 115 50 111.418 50 107C50 102.582 46.4183 99 42 99C37.5817 99 34 102.582 34 107C34 111.418 37.5817 115 42 115Z" fill="#607D8B"/>
<path d="M42 99C40.9706 99.0043 39.9519 99.2081 39 99.6C42.022 100.817 44.0015 103.748 44.0015 107.006C44.0015 110.264 42.022 113.195 39 114.412C41.9928 115.628 45.423 114.924 47.6956 112.628C49.9682 110.333 50.6373 106.896 49.3917 103.915C48.1461 100.935 45.2302 98.9958 42 99Z" fill="#37474F"/>
<path d="M78 115C82.4183 115 86 111.418 86 107C86 102.582 82.4183 99 78 99C73.5817 99 70 102.582 70 107C70 111.418 73.5817 115 78 115Z" fill="#607D8B"/>
<path d="M78 99C76.9706 99.0043 75.9519 99.2081 75 99.6C78.022 100.817 80.0015 103.748 80.0015 107.006C80.0015 110.264 78.022 113.195 75 114.412C77.9928 115.628 81.423 114.924 83.6956 112.628C85.9682 110.333 86.6373 106.896 85.3917 103.915C84.1461 100.935 81.2302 98.9958 78 99Z" fill="#37474F"/>
<path d="M102 115C106.418 115 110 111.418 110 107C110 102.582 106.418 99 102 99C97.5817 99 94 102.582 94 107C94 111.418 97.5817 115 102 115Z" fill="#607D8B"/>
<path d="M102 99C100.971 99.0043 99.9519 99.2081 99 99.6C102.022 100.817 104.001 103.748 104.001 107.006C104.001 110.264 102.022 113.195 99 114.412C101.993 115.628 105.423 114.924 107.696 112.628C109.968 110.333 110.637 106.896 109.392 103.915C108.146 100.935 105.23 98.9958 102 99Z" fill="#37474F"/>
<path d="M16 89L2.72 70.04C2.25589 69.3623 2.00514 68.5613 2 67.74V43C2.00659 40.7936 3.7936 39.0066 6 39H108C110.206 39.0066 111.993 40.7936 112 43V89H16Z" fill="#FFC93C"/>
<path d="M34 83.1401H20.164C19.5121 83.1407 18.9008 82.8235 18.526 82.2901L8.362 67.7801C7.72743 66.8755 7.94636 65.6277 8.851 64.9931C9.75565 64.3585 11.0034 64.5775 11.638 65.4821L21.2 79.1401H34C35.1046 79.1401 36 80.0356 36 81.1401C36 82.2447 35.1046 83.1401 34 83.1401Z" fill="#F5F5F5"/>
<path fill-rule="evenodd" clip-rule="evenodd" d="M4.58102 35C4.55684 35.0697 4.53317 35.1397 4.51 35.21C1.86393 35.8883 0.0100425 38.2684 0 41V65.74C0.00515526 66.9715 0.382304 68.1726 1.082 69.186L12.158 85H4C1.79086 85 0 86.7909 0 89V95C0 97.2091 1.79086 99 4 99H10.052C7.31673 102.532 7.31673 107.468 10.052 111H2C0.89543 111 0 111.895 0 113C0 114.105 0.89543 115 2 115H118C119.105 115 120 114.105 120 113C120 111.895 119.105 111 118 111H109.948C112.683 107.468 112.683 102.532 109.948 99H116C118.209 99 120 97.2091 120 95V87C120 85.8954 119.105 85 118 85H114V41C113.993 38.2606 112.131 35.8739 109.476 35.2C109.458 35.1332 109.439 35.0665 109.42 35H105.2H8.912H4.58102ZM102 75H110V69H102V75ZM102 65H110V59H102V65ZM102 55H110V49H102V55ZM110 79H102V85H110V79ZM102 45H110V41C110 39.8954 109.105 39 108 39H102V45ZM4 65.74C4.00476 66.1614 4.13573 66.5717 4.376 66.918L17.042 85H98V39H82V45.14C82 46.2446 81.1046 47.14 80 47.14C78.8954 47.14 78 46.2446 78 45.14V39H62V45.14C62 46.2446 61.1046 47.14 60 47.14C58.8954 47.14 58 46.2446 58 45.14V39H42V45.14C42 46.2446 41.1046 47.14 40 47.14C38.8954 47.14 38 46.2446 38 45.14V39H22V45.14C22 46.2446 21.1046 47.14 20 47.14C18.8954 47.14 18 46.2446 18 45.14V39H6C4.89543 39 4 39.8954 4 41V65.74ZM16.9716 99.0892C14.095 99.5838 11.9945 102.081 12 105C11.9945 107.919 14.095 110.416 16.9716 110.911C19.8483 111.405 22.6623 109.753 23.632 107H18C16.8954 107 16 106.105 16 105C16 103.895 16.8954 103 18 103H23.632C22.6623 100.247 19.8483 98.5946 16.9716 99.0892ZM94.05 111C93.1409 109.822 92.5085 108.455 92.2 107H87.798C87.4894 108.455 86.8571 109.822 85.948 111H94.05ZM85.95 99C86.8591 100.178 87.4914 101.545 87.8 103H92.204C92.5125 101.545 93.1449 100.178 94.054 99H85.95ZM78 103H83.632C82.6579 100.245 79.8407 98.5923 76.9605 99.0864C74.0804 99.5806 71.9751 102.078 71.9751 105C71.9751 107.922 74.0804 110.419 76.9605 110.914C79.8407 111.408 82.6579 109.755 83.632 107H78C76.8954 107 76 106.105 76 105C76 103.895 76.8954 103 78 103ZM49.948 111H70.052C67.3167 107.468 67.3167 102.532 70.052 99H49.948C52.6833 102.532 52.6833 107.468 49.948 111ZM43.0284 110.911C45.905 110.416 48.0055 107.919 48 105C48.0055 102.081 45.905 99.5838 43.0284 99.0892C40.1517 98.5946 37.3377 100.247 36.368 103H42C43.1046 103 44 103.895 44 105C44 106.105 43.1046 107 42 107H36.368C37.3377 109.753 40.1517 111.405 43.0284 110.911ZM34.05 111C33.1409 109.822 32.5085 108.455 32.2 107H27.798C27.4894 108.455 26.8571 109.822 25.948 111H34.05ZM27.8 103H32.2C32.5097 101.544 33.1434 100.177 34.054 99H25.95C26.8591 100.178 27.4914 101.545 27.8 103ZM103.028 110.911C105.905 110.416 108.006 107.919 108 105C108.006 102.081 105.905 99.5838 103.028 99.0892C100.152 98.5946 97.3377 100.247 96.368 103H102C103.105 103 104 103.895 104 105C104 106.105 103.105 107 102 107H96.368C97.3377 109.753 100.152 111.405 103.028 110.911ZM4 89V95H116V89H4Z" fill="black"/>
<path d="M32.5005 58.875C33.02 58.875 33.355 58.9023 33.5054 58.957C33.8267 59.0732 33.9873 59.3398 33.9873 59.7568C33.9873 60.0645 33.8984 60.3926 33.7207 60.7412C33.4951 61.165 33.2422 61.377 32.9619 61.377C32.6406 61.377 32.1929 61.3496 31.6187 61.2949C30.9351 61.2197 30.4805 61.1821 30.2549 61.1821C30.2275 61.394 30.2139 61.6812 30.2139 62.0435C30.2139 62.522 30.3027 63.8447 30.4805 66.0117C30.5078 66.4492 30.5864 67.1021 30.7163 67.9702C30.812 68.5171 31.0205 69.3135 31.3418 70.3594C30.7266 69.3818 30.2788 67.9463 29.9985 66.0527C29.9849 66.2236 29.978 66.3945 29.978 66.5654C29.978 68.2539 30.3848 69.7305 31.1982 70.9951C31.2393 71.0771 31.2598 71.1455 31.2598 71.2002C31.2598 71.4805 31.0068 71.7061 30.501 71.877C30.1113 72 29.7422 72.0615 29.3936 72.0615C28.5254 72.0615 27.8862 71.7881 27.4761 71.2412C27.2573 70.9473 27.1479 70.2637 27.1479 69.1904C27.1479 68.1787 27.2812 66.3364 27.5479 63.6636C27.6846 62.3306 27.7529 61.4761 27.7529 61.1001C26.5088 61.1001 25.7397 61.1479 25.4458 61.2437C25.3911 61.2573 25.3501 61.2642 25.3228 61.2642C25.0562 61.2642 24.7964 61.0215 24.5435 60.5361C24.3179 60.0986 24.2051 59.7329 24.2051 59.439C24.2051 59.2476 24.2666 59.1519 24.3896 59.1519C24.4238 59.1519 24.4751 59.1655 24.5435 59.1929C24.6938 59.2476 24.9741 59.2749 25.3843 59.2749C26.1772 59.2749 27.3599 59.21 28.9321 59.0801C30.5112 58.9434 31.7007 58.875 32.5005 58.875ZM26.666 59.7158C27.165 59.7158 28.1562 59.5757 29.6396 59.2954C27.8486 59.4458 26.7788 59.521 26.4302 59.521C25.9106 59.521 25.4082 59.4731 24.9229 59.3774C25.5107 59.603 26.0918 59.7158 26.666 59.7158ZM37.4224 59.3159C37.4634 59.3159 37.501 59.3364 37.5352 59.3774C37.7539 59.7671 38.2256 60.249 38.9502 60.8232C39.6816 61.3975 40.2524 61.7495 40.6626 61.8794C40.7036 61.8931 40.731 61.9067 40.7446 61.9204C40.731 62.0571 40.543 62.1255 40.1807 62.1255C40.1055 62.1255 40.02 62.1187 39.9243 62.105C39.0151 61.9683 38.4888 61.8862 38.3452 61.8589C37.6616 61.7017 37.1934 61.5137 36.9404 61.2949C36.7627 61.1377 36.6738 60.9258 36.6738 60.6592C36.6738 60.4609 36.749 60.2012 36.8994 59.8799C37.0703 59.5039 37.2446 59.3159 37.4224 59.3159ZM43.2671 64.8735V65.2427C43.2671 65.5503 43.2603 66.0117 43.2466 66.627V68.0112C43.2466 70.2192 43.4072 71.3232 43.7285 71.3232C43.9541 71.3232 44.0669 71.3608 44.0669 71.436C44.0669 71.6001 43.8687 71.7812 43.4722 71.9795C43.1782 72.1299 42.915 72.2358 42.6826 72.2974C42.457 72.3657 42.2314 72.3999 42.0059 72.3999C41.7529 72.3999 41.5786 72.3589 41.4829 72.2769C41.0454 71.9214 40.707 70.8755 40.4678 69.1392C39.9209 71.3677 39.1724 72.4819 38.2222 72.4819C37.4702 72.4819 36.8413 72.082 36.3354 71.2822C35.9458 70.667 35.6792 69.9185 35.5356 69.0366C35.5356 69.064 35.5288 69.2246 35.5151 69.5186C35.4878 70.168 35.6245 70.749 35.9253 71.2617C36.2261 71.7676 36.6089 72.082 37.0737 72.2051C36.356 72.2393 35.8364 71.9556 35.5151 71.354C35.2485 70.8755 35.1152 69.9287 35.1152 68.5137C35.1152 68.1924 35.1357 67.7104 35.1768 67.0679C35.2178 66.4253 35.2383 65.9468 35.2383 65.6323C35.2383 64.853 35.0981 64.2891 34.8179 63.9404C34.7632 63.8652 34.7358 63.8003 34.7358 63.7456C34.7358 63.4517 35.0571 63.1851 35.6997 62.9458C36.2329 62.7407 36.6738 62.6382 37.0225 62.6382C37.877 62.6382 38.3042 63.2671 38.3042 64.5249C38.3042 64.9282 38.2598 65.5366 38.1709 66.3501C38.082 67.1636 38.0376 67.772 38.0376 68.1753C38.0376 69.3921 38.3384 70.0005 38.9399 70.0005C39.2886 70.0005 39.5552 69.4912 39.7397 68.4727C39.8354 67.8984 39.9243 66.938 40.0063 65.5913C40.061 64.5454 40.1328 64.002 40.2217 63.9609C40.2354 63.5098 40.29 63.2021 40.3857 63.0381C40.5293 62.7988 40.8096 62.6792 41.2266 62.6792C41.5479 62.6792 42.1426 62.8125 43.0107 63.0791C43.1133 63.1133 43.1851 63.3799 43.2261 63.8789C43.2466 63.5371 43.2568 63.2773 43.2568 63.0996C43.2568 62.6348 43.2056 62.3613 43.103 62.2793C42.9048 62.1152 42.7065 61.958 42.5083 61.8076C42.2554 61.6162 42.1289 61.4077 42.1289 61.1821C42.1289 60.9292 42.2725 60.6899 42.5596 60.4644C42.8467 60.2388 43.1235 60.126 43.3901 60.126C43.7319 60.126 44.0601 60.2969 44.3745 60.6387C44.689 60.9736 44.8462 61.312 44.8462 61.6538C44.8462 61.7905 44.8086 61.917 44.7334 62.0332C44.5557 62.334 44.3916 62.6724 44.2412 63.0483C44.166 63.2397 44.002 63.5781 43.749 64.0635C43.5166 64.501 43.356 64.771 43.2671 64.8735ZM58.3198 64.8633C58.3882 64.8633 58.4873 64.5967 58.6172 64.0635C58.6445 63.9473 58.6719 63.8345 58.6992 63.7251C58.7129 63.7251 58.7197 63.8174 58.7197 64.002C58.7197 64.6719 58.5078 65.5947 58.084 66.7705C56.9082 70.0859 56.0981 71.9077 55.6538 72.2358C55.4556 72.3726 55.2812 72.4409 55.1309 72.4409C54.9463 72.4409 54.7993 72.3486 54.6899 72.1641C54.5464 72.2393 54.4199 72.2769 54.3105 72.2769C54.2285 72.2769 54.1567 72.2632 54.0952 72.2358C53.8149 72.0786 53.4321 71.1729 52.9468 69.5186C53.0015 70.4756 53.1826 71.2549 53.4902 71.8564C53.1279 71.6172 52.5811 70.3286 51.8496 67.9907C51.1523 65.7349 50.6055 64.5454 50.209 64.4224C50.0723 64.3813 50.0039 64.3164 50.0039 64.2275C50.0039 63.9336 50.3184 63.6055 50.9473 63.2432C51.5215 62.9082 51.9761 62.7407 52.311 62.7407C52.4272 62.7407 52.5195 62.7544 52.5879 62.7817C53.1211 62.98 53.6543 64.0361 54.1875 65.9502C54.4951 67.2285 54.7959 68.5034 55.0898 69.7749C55.6299 67.7036 55.8999 66.1143 55.8999 65.0068C55.8999 64.084 55.6846 63.5234 55.2539 63.3252C55.1855 63.2842 55.1514 63.2432 55.1514 63.2021C55.1514 63.0586 55.3735 62.939 55.8179 62.8433C56.1665 62.7749 56.4536 62.7407 56.6792 62.7407C57.1714 62.7407 57.6123 62.8535 58.002 63.0791C58.1318 63.1338 58.2788 63.2363 58.4429 63.3867C58.4702 63.4619 58.4839 63.5542 58.4839 63.6636C58.4839 63.8003 58.4531 63.9985 58.3916 64.2583C58.3301 64.5181 58.2993 64.7129 58.2993 64.8428C58.2993 64.8564 58.3062 64.8633 58.3198 64.8633ZM64.9541 73.0356C65.207 73.0356 65.4634 73.1587 65.7231 73.4048C65.9829 73.6509 66.1128 73.9038 66.1128 74.1636C66.1128 74.4165 65.9727 74.5874 65.6924 74.6763C65.4121 74.772 65.2651 74.8335 65.2515 74.8608C65.1968 75.0864 65.0908 75.4146 64.9336 75.8452C64.9199 75.8726 64.9062 75.8931 64.8926 75.9067C64.8789 75.8931 64.8721 75.8657 64.8721 75.8247C64.8721 75.7427 64.8789 75.6196 64.8926 75.4556C64.9062 75.2983 64.9131 75.1787 64.9131 75.0967C64.9131 74.8711 64.8721 74.7173 64.79 74.6353C64.6191 74.519 64.4448 74.4062 64.2671 74.2969C64.0415 74.126 63.9287 73.9585 63.9287 73.7944C63.9287 73.6099 64.0449 73.4355 64.2773 73.2715C64.5166 73.1143 64.7422 73.0356 64.9541 73.0356ZM68.1636 64.8735V65.2427C68.1636 65.5503 68.1567 66.0117 68.1431 66.627V68.0112C68.1431 70.2192 68.3037 71.3232 68.625 71.3232C68.8506 71.3232 68.9634 71.3608 68.9634 71.436C68.9634 71.6001 68.7651 71.7812 68.3687 71.9795C68.0747 72.1299 67.8115 72.2358 67.5791 72.2974C67.3535 72.3657 67.1279 72.3999 66.9023 72.3999C66.6494 72.3999 66.4751 72.3589 66.3794 72.2769C65.9419 71.9214 65.6035 70.8755 65.3643 69.1392C64.8174 71.3677 64.0688 72.4819 63.1187 72.4819C62.3667 72.4819 61.7378 72.082 61.2319 71.2822C60.8423 70.667 60.5757 69.9185 60.4321 69.0366C60.4321 69.064 60.4253 69.2246 60.4116 69.5186C60.3843 70.168 60.521 70.749 60.8218 71.2617C61.1226 71.7676 61.5054 72.082 61.9702 72.2051C61.2524 72.2393 60.7329 71.9556 60.4116 71.354C60.145 70.8755 60.0117 69.9287 60.0117 68.5137C60.0117 68.1924 60.0322 67.7104 60.0732 67.0679C60.1143 66.4253 60.1348 65.9468 60.1348 65.6323C60.1348 64.853 59.9946 64.2891 59.7144 63.9404C59.6597 63.8652 59.6323 63.8003 59.6323 63.7456C59.6323 63.4517 59.9536 63.1851 60.5962 62.9458C61.1294 62.7407 61.5703 62.6382 61.9189 62.6382C62.7734 62.6382 63.2007 63.2671 63.2007 64.5249C63.2007 64.9282 63.1562 65.5366 63.0674 66.3501C62.9785 67.1636 62.9341 67.772 62.9341 68.1753C62.9341 69.3921 63.2349 70.0005 63.8364 70.0005C64.1851 70.0005 64.4517 69.4912 64.6362 68.4727C64.7319 67.8984 64.8208 66.938 64.9028 65.5913C64.9575 64.5454 65.0293 64.002 65.1182 63.9609C65.1318 63.5098 65.1865 63.2021 65.2822 63.0381C65.4258 62.7988 65.7061 62.6792 66.123 62.6792C66.4443 62.6792 67.0391 62.8125 67.9072 63.0791C68.0098 63.1133 68.0815 63.3799 68.1226 63.8789C68.1431 63.5371 68.1533 63.2773 68.1533 63.0996C68.1533 62.6348 68.1021 62.3613 67.9995 62.2793C67.8013 62.1152 67.603 61.958 67.4048 61.8076C67.1519 61.6162 67.0254 61.4077 67.0254 61.1821C67.0254 60.9292 67.1689 60.6899 67.4561 60.4644C67.7432 60.2388 68.02 60.126 68.2866 60.126C68.6284 60.126 68.9565 60.2969 69.271 60.6387C69.5854 60.9736 69.7427 61.312 69.7427 61.6538C69.7427 61.7905 69.7051 61.917 69.6299 62.0332C69.4521 62.334 69.2881 62.6724 69.1377 63.0483C69.0625 63.2397 68.8984 63.5781 68.6455 64.0635C68.4131 64.501 68.2524 64.771 68.1636 64.8735ZM78.1201 69.6929C78.1201 70.3765 78.2603 70.8994 78.5405 71.2617C78.5815 71.3369 78.6021 71.395 78.6021 71.436C78.6021 71.6548 78.3594 71.8359 77.874 71.9795C77.5117 72.0889 77.1768 72.1436 76.8691 72.1436C76.2949 72.1436 75.895 71.9897 75.6694 71.6821C75.4712 71.4155 75.3721 70.9814 75.3721 70.3799C75.3721 69.8467 75.4712 69.0093 75.6694 67.8677C75.7925 67.1636 75.854 66.7124 75.854 66.5142C75.854 66.2065 75.7754 65.9365 75.6182 65.7041C75.4678 65.4648 75.2661 65.3384 75.0132 65.3247C74.5825 65.2974 74.186 65.4717 73.8237 65.8477C74.2407 65.2461 74.6748 64.9453 75.126 64.9453C75.3857 64.9453 75.6216 65.0854 75.8335 65.3657C76.0044 65.5913 76.1172 65.8511 76.1719 66.145V66.1245C76.1719 65.7827 76.1001 65.4717 75.9565 65.1914C75.7788 64.8154 75.5361 64.6206 75.2285 64.6069C74.3193 64.5796 73.605 65.3726 73.0854 66.9858C72.6958 68.189 72.501 69.3784 72.501 70.5542C72.501 70.9165 72.5215 71.2993 72.5625 71.7026C72.7949 71.7778 72.9111 71.8496 72.9111 71.918C72.9111 72.0273 72.7163 72.082 72.3267 72.082C71.7114 72.082 71.25 71.9556 70.9424 71.7026C70.4912 71.3267 70.2109 69.9492 70.1016 67.5703C69.9648 64.8428 69.8179 63.2534 69.6606 62.8022C69.647 62.7749 69.6401 62.7544 69.6401 62.7407C69.6401 62.4741 70.0947 62.3408 71.0039 62.3408C72.4463 62.3408 73.1675 62.8159 73.1675 63.7661C73.1675 63.9233 73.0752 64.665 72.8906 65.9912C73.6631 64.0635 74.5449 62.9937 75.5361 62.7817C75.8301 62.7134 76.1172 62.6792 76.3975 62.6792C77.8125 62.6792 78.52 63.5474 78.52 65.2837C78.52 65.769 78.4517 66.5039 78.3149 67.4883C78.1851 68.4658 78.1201 69.2007 78.1201 69.6929ZM84.6929 65.5913C84.6929 64.6821 84.7715 64.125 84.9287 63.9199C85.2773 63.4824 86.0327 63.2637 87.1948 63.2637C88.2476 63.2637 88.7739 63.397 88.7739 63.6636C88.7739 63.6909 88.7637 63.7114 88.7432 63.7251C88.5791 64.1011 88.4492 65.3247 88.3535 67.396C88.292 68.729 88.2407 70.0552 88.1997 71.3745C88.145 72.605 88.1108 73.2544 88.0972 73.3228C88.0425 74.2046 87.9502 74.813 87.8203 75.1479C87.6289 75.6401 87.335 76.04 86.9385 76.3477C87.499 75.7598 87.7793 74.6729 87.7793 73.0869C87.7793 72.8271 87.7725 72.5708 87.7588 72.3179C87.6904 72.4409 87.5947 73.104 87.4717 74.3071C87.3555 75.3462 87.0684 76.0605 86.6104 76.4502C86.2822 76.7305 85.8311 76.8706 85.2568 76.8706C84.5732 76.8706 84.2314 76.7817 84.2314 76.604C84.2314 76.5562 84.3442 76.5117 84.5698 76.4707C85.0757 76.3613 85.3286 75.5137 85.3286 73.9277C85.3286 73.5928 85.2021 72.082 84.9492 69.3955C84.04 71.4531 82.9839 72.4819 81.7808 72.4819C80.9673 72.4819 80.335 72.041 79.8838 71.1592C79.5352 70.4619 79.3608 69.6655 79.3608 68.77C79.3608 68.2642 79.4155 67.7515 79.5249 67.2319C79.7505 66.2134 79.9897 65.4375 80.2427 64.9043C80.5913 64.1592 81.0938 63.5371 81.75 63.0381C81.9756 62.8672 82.4028 62.7817 83.0317 62.7817C84.0571 62.7817 84.8501 62.8877 85.4106 63.0996C85.479 63.1406 85.5132 63.168 85.5132 63.1816C85.5132 63.1953 85.4995 63.209 85.4722 63.2227C85.0073 63.3594 84.6519 63.561 84.4058 63.8276C84.4058 63.8413 84.1528 64.1797 83.647 64.8428C82.8335 65.916 82.4268 67.1123 82.4268 68.4316C82.4268 69.3818 82.6865 69.8569 83.2061 69.8569C83.7666 69.8569 84.2417 69.1562 84.6313 67.7549C84.7134 67.4609 84.7544 67.3003 84.7544 67.2729C84.7544 67.0952 84.7441 66.8184 84.7236 66.4424C84.7031 66.0596 84.6929 65.7759 84.6929 65.5913Z" fill="black"/>
</svg>
