<svg width="110" height="110" viewBox="0 0 110 110" fill="none" xmlns="http://www.w3.org/2000/svg">
<path d="M60.8778 6.96237C57.373 4.41595 52.627 4.41595 49.1222 6.96237L5.87786 38.381C2.37298 40.9275 0.906392 45.4412 2.24513 49.5614L18.7629 100.398C20.1017 104.519 23.9412 107.308 28.2735 107.308H81.7265C86.0588 107.308 89.8983 104.519 91.2371 100.398L107.755 49.5614C109.094 45.4412 107.627 40.9275 104.122 38.381L60.8778 6.96237Z" fill="#F83982"/>
<g clip-path="url(#clip0_57_261)">
<mask id="mask0_57_261" style="mask-type:alpha" maskUnits="userSpaceOnUse" x="1" y="5" width="108" height="103">
<path d="M60.8778 7.02048C57.373 4.47405 52.627 4.47405 49.1222 7.02048L5.87787 38.4391C2.37299 40.9856 0.906393 45.4993 2.24513 49.6195L18.7629 100.456C20.1017 104.577 23.9412 107.366 28.2735 107.366H81.7265C86.0588 107.366 89.8983 104.577 91.2371 100.456L107.755 49.6195C109.094 45.4993 107.627 40.9856 104.122 38.4391L60.8778 7.02048Z" fill="#FF77AB"/>
</mask>
<g mask="url(#mask0_57_261)">
<path d="M55 2.69189L48.8063 7.19201L101.268 45.3079L81.1228 107.308H88.9919L110 42.6518L55 2.69189Z" fill="#E41363"/>
</g>
<path d="M25.377 59.5957C25.3906 59.582 25.418 59.5752 25.459 59.5752C25.4863 59.5752 25.5 59.6162 25.5 59.6982C25.5 60.3066 25.0659 61.0586 24.1978 61.9541C23.8218 62.3437 23.2065 62.6514 22.3521 62.877C21.6206 63.0684 20.9268 63.1641 20.2705 63.1641C19.457 63.1641 18.7837 63.0171 18.2505 62.7231C18.0591 62.6138 17.8301 62.4053 17.5635 62.0977C16.6064 60.9629 16.1279 59.4282 16.1279 57.4937V57.3501C16.0732 57.562 16.0459 57.8765 16.0459 58.2935C16.0459 60.2144 16.3843 61.4209 17.061 61.9131C16.0356 61.5713 15.5229 60.1494 15.5229 57.6475C15.5229 56.4717 15.6768 55.1968 15.9844 53.8228C16.374 52.1274 16.8799 50.979 17.502 50.3774C17.707 50.1655 17.9907 50.0391 18.353 49.998C18.6812 49.9707 18.999 49.9502 19.3066 49.9365C19.416 49.9092 19.5049 49.8955 19.5732 49.8955C19.7031 49.8955 19.7886 49.916 19.8296 49.957C19.939 49.9297 20.0928 49.916 20.291 49.916C20.585 49.916 20.8892 49.9502 21.2036 50.0186C21.5181 50.0801 21.6479 50.1108 21.5933 50.1108C21.7437 50.1108 21.9282 50.0459 22.147 49.916C22.3657 49.7793 22.5879 49.7109 22.8135 49.7109C23.2031 49.7109 23.7124 49.8511 24.3413 50.1313C24.5532 50.2271 24.6592 50.562 24.6592 51.1362C24.6592 51.3345 24.6489 51.625 24.6284 52.0078C24.6079 52.3906 24.5977 52.6812 24.5977 52.8794C24.5977 53.2144 24.625 53.481 24.6797 53.6792C24.7891 53.9868 24.8437 54.2021 24.8437 54.3252C24.8437 54.2568 24.8027 54.4243 24.7207 54.8276C24.6113 55.3472 24.4438 55.6992 24.2183 55.8838C24.0747 55.9932 23.9961 56.1025 23.9824 56.2119C23.9551 56.4102 23.9277 56.5298 23.9004 56.5708C23.873 56.5708 23.832 56.4888 23.7773 56.3247C23.5928 55.6821 23.292 54.7217 22.875 53.4434C22.4785 52.4932 21.877 51.7993 21.0703 51.3618C20.3662 51.9224 19.8467 52.9956 19.5117 54.5815C19.2588 55.73 19.1323 56.9331 19.1323 58.1909C19.1323 60.2485 19.8467 61.2773 21.2754 61.2773C22.0752 61.2773 22.8032 61.0552 23.4595 60.6108C23.9243 60.2964 24.3584 59.8828 24.7617 59.3701C25.1104 58.9189 25.2915 58.6934 25.3052 58.6934C25.3667 58.6934 25.3975 58.7515 25.3975 58.8677C25.3975 58.936 25.3838 59.042 25.3564 59.1855C25.3359 59.3223 25.3257 59.4248 25.3257 59.4932C25.3257 59.5615 25.3428 59.5957 25.377 59.5957ZM35.6924 62.2822C35.0703 61.667 34.7251 60.7305 34.6567 59.4727V59.6572C34.6431 60.1221 34.7012 60.6211 34.8311 61.1543C34.9678 61.7969 35.1694 62.2446 35.436 62.4976C35.4634 62.5386 35.477 62.5728 35.477 62.6001C35.477 62.7847 35.2173 62.9385 34.6978 63.0615C34.3081 63.1572 33.98 63.2051 33.7134 63.2051C32.647 63.2051 32.1138 62.6035 32.1138 61.4004C32.1138 60.8877 32.2129 60.1221 32.4111 59.1035C32.6094 58.0781 32.7085 57.3057 32.7085 56.7861C32.7085 56.1436 32.4556 55.8223 31.9497 55.8223C31.2046 55.8223 30.6372 56.4922 30.2476 57.832C29.9536 58.7822 29.8066 59.7563 29.8066 60.7544C29.8066 62.0395 29.8989 62.894 30.0835 63.3179C29.9536 63.3315 29.8477 63.3384 29.7656 63.3384C28.8291 63.3384 28.1729 62.7437 27.7969 61.5542C27.4551 60.5425 27.2705 58.748 27.2432 56.1709V56.0479C27.2432 55.1523 27.2363 54.5576 27.2227 54.2637C27.1953 53.5937 27.1406 53.0059 27.0586 52.5C27.0039 52.1787 26.9116 51.9189 26.7817 51.7207C26.7681 51.6934 26.6758 51.584 26.5049 51.3926C26.3408 51.1943 26.2588 51.0679 26.2588 51.0132C26.2588 50.7056 26.7407 50.4663 27.7046 50.2954C28.3813 50.186 29.0342 50.1313 29.6631 50.1313C30.2236 50.1313 30.5039 50.3467 30.5039 50.7773C30.5039 50.9482 30.4458 51.6694 30.3296 52.9409C30.1929 54.5679 30.0903 55.8496 30.022 56.7861C30.7056 55.0498 31.502 54.0894 32.4111 53.9048C32.7187 53.8364 33.0059 53.8022 33.2725 53.8022C33.9287 53.8022 34.4414 54.0039 34.8105 54.4072C35.1865 54.8037 35.3745 55.3301 35.3745 55.9863C35.3745 56.1982 35.3096 56.7007 35.1797 57.4937C35.0703 58.1294 35.0156 58.7104 35.0156 59.2368C35.0156 60.4263 35.2412 61.4414 35.6924 62.2822ZM45.7412 62.3232C45.96 62.3232 46.0693 62.3608 46.0693 62.436C46.0693 62.6001 45.8745 62.7812 45.4849 62.9795C45.1909 63.1299 44.9277 63.2358 44.6953 63.2974C44.4629 63.3657 44.2373 63.3999 44.0186 63.3999C43.7656 63.3999 43.5879 63.3589 43.4853 63.2769C43.0547 62.9214 42.7197 61.8755 42.4805 60.1392C41.9336 62.3677 41.1851 63.4819 40.2349 63.4819C39.4761 63.4819 38.8472 63.082 38.3481 62.2822C37.9517 61.667 37.6851 60.9185 37.5483 60.0366C37.5483 60.064 37.5415 60.2246 37.5278 60.5186C37.5005 61.168 37.6372 61.749 37.938 62.2617C38.2388 62.7676 38.6182 63.082 39.0762 63.2051C38.3652 63.2393 37.8491 62.9556 37.5278 62.354C37.2612 61.8755 37.1279 60.9287 37.1279 59.5137C37.1279 59.1924 37.1484 58.7104 37.1895 58.0679C37.2305 57.4253 37.251 56.9468 37.251 56.6323C37.251 55.853 37.1108 55.2891 36.8306 54.9404C36.7759 54.8652 36.7485 54.8003 36.7485 54.7456C36.7485 54.4517 37.0698 54.1851 37.7124 53.9458C38.2456 53.7407 38.6865 53.6382 39.0352 53.6382C39.8896 53.6382 40.3169 54.2671 40.3169 55.5249C40.3169 55.9282 40.2725 56.5366 40.1836 57.3501C40.0947 58.1636 40.0503 58.772 40.0503 59.1753C40.0503 60.3921 40.3511 61.0005 40.9526 61.0005C41.3013 61.0005 41.5645 60.4912 41.7422 59.4727C41.8447 58.8984 41.937 57.938 42.019 56.5913C42.0737 55.5454 42.1455 55.002 42.2344 54.9609C42.248 54.5098 42.3027 54.2021 42.3984 54.0381C42.5352 53.7988 42.8154 53.6792 43.2393 53.6792C43.5605 53.6792 44.1553 53.8125 45.0234 54.0791C45.1875 54.1338 45.2695 54.855 45.2695 56.2427C45.2695 56.5503 45.2627 57.0117 45.249 57.627C45.249 58.2422 45.249 58.7036 45.249 59.0112C45.249 61.2192 45.4131 62.3232 45.7412 62.3232ZM41.0654 49.4854C41.3047 49.4375 41.5269 49.4136 41.7319 49.4136C42.5112 49.4136 43.0171 49.7485 43.2495 50.4185C43.2905 50.5415 43.311 50.6714 43.311 50.8081C43.311 51.1362 43.1982 51.4644 42.9727 51.7925C42.8975 51.895 42.771 52.0249 42.5933 52.1821C42.395 52.353 42.2583 52.4795 42.1831 52.5615C41.9644 52.8281 41.79 53.1392 41.6602 53.4946C41.6875 53.187 41.7935 52.8999 41.978 52.6333C42.0259 52.5581 42.2207 52.3154 42.5625 51.9053C42.5352 51.9189 42.5044 51.936 42.4702 51.9565C42.2173 52.1821 41.9917 52.4419 41.7935 52.7358C41.5542 53.0913 41.438 53.4023 41.4448 53.6689V53.7202C41.4175 53.7749 41.373 53.8022 41.3115 53.8022C41.127 53.8022 40.9526 53.6416 40.7886 53.3203C40.645 53.0469 40.5732 52.8042 40.5732 52.5923C40.5732 52.2778 40.7749 51.9155 41.1782 51.5054C41.5815 51.0952 41.7832 50.7842 41.7832 50.5723C41.7832 50.4902 41.7627 50.4082 41.7217 50.3262C41.5986 50.0322 41.3013 49.8784 40.8296 49.8647C40.6724 50.0562 40.5698 50.2339 40.522 50.3979C40.4878 50.5278 40.457 50.709 40.4297 50.9414C40.3955 51.208 40.3682 51.3892 40.3477 51.4849C40.3477 51.5054 40.3408 51.5259 40.3271 51.5464C40.3271 51.5464 40.3237 51.543 40.3169 51.5361C40.2964 51.4951 40.2485 51.4609 40.1733 51.4336C40.0981 51.3994 40.0298 51.3174 39.9683 51.1875C39.9067 51.0576 39.876 50.9482 39.876 50.8594C39.876 50.832 39.8794 50.7944 39.8862 50.7466C39.8931 50.6919 39.8965 50.6543 39.8965 50.6338C39.8965 50.5244 39.8657 50.3672 39.8042 50.1621C39.7427 49.957 39.7119 49.8032 39.7119 49.7007C39.7119 49.6323 39.729 49.5845 39.7632 49.5571C39.9614 49.3931 40.1426 49.311 40.3066 49.311C40.3408 49.311 40.3853 49.3213 40.4399 49.3418C40.4946 49.3623 40.5391 49.3726 40.5732 49.3726C40.6074 49.3726 40.6553 49.3623 40.7168 49.3418C40.7783 49.3145 40.8262 49.3008 40.8604 49.3008C40.9697 49.3008 41.0381 49.3623 41.0654 49.4854ZM61.8398 52.7358C62.2158 52.811 62.4824 52.8999 62.6396 53.0024C62.127 52.9546 61.6655 52.917 61.2554 52.8896C61.2349 53.6689 61.1973 54.6567 61.1426 55.853C61.0537 57.5825 61.0093 58.8813 61.0093 59.7495C61.0093 61.2466 61.1221 62.0635 61.3477 62.2002C61.4639 62.2686 61.522 62.3472 61.522 62.436C61.522 62.6548 61.3442 62.8428 60.9888 63C60.7085 63.123 60.4453 63.1846 60.1992 63.1846C59.8574 63.1846 59.5327 63.0889 59.2251 62.8975C58.7397 62.5898 58.4458 61.1816 58.3433 58.6729C57.2837 61.5986 56.1011 63.0615 54.7954 63.0615C54.0435 63.0615 53.4897 62.9556 53.1343 62.7437C52.7446 62.4976 52.4746 62.0293 52.3242 61.3389C52.2217 60.8809 52.1704 60.3921 52.1704 59.8726C52.1704 58.9224 52.3379 57.873 52.6728 56.7246C53.083 55.3779 53.582 54.4585 54.1699 53.9663C54.375 53.8022 54.6416 53.6997 54.9697 53.6587C55.25 53.6313 55.5303 53.6006 55.8105 53.5664C55.9336 53.5391 56.0293 53.5254 56.0977 53.5254C56.1797 53.5254 56.2446 53.5391 56.2925 53.5664C56.4702 53.5254 56.7983 53.5425 57.2769 53.6177C56.9966 53.7271 56.665 53.9937 56.2822 54.4175C55.9062 54.8345 55.7183 55.1763 55.7183 55.4429C55.7183 55.4702 55.7251 55.4976 55.7388 55.5249C56.4019 54.3765 57.1606 53.8022 58.0151 53.8022C58.1519 53.8022 58.2339 53.8159 58.2612 53.8433C58.2612 53.8569 58.2544 53.8638 58.2407 53.8638C58.0698 53.9321 57.8237 54.0586 57.5024 54.2432C56.8872 54.7217 56.354 55.46 55.9028 56.458C55.4585 57.4561 55.2363 58.3618 55.2363 59.1753C55.2363 59.4829 55.2944 59.7905 55.4106 60.0981C55.5474 60.5083 55.7422 60.7134 55.9951 60.7134C56.3164 60.7134 56.6377 60.334 56.959 59.5752C57.1572 59.1309 57.4102 58.3823 57.7178 57.3296C57.998 56.3931 58.186 55.8325 58.2817 55.6479C58.2817 55.2993 58.2886 54.7319 58.3022 53.9458V52.8691C57.5093 52.9375 57.0615 52.9785 56.959 52.9922H56.877C56.6172 52.9922 56.3335 52.8486 56.0259 52.5615C55.7183 52.2676 55.5645 52.0249 55.5645 51.8335C55.5645 51.731 55.6362 51.6694 55.7798 51.6489C55.8481 51.6489 56.2925 51.6318 57.1128 51.5977C57.5571 51.5771 57.9536 51.5635 58.3022 51.5566C58.2886 50.9687 58.2612 50.5962 58.2202 50.439C58.1929 50.3706 58.1792 50.3228 58.1792 50.2954C58.1792 49.9604 58.5142 49.793 59.1841 49.793C59.9429 49.793 60.4419 49.9468 60.6811 50.2544C60.7905 50.3774 60.8452 50.6064 60.8452 50.9414C60.8452 51.0303 60.8384 51.1567 60.8247 51.3208C60.8179 51.4028 60.8145 51.4746 60.8145 51.5361C60.8623 51.543 60.9136 51.5464 60.9683 51.5464C60.9751 51.478 60.9819 51.4028 60.9888 51.3208C61.0024 51.1021 61.0161 50.8867 61.0298 50.6748C61.0503 50.6064 61.0742 50.5723 61.1016 50.5723C61.1152 50.5723 61.1357 50.5996 61.1631 50.6543C61.2178 50.7842 61.252 51.085 61.2656 51.5566C62.0586 51.584 62.5576 51.6421 62.7627 51.731C63.1523 51.9019 63.3472 52.0864 63.3472 52.2847C63.3472 52.4009 63.2856 52.5137 63.1626 52.623C63.0395 52.7324 62.8926 52.7871 62.7217 52.7871C62.4961 52.7871 62.2021 52.77 61.8398 52.7358ZM65.7466 59.1958C65.7739 61.062 66.396 61.9951 67.6128 61.9951C68.146 61.9951 68.6348 61.8105 69.0791 61.4414C69.3184 61.2637 69.6841 60.8809 70.1763 60.293C70.1899 60.2656 70.2173 60.2383 70.2583 60.2109C70.313 60.2109 70.3403 60.3135 70.3403 60.5186C70.3403 60.8398 70.2275 61.1919 70.0019 61.5747C69.3047 62.7368 68.1562 63.3315 66.5566 63.3589L66.3311 63.3794C63.7266 63.4204 62.4243 61.7832 62.4243 58.4678C62.4243 57.75 62.5098 57.0493 62.6807 56.3657C62.8857 55.5112 63.1797 54.8721 63.5625 54.4482C63.7402 54.2705 63.9897 54.1406 64.311 54.0586C64.5913 53.9834 64.8716 53.9185 65.1519 53.8638C65.3091 53.8091 65.4219 53.7817 65.4902 53.7817C65.5449 53.7817 65.5859 53.7954 65.6133 53.8228C65.7568 53.7544 66.0166 53.7202 66.3926 53.7202C66.6455 53.7202 66.8916 53.7339 67.1309 53.7612C67.4795 53.604 67.7393 53.5254 67.9102 53.5254C68.5527 53.5254 69.1064 53.7817 69.5713 54.2944C70.043 54.8071 70.2788 55.3848 70.2788 56.0273C70.2788 57.6543 69.1851 58.7822 66.9976 59.4111C66.6763 59.5068 66.3823 59.5547 66.1157 59.5547C66.02 59.5547 65.9311 59.5479 65.8491 59.5342C66.854 59.4111 67.5684 58.9907 67.9922 58.2729L67.9717 58.2935C67.3086 58.8403 66.5669 59.1411 65.7466 59.1958ZM65.7466 58.8164C67.0864 58.4678 67.7563 57.5039 67.7563 55.9248C67.7563 55.3643 67.4351 54.978 66.7925 54.7661C66.1362 55.7915 65.7876 57.1416 65.7466 58.8164ZM64.6289 47.8242C64.6699 47.8242 64.7041 47.8447 64.7314 47.8857C64.957 48.2754 65.4321 48.7573 66.1567 49.3315C66.8882 49.9058 67.4556 50.2578 67.8589 50.3877C67.8999 50.4014 67.9272 50.415 67.9409 50.4287C67.9272 50.5654 67.7393 50.6338 67.377 50.6338C67.3086 50.6338 67.2231 50.627 67.1206 50.6133C66.2114 50.4766 65.6885 50.3945 65.5518 50.3672C64.8613 50.21 64.3931 50.022 64.147 49.8032C63.9624 49.646 63.8701 49.4341 63.8701 49.1675C63.8701 48.9692 63.9453 48.7095 64.0957 48.3882C64.2666 48.0122 64.4443 47.8242 64.6289 47.8242ZM67.418 51.7412C67.5752 51.8848 67.8281 52.0522 68.1768 52.2437C68.5869 52.4692 68.9014 52.582 69.1201 52.582C69.1475 52.582 69.1782 52.582 69.2124 52.582C69.2534 52.5957 69.2739 52.623 69.2739 52.6641C69.2739 52.7803 69.1714 52.9204 68.9663 53.0845C68.7612 53.2417 68.563 53.3203 68.3716 53.3203C68.0776 53.3203 67.4658 52.8794 66.5361 51.9976C66.2695 52.3599 65.9004 52.7803 65.4287 53.2588C65.3125 53.2998 65.1929 53.3203 65.0698 53.3203C64.9194 53.3203 64.6973 53.2793 64.4033 53.1973C64.0615 53.1084 63.8906 53.0298 63.8906 52.9614C63.8906 52.9478 63.9043 52.9409 63.9316 52.9409C64.1299 52.9136 64.458 52.606 64.916 52.0181C65.3809 51.4302 65.6133 51.0508 65.6133 50.8799C65.6133 50.7568 65.7466 50.6953 66.0132 50.6953C66.2251 50.6953 66.4917 50.7158 66.813 50.7568C67.2163 50.8252 67.418 50.9038 67.418 50.9927C67.3496 51.0474 67.2676 51.1226 67.1719 51.2183C67.7324 51.8745 68.3613 52.2881 69.0586 52.459C68.5527 52.4453 68.0059 52.1992 67.418 51.7207V51.7412ZM85.1572 50.9927C85.1572 51.4233 84.6753 52.4077 83.7114 53.9458C83.2602 54.6499 83.0347 55.002 83.0347 55.002C83.0483 54.79 83.0278 54.6841 82.9731 54.6841C82.8911 54.6841 82.5288 55.0566 81.8862 55.8018C82.6929 55.8291 83.3491 56.0376 83.855 56.4272C84.1899 56.6802 84.4702 57.1348 84.6958 57.791C84.9077 58.3789 85.0137 58.9189 85.0137 59.4111C85.0137 59.6367 84.9863 59.852 84.9316 60.0571C84.7334 60.8159 84.1284 61.585 83.1167 62.3643C82.1118 63.1367 81.2095 63.5366 80.4097 63.564C80.9976 63.3999 81.7324 62.9351 82.6143 62.1694C83.4961 61.4038 84.0225 60.7441 84.1934 60.1904C82.2314 62.3164 80.6421 63.3794 79.4253 63.3794C79.2544 63.3794 79.0664 63.3315 78.8613 63.2358C78.5674 63.0786 78.3931 62.9932 78.3384 62.9795C78.2358 62.9385 78.0376 62.9043 77.7436 62.877C77.6206 62.8633 77.4941 62.7812 77.3643 62.6309C77.2412 62.4736 77.1797 62.3301 77.1797 62.2002C77.1797 62.0361 77.2925 61.9097 77.5181 61.8208C78.1606 61.5679 79.0972 60.9458 80.3276 59.9546C81.688 58.8608 82.3682 58.0781 82.3682 57.6064C82.3682 57.3809 82.1768 57.1758 81.7939 56.9912C81.4727 56.8408 81.1787 56.7588 80.9121 56.7451C80.1602 57.292 79.5107 57.5654 78.9639 57.5654C78.4717 57.5654 78.1914 57.4116 78.123 57.104C77.9521 57.0835 77.8667 57.0254 77.8667 56.9297C77.8667 56.834 78.0137 56.7144 78.3076 56.5708C78.3965 56.4751 78.5093 56.3794 78.646 56.2837C79.3022 55.7778 79.8901 55.231 80.4097 54.6431C81.1274 53.8296 81.4863 53.1494 81.4863 52.6025C81.4863 51.9463 81.1069 51.6182 80.3481 51.6182C79.9722 51.6182 79.5244 51.731 79.0049 51.9565C78.7519 52.3462 78.5776 52.8691 78.4819 53.5254C78.4136 54.0859 78.335 54.6465 78.2461 55.207C78.2461 55.248 78.2324 55.2891 78.2051 55.3301C78.2051 55.3301 78.1982 55.3232 78.1846 55.3096C78.1436 55.2139 78.0342 55.1318 77.8564 55.0635C77.6855 54.9951 77.5283 54.8105 77.3848 54.5098C77.248 54.209 77.1797 53.9595 77.1797 53.7612C77.1797 53.7065 77.1865 53.6211 77.2002 53.5049C77.2139 53.3818 77.2207 53.293 77.2207 53.2383C77.2207 52.999 77.1489 52.647 77.0054 52.1821C76.8686 51.7104 76.8003 51.355 76.8003 51.1157C76.8003 50.9585 76.8413 50.8457 76.9233 50.7773C77.3745 50.415 77.7881 50.2339 78.1641 50.2339C78.2324 50.2339 78.3315 50.2544 78.4614 50.2954C78.5981 50.3364 78.7041 50.3569 78.7793 50.3569C78.8613 50.3569 78.9707 50.3296 79.1074 50.2749C79.251 50.2202 79.3569 50.1929 79.4253 50.1929C79.521 50.1929 79.5894 50.2202 79.6304 50.2749C80.6284 49.8237 81.5752 49.5981 82.4707 49.5981C83.0723 49.5981 83.626 49.6904 84.1318 49.875C84.8154 50.1279 85.1572 50.5005 85.1572 50.9927Z" fill="white"/>
<g clip-path="url(#clip1_57_261)">
<path d="M86.8276 90.4483V84.3793C86.8276 80.4181 90.0388 77.2069 94 77.2069C97.9613 77.2069 101.172 80.4181 101.172 84.3793V90.4483H103.379V84.3793C103.379 79.1993 99.1801 75 94 75C88.8199 75 84.6207 79.1993 84.6207 84.3793V90.4483H86.8276Z" fill="#959CB5"/>
<path d="M86.8276 88.2415H84.6207V90.4483H86.8276V88.2415Z" fill="#7F8499"/>
<path d="M103.379 88.2415H101.172V90.4483H103.379V88.2415Z" fill="#7F8499"/>
<path d="M83.5172 91.5518V102.311C83.5172 103.596 84.253 104.778 85.4223 105.311C87.7326 106.364 90.7268 107 94 107C97.2732 107 100.267 106.364 102.578 105.311C103.747 104.778 104.483 103.596 104.483 102.311V91.5518C104.483 90.333 103.495 89.345 102.276 89.345H85.7241C84.5053 89.3449 83.5172 90.333 83.5172 91.5518Z" fill="#FFDC64"/>
<path d="M96.2069 96.5172C96.2069 95.1258 94.9193 94.0352 93.4706 94.3719C92.6884 94.5537 92.0517 95.1834 91.861 95.9636C91.6304 96.9067 92.0086 97.7708 92.6769 98.2724C92.8086 98.3712 92.8966 98.517 92.8966 98.6816V100.32C92.8966 100.87 93.2721 101.379 93.8147 101.468C94.506 101.58 95.1034 101.049 95.1034 100.379V98.6705C95.1034 98.5129 95.1877 98.373 95.3142 98.2789C95.8541 97.8779 96.2069 97.2414 96.2069 96.5172Z" fill="#464655"/>
<path d="M102 93.2069C102.457 93.2069 102.828 92.8363 102.828 92.3793V91.8276C102.828 91.3705 102.457 91 102 91C101.543 91 101.172 91.3706 101.172 91.8276V92.3793C101.172 92.8364 101.543 93.2069 102 93.2069Z" fill="#FFC93C"/>
<path d="M102 98.7241C102.457 98.7241 102.828 98.3535 102.828 97.8965V95.1379C102.828 94.6808 102.457 94.3103 102 94.3103C101.543 94.3103 101.172 94.6809 101.172 95.1379V97.8965C101.172 98.3535 101.543 98.7241 102 98.7241Z" fill="#FFC93C"/>
<path d="M88.6827 105.311C87.8827 104.778 87.3793 103.596 87.3793 102.311V91.5518C87.3793 90.333 88.0554 89.345 88.8893 89.345H85.7241C84.5053 89.345 83.5172 90.333 83.5172 91.5518V102.311C83.5172 103.596 84.253 104.778 85.4224 105.311C87.7326 106.364 90.7268 107 94 107C94.1105 107 94.2178 106.994 94.3276 106.992C92.1764 106.951 90.2101 106.328 88.6827 105.311Z" fill="#FFC850"/>
</g>
</g>
<defs>
<clipPath id="clip0_57_261">
<rect width="110" height="110" fill="white"/>
</clipPath>
<clipPath id="clip1_57_261">
<rect width="32" height="32" fill="white" transform="translate(78 75)"/>
</clipPath>
</defs>
</svg>
