<svg width="140" height="140" viewBox="0 0 140 140" fill="none" xmlns="http://www.w3.org/2000/svg">
<g clip-path="url(#clip0_604_1618)">
<path d="M39.7764 51.561C39.5071 43.2092 41.9553 34.274 44.2462 28.6528C45.2691 26.1434 48.143 24.9529 50.6407 26.0042C56.2356 28.3591 64.2847 32.946 70 39.0421L39.7764 51.561Z" fill="#F8C7A5"/>
<path d="M27.2575 81.7844C21.1614 76.0692 16.5743 68.0201 14.2196 62.4251C13.1683 59.9275 14.3588 57.0536 16.8682 56.0307C22.4894 53.7398 31.4246 51.2916 39.7764 51.5609L27.2575 81.7844Z" fill="#F3A977"/>
<path d="M39.7764 112.008C31.4246 112.278 22.4894 109.829 16.8682 107.538C14.3588 106.516 13.1683 103.642 14.2196 101.144C16.5745 95.549 21.1614 87.4999 27.2575 81.7847L39.7764 112.008Z" fill="#E7889D"/>
<path d="M70 124.527C64.2847 130.623 56.2356 135.21 50.6407 137.565C48.143 138.616 45.2691 137.426 44.2462 134.917C41.9553 129.295 39.5071 120.36 39.7764 112.008L70 124.527Z" fill="#F3A977"/>
<path d="M100.223 112.008C100.493 120.36 98.0446 129.295 95.7537 134.917C94.7308 137.426 91.8569 138.616 89.3593 137.565C83.7643 135.21 75.7152 130.623 70 124.527L100.223 112.008Z" fill="#E7889D"/>
<path d="M112.742 81.7847C118.839 87.4999 123.426 95.549 125.78 101.144C126.832 103.642 125.641 106.516 123.132 107.538C117.511 109.829 108.575 112.278 100.224 112.008L112.742 81.7847Z" fill="#F3A977"/>
<path d="M100.224 51.5609C108.575 51.2916 117.511 53.7398 123.132 56.0307C125.641 57.0536 126.832 59.9275 125.78 62.4251C123.425 68.0201 118.839 76.0692 112.742 81.7844L100.224 51.5609Z" fill="#E7889D"/>
<path d="M70 39.0421C75.7152 32.946 83.7643 28.3589 89.3593 26.0042C91.8569 24.9529 94.7308 26.1434 95.7537 28.6528C98.0446 34.274 100.493 43.2092 100.223 51.561L70 39.0421Z" fill="#F3A977"/>
<path d="M100.203 112.002C116.892 95.3127 116.892 68.2537 100.203 51.5643C83.5131 34.8748 56.4542 34.8748 39.7647 51.5643C23.0753 68.2537 23.0753 95.3127 39.7647 112.002C56.4542 128.692 83.5131 128.692 100.203 112.002Z" fill="#F6EE86"/>
<path d="M32.783 57.9961C36.1414 44.4176 37.9358 28.0665 29.7899 17.2607C55.0039 19.1019 73.3485 30.2204 81.189 38.2133C82.8531 39.9095 82.797 42.6393 81.0898 44.2921C77.8462 47.4329 71.6987 52.4793 62.4537 56.4338C52.0783 60.8716 43.4509 62.5725 37.4393 63.2788C34.4735 63.6274 32.0661 60.8951 32.783 57.9961Z" fill="#B0ADE2"/>
<path d="M50.7326 21.1543C49.4038 24.8003 46.7956 27.716 43.4698 29.4123C42.5322 31.2444 41.2168 32.8762 39.5864 34.1982C38.3779 35.1781 37.0294 35.9593 35.5984 36.5252C35.4406 29.4126 33.851 22.6471 29.7899 17.2603C37.4382 17.8191 44.4497 19.2346 50.7326 21.1543Z" fill="#A09CDC"/>
<path d="M25.2522 27.3837C29.275 31.4065 36.0077 28.9905 36.8279 23.6269C36.8957 23.1832 37.2479 22.8313 37.6914 22.7635C43.0566 21.9432 45.4693 15.209 41.4481 11.1878C40.2768 10.0165 38.7859 9.36466 37.2561 9.2233C36.7415 9.17572 36.3393 8.77353 36.2917 8.25896C36.1507 6.72919 35.4988 5.23852 34.3272 4.06692C30.3044 0.0441353 23.5718 2.46005 22.7516 7.82368C22.6838 8.26743 22.3319 8.61932 21.8881 8.68713C16.5229 9.50738 14.1102 16.2416 18.1314 20.2628C19.3027 21.4341 20.7934 22.0859 22.3234 22.2273C22.838 22.2749 23.2402 22.6771 23.2877 23.1916C23.4291 24.7214 24.0809 26.2121 25.2522 27.3837Z" fill="#D1C4E9"/>
<path d="M55.7137 87.2463C55.7156 90.9205 51.9769 93.9008 47.3632 93.903C42.7496 93.9051 39.0079 90.9287 39.006 87.2545C39.004 83.5804 42.7427 80.6001 47.3564 80.5977C51.97 80.5957 55.7117 83.5724 55.7137 87.2463Z" fill="#E7889D"/>
<path d="M84.2863 87.2321C84.2882 90.9063 88.0296 93.8827 92.6436 93.8802C97.2572 93.8778 100.996 90.8975 100.994 87.2236C100.992 83.5494 97.2506 80.573 92.6367 80.5752C88.0231 80.5777 84.2844 83.5579 84.2863 87.2321Z" fill="#E7889D"/>
<path d="M78.1872 84.2274C78.1847 79.1667 74.5182 78.6931 69.9956 78.6953C65.473 78.6975 61.807 79.1749 61.8098 84.2356C61.8122 89.2963 65.4807 93.3967 70.003 93.3945C74.5256 93.3923 78.1896 89.288 78.1872 84.2274Z" fill="#4E5660"/>
<path d="M127.671 100.348C126.547 97.6802 122.524 88.8833 115.662 81.7845C122.524 74.6861 126.548 65.8892 127.671 63.2209C128.953 60.175 127.893 56.6307 125.151 54.7933C124.21 54.1631 122.936 54.4147 122.306 55.3555C121.675 56.2963 121.927 57.5702 122.868 58.2007C123.982 58.9474 124.412 60.3894 123.89 61.6299C122.024 66.0633 118.731 71.9795 114.532 76.9166C113.597 68.1878 110.17 60.254 104.92 53.735C107.861 53.9693 110.993 54.491 114.177 55.2863C115.275 55.5603 116.389 54.8937 116.664 53.7937C116.938 52.6949 116.27 51.5818 115.171 51.3073C110.693 50.189 106.285 49.5744 102.288 49.5005C102.122 39.6274 98.7457 30.5604 97.6526 27.879C96.1978 24.3092 92.117 22.619 88.5639 24.1143C84.3659 25.8811 79.8687 28.4135 76.013 31.1649C68.7622 25.9355 58.2767 20.6329 45.3588 17.5824C46.2931 12.6264 42.8795 8.14209 38.2267 7.2893C37.3075 2.27538 32.1577 -1.3124 26.7555 0.45852C23.7753 1.43571 21.5721 3.82975 20.8642 6.79961C17.8941 7.50749 15.5006 9.71014 14.5234 12.6904C12.7516 18.0939 16.3408 23.2429 21.3533 24.1619C22.283 29.2327 27.5651 32.8792 33.0652 30.9049C33.9035 36.2959 33.6856 42.5705 32.4081 49.8822C24.8331 50.8151 18.5481 53.1315 16.0942 54.132C12.5244 55.5868 10.8339 59.6678 12.3295 63.2206C13.4524 65.8892 17.4755 74.6858 24.3388 81.7845C17.4757 88.883 13.4527 97.6799 12.3295 100.348C10.8342 103.901 12.5242 107.982 16.0947 109.437C16.4575 109.585 16.8338 109.734 17.222 109.882C18.282 110.287 19.4659 109.754 19.8695 108.698C20.2736 107.641 19.7435 106.455 18.6856 106.051C18.3261 105.914 17.978 105.776 17.6422 105.639C16.189 105.047 15.5008 103.386 16.1097 101.939C17.9764 97.5047 21.2708 91.5863 25.4718 86.6481C26.4178 95.3685 29.8766 103.345 35.1076 109.838C32.7748 109.655 30.3274 109.291 27.7836 108.74C26.6776 108.502 25.5853 109.204 25.3455 110.311C25.106 111.417 25.8092 112.509 26.916 112.749C30.713 113.57 34.3322 114.009 37.7124 114.068C37.8781 123.942 41.2543 133.009 42.3474 135.691C43.8017 139.259 47.8819 140.951 51.4361 139.455C54.1046 138.332 62.9013 134.309 70 127.446C77.0987 134.309 85.8954 138.332 88.5639 139.455C92.1217 140.953 96.1997 139.256 97.6529 135.691C98.7457 133.01 102.121 123.944 102.288 114.072C112.159 113.906 121.225 110.53 123.906 109.438C127.475 107.982 129.166 103.902 127.671 100.348ZM90.155 27.8943C91.6011 27.2854 93.2623 27.9736 93.8548 29.4268C95.6728 33.8879 97.532 40.4127 98.0507 46.8828C93.9071 43.5554 89.1871 40.9595 84.1565 39.281C83.862 38.3503 83.3562 37.494 82.6532 36.7773C81.7088 35.8146 80.6206 34.8145 79.4053 33.7966C82.7806 31.4922 86.5847 29.3967 90.155 27.8943ZM43.6754 21.4009C60.1277 25.1399 73.0675 32.8623 79.7249 39.649C80.5944 40.5355 80.5512 41.9591 79.6631 42.8188C76.2681 46.1063 70.3863 50.8099 61.6468 54.5481C53.473 58.0443 45.2478 60.2964 37.1998 61.2419C35.6468 61.4248 34.4022 59.9894 34.7735 58.488C37.1325 48.9504 38.7419 38.0198 36.7768 28.3903C37.7062 27.3316 38.3799 26.0572 38.7153 24.6507C40.717 24.1742 42.4546 23.016 43.6754 21.4009ZM26.7025 25.9339C25.9082 25.1396 25.4335 24.1263 25.3299 23.0034C25.1918 21.5086 24.0069 20.3236 22.5121 20.1856C19.601 19.9171 17.4213 17.0156 18.4207 13.9683C18.9905 12.2302 20.4379 10.9834 22.1977 10.7147C23.5366 10.5104 24.5739 9.47363 24.7793 8.13389C25.0483 6.37335 26.2954 4.92588 28.0335 4.35581C31.0391 3.37041 33.9776 5.49404 34.2499 8.44777C34.388 9.94254 35.573 11.1275 37.0677 11.2656C38.1907 11.3692 39.2039 11.8439 39.9982 12.6382C42.8349 15.4751 41.082 20.1711 37.3816 20.7365C36.0427 20.941 35.0053 21.9784 34.8008 23.317C34.2354 27.0155 29.5414 28.7725 26.7025 25.9339ZM16.1095 61.6296C15.5006 60.1832 16.1885 58.5222 17.642 57.9297C19.7935 57.0529 25.0907 55.0952 31.5715 54.1341C31.3312 55.2374 31.0763 56.3557 30.7925 57.5035C30.5681 58.4118 30.5527 59.3438 30.728 60.2371C27.8959 65.3915 26.1133 71.0732 25.4759 76.9259C21.2724 71.9869 17.9766 66.0658 16.1095 61.6296ZM49.8451 135.675C48.3949 136.285 46.7363 135.593 46.1452 134.143C44.3264 129.68 42.4663 123.151 41.9488 116.679C48.4416 121.909 56.4172 125.367 65.1365 126.313C60.1983 130.514 54.2799 133.808 49.8451 135.675ZM93.8546 134.143C93.2624 135.596 91.6013 136.284 90.1547 135.675C85.7201 133.809 79.8015 130.514 74.8633 126.313C83.5828 125.367 91.5581 121.909 98.051 116.679C97.5334 123.151 95.6733 129.68 93.8546 134.143ZM70 122.476C47.5626 122.476 29.3081 104.222 29.3081 81.7845C29.3081 75.6797 30.6834 69.6604 33.2989 64.2011C34.5769 65.1012 36.1359 65.4971 37.6788 65.3153C46.1178 64.3239 54.7247 61.97 63.2605 58.3188C72.5753 54.3346 78.8735 49.2927 82.5168 45.7648C83.1694 45.133 83.6679 44.3855 83.9965 43.5682C99.6294 49.3163 110.692 64.2601 110.692 81.7843C110.692 104.222 92.4375 122.476 70 122.476ZM122.358 105.639C117.895 107.458 111.367 109.318 104.894 109.836C110.124 103.343 113.582 95.3674 114.528 86.6481C118.729 91.5863 122.024 97.5049 123.89 101.939C124.499 103.386 123.811 105.047 122.358 105.639ZM76.713 77.7333C74.9254 76.828 72.7427 76.6465 69.9948 76.6448C66.6714 76.6465 59.7556 76.6498 59.7592 84.2368C59.7622 90.2952 64.2167 95.4456 69.9992 95.4453H70.0041C75.6502 95.4426 80.2409 90.4095 80.2378 84.2264C80.2362 81.1015 79.0501 78.9169 76.713 77.7333ZM70.0019 91.344H69.9992C66.4729 91.344 63.8621 87.9821 63.8602 84.2346C63.8588 81.5767 64.705 80.7486 69.9965 80.7461C71.3704 80.7754 73.5484 80.7283 74.8597 81.3922C75.5222 81.7277 76.1352 82.3035 76.1363 84.2286C76.1385 88.1502 73.3866 91.3421 70.0019 91.344ZM87.768 73.964H87.765C84.4345 73.9656 81.7394 76.6621 81.7411 79.9937C81.7416 81.1259 82.6595 82.0435 83.7917 82.0435H83.7925C84.9253 82.0429 85.8429 81.1245 85.8424 79.9917C85.8418 78.9279 86.7025 78.0658 87.7669 78.0653H87.768C88.8292 78.0653 89.6929 78.9284 89.6934 79.9898C89.694 81.1223 90.6118 82.0396 91.7441 82.0396H91.7449C92.8777 82.0391 93.7952 81.1207 93.7947 79.9882C93.7931 76.6593 91.0993 73.964 87.768 73.964ZM52.2249 73.982H52.2219C48.8985 73.9837 46.1963 76.6886 46.1979 80.0117C46.1985 81.1439 47.1164 82.0615 48.2486 82.0615H48.2494C49.3822 82.061 50.2997 81.1426 50.2992 80.0101C50.2987 78.9481 51.1621 78.0838 52.2238 78.0836H52.2249C53.286 78.0836 54.1497 78.9467 54.1503 80.0081C54.1508 81.1406 55.0687 82.0577 56.2009 82.0577H56.2017C57.3345 82.0571 58.2521 81.1387 58.2515 80.0062C58.2499 76.6771 55.5562 73.982 52.2249 73.982Z" fill="black"/>
<rect x="39.6667" y="67.6665" width="61.8333" height="35" fill="#F6EE86"/>
<path d="M52.661 72.57C53.095 72.654 53.417 72.801 53.627 73.011C53.851 73.221 53.963 73.466 53.963 73.746C53.963 74.208 53.83 74.544 53.564 74.754C53.312 74.964 52.906 75.048 52.346 75.006C51.086 74.908 50.099 74.845 49.385 74.817C48.685 74.775 47.761 74.747 46.613 74.733C46.095 77.309 45.619 79.899 45.185 82.503C45.031 83.455 44.87 84.561 44.702 85.821C44.534 87.067 44.422 88.075 44.366 88.845C44.338 89.251 44.17 89.566 43.862 89.79C43.554 90 43.183 90.105 42.749 90.105C42.287 90.105 41.93 89.993 41.678 89.769C41.426 89.545 41.3 89.251 41.3 88.887C41.3 88.551 41.349 87.998 41.447 87.228C41.559 86.444 41.685 85.625 41.825 84.771C41.979 83.917 42.098 83.175 42.182 82.545C42.336 81.481 42.511 80.424 42.707 79.374C42.903 78.324 43.099 77.33 43.295 76.392C43.337 76.182 43.386 75.944 43.442 75.678C43.498 75.398 43.561 75.09 43.631 74.754C42.259 74.796 41.181 74.908 40.397 75.09C39.613 75.272 39.053 75.531 38.717 75.867C38.395 76.189 38.234 76.609 38.234 77.127C38.234 77.603 38.374 78.058 38.654 78.492C38.71 78.59 38.738 78.695 38.738 78.807C38.738 79.073 38.577 79.325 38.255 79.563C37.947 79.787 37.625 79.899 37.289 79.899C37.051 79.899 36.855 79.829 36.701 79.689C36.421 79.451 36.19 79.115 36.008 78.681C35.826 78.233 35.735 77.729 35.735 77.169C35.735 75.979 36.12 75.027 36.89 74.313C37.674 73.585 38.857 73.053 40.439 72.717C42.035 72.381 44.079 72.213 46.571 72.213C48.111 72.213 49.336 72.241 50.246 72.297C51.17 72.353 51.975 72.444 52.661 72.57ZM52.1988 90.105C51.5408 90.105 51.0088 89.839 50.6028 89.307C50.2108 88.761 50.0148 88.012 50.0148 87.06C50.0148 86.01 50.0848 85.051 50.2248 84.183C50.3648 83.301 50.5958 82.37 50.9178 81.39C51.0578 80.97 51.2538 80.669 51.5058 80.487C51.7578 80.305 52.1568 80.214 52.7028 80.214C53.0108 80.214 53.2208 80.263 53.3328 80.361C53.4588 80.459 53.5218 80.606 53.5218 80.802C53.5218 80.914 53.4448 81.292 53.2908 81.936C53.1508 82.454 53.0388 82.923 52.9548 83.343C52.6748 84.813 52.5348 85.793 52.5348 86.283C52.5348 86.577 52.5698 86.787 52.6398 86.913C52.7098 87.025 52.8218 87.081 52.9758 87.081C53.1858 87.081 53.4518 86.871 53.7738 86.451C54.0958 86.017 54.4318 85.373 54.7818 84.519C55.1458 83.651 55.4888 82.608 55.8108 81.39C55.9228 80.97 56.0908 80.669 56.3148 80.487C56.5528 80.305 56.9028 80.214 57.3648 80.214C57.7988 80.214 58.1348 80.067 58.3728 79.773C58.6248 79.479 58.8068 79.01 58.9188 78.366C59.0168 77.82 59.3318 77.547 59.8638 77.547C60.2278 77.547 60.5008 77.666 60.6828 77.904C60.8648 78.128 60.9348 78.471 60.8928 78.933C60.8088 79.773 60.5288 80.487 60.0528 81.075C59.5768 81.649 58.9468 82.027 58.1628 82.209C58.1348 82.433 58.0648 82.902 57.9528 83.616C57.7988 84.526 57.6798 85.352 57.5958 86.094C57.5258 86.836 57.4908 87.676 57.4908 88.614C57.4908 89.146 57.3788 89.531 57.1548 89.769C56.9448 89.993 56.5948 90.105 56.1048 90.105C55.5868 90.105 55.2228 89.972 55.0128 89.706C54.8168 89.426 54.7188 88.894 54.7188 88.11C54.7188 87.956 54.7328 87.613 54.7608 87.081C54.5228 88.061 54.1658 88.81 53.6898 89.328C53.2278 89.846 52.7308 90.105 52.1988 90.105ZM55.2228 78.828C54.9708 78.828 54.7538 78.709 54.5718 78.471L51.8628 74.985C51.5548 74.593 51.4008 74.201 51.4008 73.809C51.4008 73.417 51.5338 73.095 51.7998 72.843C52.0798 72.591 52.3948 72.465 52.7448 72.465C52.9828 72.465 53.2068 72.535 53.4168 72.675C53.6268 72.815 53.7948 73.025 53.9208 73.305L55.8738 77.673C55.9298 77.799 55.9578 77.932 55.9578 78.072C55.9578 78.282 55.8808 78.464 55.7268 78.618C55.5868 78.758 55.4188 78.828 55.2228 78.828ZM75.8727 83.616C75.9147 83.602 75.9847 83.595 76.0827 83.595C76.2927 83.595 76.4537 83.665 76.5657 83.805C76.6777 83.945 76.7337 84.134 76.7337 84.372C76.7337 84.806 76.6497 85.149 76.4817 85.401C76.3137 85.639 76.0617 85.814 75.7257 85.926C75.0817 86.136 74.3957 86.241 73.6677 86.241C73.0517 86.241 72.4707 86.157 71.9247 85.989C71.5187 86.647 71.0707 87.326 70.5807 88.026C70.0207 88.824 69.5377 89.37 69.1317 89.664C68.7257 89.958 68.2637 90.105 67.7457 90.105C67.1717 90.105 66.7167 89.881 66.3807 89.433C66.0587 88.985 65.8557 88.278 65.7717 87.312C65.6037 85.352 65.5197 83.637 65.5197 82.167V81.432C65.5337 80.97 65.6597 80.648 65.8977 80.466C66.1357 80.284 66.4927 80.193 66.9687 80.193C67.3327 80.193 67.5987 80.277 67.7667 80.445C67.9487 80.599 68.0397 80.865 68.0397 81.243C68.0397 82.853 68.1377 84.946 68.3337 87.522C69.1737 86.276 69.8037 85.282 70.2237 84.54C70.0137 84.134 69.9087 83.651 69.9087 83.091C69.9087 82.615 70.0137 82.153 70.2237 81.705C70.4337 81.257 70.7207 80.893 71.0847 80.613C71.4487 80.333 71.8617 80.193 72.3237 80.193C72.7297 80.193 73.0587 80.34 73.3107 80.634C73.5627 80.914 73.6887 81.327 73.6887 81.873C73.6887 82.503 73.5207 83.224 73.1847 84.036C73.7167 84.008 74.4237 83.903 75.3057 83.721L75.8727 83.616ZM77.0533 90.105C76.4233 90.105 75.9053 89.818 75.4993 89.244C75.1073 88.656 74.9113 87.928 74.9113 87.06C74.9113 86.01 74.9813 85.051 75.1213 84.183C75.2613 83.301 75.4923 82.37 75.8143 81.39C75.9543 80.97 76.1503 80.669 76.4023 80.487C76.6543 80.305 77.0533 80.214 77.5993 80.214C77.9073 80.214 78.1173 80.263 78.2293 80.361C78.3553 80.459 78.4183 80.606 78.4183 80.802C78.4183 80.914 78.3413 81.292 78.1873 81.936C78.0473 82.454 77.9353 82.923 77.8513 83.343C77.5713 84.813 77.4313 85.793 77.4313 86.283C77.4313 86.577 77.4663 86.787 77.5363 86.913C77.6063 87.025 77.7183 87.081 77.8723 87.081C78.0823 87.081 78.3413 86.871 78.6493 86.451C78.9713 86.031 79.3073 85.394 79.6573 84.54C80.0213 83.686 80.3713 82.636 80.7073 81.39C80.8193 80.97 80.9873 80.669 81.2113 80.487C81.4493 80.305 81.7993 80.214 82.2613 80.214C82.6953 80.214 83.0313 80.067 83.2693 79.773C83.5213 79.479 83.7033 79.01 83.8153 78.366C83.9133 77.82 84.2283 77.547 84.7603 77.547C85.1243 77.547 85.3973 77.666 85.5793 77.904C85.7613 78.128 85.8313 78.471 85.7893 78.933C85.7053 79.801 85.4113 80.529 84.9073 81.117C84.4033 81.705 83.7313 82.083 82.8913 82.251C82.9193 82.111 82.7933 82.713 82.5133 84.057C82.2053 85.387 82.0513 86.213 82.0513 86.535C82.0513 87.011 82.1353 87.34 82.3033 87.522C82.4713 87.704 82.7513 87.795 83.1433 87.795C83.6333 87.795 84.1093 87.62 84.5713 87.27C85.0333 86.92 85.5793 86.367 86.2093 85.611C86.3773 85.415 86.5663 85.317 86.7763 85.317C86.9583 85.317 87.0983 85.401 87.1963 85.569C87.3083 85.737 87.3643 85.968 87.3643 86.262C87.3643 86.822 87.2313 87.256 86.9653 87.564C86.3633 88.264 85.6563 88.866 84.8443 89.37C84.0323 89.86 83.1363 90.105 82.1563 90.105C80.4903 90.105 79.6573 89.118 79.6573 87.144C79.4193 88.096 79.0623 88.831 78.5863 89.349C78.1103 89.853 77.5993 90.105 77.0533 90.105ZM78.2293 94.788C77.6413 94.788 77.2003 94.648 76.9063 94.368C76.6123 94.102 76.4653 93.724 76.4653 93.234C76.4653 92.744 76.6543 92.331 77.0323 91.995C77.4243 91.673 77.9073 91.512 78.4813 91.512C78.9993 91.512 79.4193 91.638 79.7413 91.89C80.0633 92.142 80.2243 92.499 80.2243 92.961C80.2243 93.521 80.0423 93.962 79.6783 94.284C79.3143 94.62 78.8313 94.788 78.2293 94.788ZM87.1484 90.105C86.6164 90.105 86.2384 89.825 86.0144 89.265C85.8044 88.705 85.6994 87.809 85.6994 86.577C85.6994 84.757 85.9584 83.028 86.4764 81.39C86.6024 80.984 86.8054 80.69 87.0854 80.508C87.3794 80.312 87.7854 80.214 88.3034 80.214C88.5834 80.214 88.7794 80.249 88.8914 80.319C89.0034 80.389 89.0594 80.522 89.0594 80.718C89.0594 80.942 88.9544 81.446 88.7444 82.23C88.6044 82.79 88.4924 83.28 88.4084 83.7C88.3244 84.12 88.2544 84.638 88.1984 85.254C88.6604 84.05 89.1784 83.07 89.7524 82.314C90.3264 81.558 90.8864 81.019 91.4324 80.697C91.9924 80.375 92.5034 80.214 92.9654 80.214C93.8754 80.214 94.3304 80.669 94.3304 81.579C94.3304 82.125 94.1764 83.112 93.8684 84.54C93.6024 85.758 93.4694 86.563 93.4694 86.955C93.4694 87.515 93.6724 87.795 94.0784 87.795C94.3584 87.795 94.6874 87.627 95.0654 87.291C95.4574 86.941 95.9754 86.381 96.6194 85.611C96.7874 85.415 96.9764 85.317 97.1864 85.317C97.3684 85.317 97.5084 85.401 97.6064 85.569C97.7184 85.737 97.7744 85.968 97.7744 86.262C97.7744 86.822 97.6414 87.256 97.3754 87.564C96.7734 88.306 96.1224 88.915 95.4224 89.391C94.7364 89.867 93.9524 90.105 93.0704 90.105C92.3564 90.105 91.8174 89.902 91.4534 89.496C91.0894 89.076 90.9074 88.474 90.9074 87.69C90.9074 87.298 91.0054 86.598 91.2014 85.59C91.3834 84.708 91.4744 84.099 91.4744 83.763C91.4744 83.539 91.3974 83.427 91.2434 83.427C91.0614 83.427 90.8024 83.665 90.4664 84.141C90.1444 84.603 89.8084 85.219 89.4584 85.989C89.1224 86.759 88.8494 87.571 88.6394 88.425C88.4854 89.083 88.3034 89.531 88.0934 89.769C87.8974 89.993 87.5824 90.105 87.1484 90.105ZM103.194 80.907C103.544 80.907 103.789 80.963 103.929 81.075C104.083 81.173 104.16 81.376 104.16 81.684C104.16 81.852 104.153 81.985 104.139 82.083C104.083 82.517 103.908 83.637 103.614 85.443C103.404 86.661 103.271 87.466 103.215 87.858C102.683 91.47 101.962 94.319 101.052 96.405C100.156 98.505 98.9524 99.555 97.4404 99.555C96.7264 99.555 96.1454 99.331 95.6974 98.883C95.2494 98.449 95.0254 97.875 95.0254 97.161C95.0254 96.167 95.4174 95.096 96.2014 93.948C96.9854 92.814 98.4554 91.414 100.611 89.748L100.737 88.929C100.499 89.307 100.184 89.601 99.7924 89.811C99.4144 90.007 99.0364 90.105 98.6584 90.105C97.7904 90.105 97.0974 89.79 96.5794 89.16C96.0614 88.53 95.8024 87.704 95.8024 86.682C95.8024 85.562 96.0614 84.505 96.5794 83.511C97.0974 82.503 97.7834 81.698 98.6374 81.096C99.5054 80.48 100.422 80.172 101.388 80.172C101.696 80.172 101.899 80.235 101.997 80.361C102.109 80.473 102.2 80.683 102.27 80.991C102.536 80.935 102.844 80.907 103.194 80.907ZM99.4144 87.984C99.7364 87.984 100.044 87.788 100.338 87.396C100.632 87.004 100.842 86.444 100.968 85.716L101.64 82.125C101.066 82.139 100.534 82.363 100.044 82.797C99.5544 83.217 99.1624 83.777 98.8684 84.477C98.5744 85.177 98.4274 85.919 98.4274 86.703C98.4274 87.137 98.5114 87.459 98.6794 87.669C98.8614 87.879 99.1064 87.984 99.4144 87.984ZM97.6714 97.518C98.0214 97.518 98.4134 97.098 98.8474 96.258C99.2954 95.418 99.7224 94.081 100.128 92.247C99.0504 93.171 98.2734 94.004 97.7974 94.746C97.3214 95.488 97.0834 96.139 97.0834 96.699C97.0834 96.937 97.1254 97.133 97.2094 97.287C97.3074 97.441 97.4614 97.518 97.6714 97.518Z" fill="black"/>
</g>
<defs>
<clipPath id="clip0_604_1618">
<rect width="140" height="140" fill="white"/>
</clipPath>
</defs>
</svg>
