<svg width="248" height="111" viewBox="0 0 248 111" fill="none" xmlns="http://www.w3.org/2000/svg">
<path d="M0 0.258301C1.52026 1.20367 3.04478 2.14479 4.57782 3.06887C77.1623 47.3731 162.178 66.8916 246.819 58.684L248.484 58.518L212.994 110.978L183.185 59.8764L140.601 106.719L119.309 51.3595L68.2074 93.9439L55.4321 30.0673L8.58926 64.1348L0.00425844 0.258301" fill="#FBCC34"/>
</svg>
