<svg width="100" height="100" viewBox="0 0 100 100" fill="none" xmlns="http://www.w3.org/2000/svg">
<g clip-path="url(#clip0_798_3845)">
<path d="M28.6562 24.123H71.3473V33.7127H28.6562V24.123Z" fill="#9A5E5F"/>
<path d="M78.2303 83.8842V98.535H21.7695V83.8842C21.7695 70.509 32.6123 59.666 45.9877 59.666H54.0123C67.3873 59.666 78.2303 70.509 78.2303 83.8842Z" fill="#1682AD"/>
<path d="M78.2326 83.8842V98.5348H72.0961V83.8842C72.0961 70.508 61.2531 59.665 47.8789 59.665H54.0135C67.3896 59.665 78.2326 70.508 78.2326 83.8842Z" fill="#107295"/>
<path d="M54.7 53.1045V61.4688C54.7 64.0643 52.5949 66.1693 49.9994 66.1693C47.402 66.1693 45.2969 64.0643 45.2969 61.4688V53.1045H54.7Z" fill="#FFCEC0"/>
<path d="M54.7 53.1045V60.3125C53.2777 60.9545 51.6842 61.3145 49.9994 61.3145C48.3146 61.3145 46.7191 60.9545 45.2969 60.3125V53.1045H54.7Z" fill="#FDB0A0"/>
<path d="M68.6258 41.4752C71.8752 41.4752 74.5094 38.841 74.5094 35.5916C74.5094 32.3422 71.8752 29.708 68.6258 29.708C65.3764 29.708 62.7422 32.3422 62.7422 35.5916C62.7422 38.841 65.3764 41.4752 68.6258 41.4752Z" fill="#FDB0A0"/>
<path d="M31.3719 41.4752C34.6213 41.4752 37.2555 38.841 37.2555 35.5916C37.2555 32.3422 34.6213 29.708 31.3719 29.708C28.1225 29.708 25.4883 32.3422 25.4883 35.5916C25.4883 38.841 28.1225 41.4752 31.3719 41.4752Z" fill="#FDB0A0"/>
<path d="M66.9627 26.907V39.1594C66.9627 48.5144 59.4818 56.2646 50.1268 56.3348C40.6992 56.4027 33.0352 48.7838 33.0352 39.3721V26.907C33.0352 17.5385 40.6314 9.94434 50 9.94434C54.6854 9.94434 58.925 11.8434 61.9943 14.9127C65.0637 17.9842 66.9627 22.2238 66.9627 26.907Z" fill="#FFCEC0"/>
<path d="M66.9627 28.9176V26.907C66.9627 22.2238 65.0637 17.9844 61.9943 14.9127C58.925 11.8434 54.6854 9.94434 50 9.94434C40.6314 9.94434 33.0352 17.5383 33.0352 26.907V28.9176H66.9627Z" fill="#FDB0A0"/>
<path d="M68.9285 20.2055H31.0781V17.0676C31.0781 8.45039 38.0637 1.46484 46.6809 1.46484H53.326C61.9432 1.46484 68.9287 8.45039 68.9287 17.0676V20.2055H68.9285Z" fill="#FFD496"/>
<path d="M68.9262 17.0678V20.2061H63.3402V17.0678C63.3402 8.45059 56.3555 1.46582 47.7383 1.46582H53.3242C61.9412 1.46582 68.9262 8.45059 68.9262 17.0678Z" fill="#FCC16D"/>
<path d="M77.993 24.7579H22.0105C20.5701 24.7579 19.4023 23.5901 19.4023 22.1497C19.4023 20.7093 20.5701 19.5415 22.0105 19.5415H77.993C79.4334 19.5415 80.6012 20.7093 80.6012 22.1497C80.6012 23.5901 79.4334 24.7579 77.993 24.7579Z" fill="#FCC16D"/>
<path d="M80.6023 22.15C80.6023 22.8699 80.3105 23.5217 79.8377 23.9945C79.3668 24.4674 78.715 24.7592 77.9951 24.7592H73.6953C74.4172 24.7592 75.0689 24.4674 75.5398 23.9945C76.0127 23.5217 76.3045 22.8699 76.3045 22.15C76.3045 20.7102 75.1371 19.541 73.6953 19.541H77.9951C79.4352 19.5408 80.6023 20.7102 80.6023 22.15Z" fill="#FCB44D"/>
<path d="M37.1693 98.5351H31.1523V64.9954C31.1523 64.3905 31.4314 63.8194 31.9123 63.4526C32.6984 62.8526 34.059 61.9347 35.8281 61.2087C36.4674 60.9464 37.1693 61.4192 37.1693 62.1103V98.5351Z" fill="#F82F40"/>
<path d="M62.832 98.5351H68.849V64.9954C68.849 64.3905 68.5699 63.8194 68.0891 63.4526C67.3029 62.8526 65.9424 61.9347 64.1732 61.2087C63.534 60.9464 62.832 61.4192 62.832 62.1103V98.5351Z" fill="#F82F40"/>
<path d="M31.1523 78.8408H37.1693V89.3707H31.1523V78.8408Z" fill="#E22334"/>
<path d="M62.832 78.8408H68.849V89.3707H62.832V78.8408Z" fill="#E22334"/>
<path d="M37.4184 81.0645H30.9025C30.3652 81.0645 29.9297 80.6289 29.9297 80.0916V76.8977C29.9297 76.3604 30.3652 75.9248 30.9025 75.9248H37.4184C37.9557 75.9248 38.3912 76.3604 38.3912 76.8977V80.0916C38.3912 80.6289 37.9557 81.0645 37.4184 81.0645Z" fill="#E1DDE1"/>
<path d="M69.102 81.0645H62.5861C62.0488 81.0645 61.6133 80.6289 61.6133 80.0916V76.8977C61.6133 76.3604 62.0488 75.9248 62.5861 75.9248H69.102C69.6393 75.9248 70.0748 76.3604 70.0748 76.8977V80.0916C70.0748 80.6289 69.6393 81.0645 69.102 81.0645Z" fill="#E1DDE1"/>
<path d="M51.4442 43.6482C51.0358 43.9946 50.4472 44.1935 49.8288 44.1935C49.2104 44.1935 48.6218 43.9946 48.2134 43.6482C47.5966 43.1249 46.6722 43.2005 46.1487 43.8173C45.6253 44.4341 45.7011 45.3585 46.3179 45.8819C47.261 46.6823 48.5079 47.123 49.8288 47.123C51.1497 47.123 52.3964 46.6821 53.3397 45.8819C53.9565 45.3583 54.0323 44.4341 53.5089 43.8173C52.9854 43.2007 52.061 43.1251 51.4442 43.6482Z" fill="black"/>
<path d="M57.3008 32.3896H57.285C56.476 32.3896 55.8281 33.0453 55.8281 33.8545C55.8281 34.6637 56.4918 35.3193 57.301 35.3193C58.1102 35.3193 58.7658 34.6637 58.7658 33.8545C58.7658 33.0453 58.1098 32.3896 57.3008 32.3896Z" fill="black"/>
<path d="M42.7148 32.3896H42.6992C41.8902 32.3896 41.2422 33.0453 41.2422 33.8545C41.2422 34.6637 41.9059 35.3193 42.7148 35.3193C43.5238 35.3193 44.1797 34.6637 44.1797 33.8545C44.1797 33.0453 43.5238 32.3896 42.7148 32.3896Z" fill="black"/>
<path d="M49.5582 41.4747C49.6487 41.4915 49.7387 41.4995 49.8274 41.4995C50.5194 41.4995 51.135 41.0071 51.2658 40.302C51.4137 39.5067 50.8887 38.7421 50.0934 38.5942C49.8094 38.5415 49.6203 38.2762 49.6631 37.9905L50.4184 32.9413C50.5381 32.1411 49.9865 31.3956 49.1863 31.2761C48.3862 31.1565 47.6406 31.7077 47.5209 32.5081L46.7656 37.5573C46.4883 39.4112 47.7149 41.1321 49.5582 41.4747Z" fill="black"/>
<path d="M29.8746 63.8891C23.8158 68.7932 20.3064 76.0975 20.3064 83.8848V98.5352C20.3064 99.3443 20.9623 100 21.7713 100C22.5803 100 23.2361 99.3443 23.2361 98.5352V83.8848C23.2361 77.8928 25.5598 72.2412 29.6873 68.0115V74.7881C28.9584 75.21 28.4656 75.9965 28.4656 76.8977V80.0918C28.4656 80.993 28.9584 81.7795 29.6873 82.2014V83.7584C28.9943 83.8744 28.4656 84.4754 28.4656 85.2014C28.4656 85.9273 28.9943 86.5283 29.6873 86.6443V98.5352C29.6873 99.3443 30.3432 100 31.1522 100C31.9611 100 32.617 99.3443 32.617 98.5352V86.666H35.7049V98.5352C35.7049 99.3443 36.3607 100 37.1697 100C37.9787 100 38.6346 99.3443 38.6346 98.5352V86.6443C39.3279 86.5285 39.8568 85.9275 39.8568 85.2012C39.8568 84.4748 39.3279 83.8738 38.6346 83.758V82.2016C39.3639 81.7799 39.8568 80.993 39.8568 80.0916V76.8975C39.8568 75.9961 39.3639 75.2094 38.6346 74.7875V69.9309C41.2576 73.3644 45.392 75.591 50.0018 75.591C53.7703 75.591 57.3287 74.1324 60.0217 71.4842C60.5104 71.0035 60.9594 70.493 61.369 69.958V74.7877C60.6397 75.2094 60.1467 75.9963 60.1467 76.8977V80.0918C60.1467 80.9932 60.6397 81.7799 61.369 82.2018V83.7582C60.6756 83.874 60.1467 84.475 60.1467 85.2014C60.1467 85.9277 60.6756 86.5287 61.369 86.6445V98.5352C61.369 99.3443 62.0248 100 62.8338 100C63.6428 100 64.2986 99.3443 64.2986 98.5352V86.666H67.3865V98.5352C67.3865 99.3443 68.0424 100 68.8514 100C69.6604 100 70.3162 99.3443 70.3162 98.5352V86.6443C71.0092 86.5283 71.5379 85.9273 71.5379 85.2014C71.5379 84.4754 71.0092 83.8744 70.3162 83.7584V82.2014C71.0451 81.7795 71.5379 80.993 71.5379 80.0918V76.8977C71.5379 75.9965 71.0451 75.21 70.3162 74.7881V68.0115C74.4438 72.2412 76.7674 77.8928 76.7674 83.8848V98.5352C76.7674 99.3443 77.4232 100 78.2322 100C79.0412 100 79.6971 99.3443 79.6971 98.5352V83.8848C79.6971 76.0975 76.2223 68.8184 70.1635 63.9143C69.9469 63.2855 69.5156 62.6977 68.9793 62.2879C68.0832 61.6053 66.6189 60.6287 64.7295 59.8527C64.1641 59.6219 63.5422 59.6135 62.9814 59.816C60.7918 58.999 58.5063 58.4865 56.1678 58.2926V56.7205C62.1627 54.5529 66.7426 49.3217 68.0506 42.9166C68.2428 42.9316 68.4356 42.9412 68.6287 42.9412C72.6803 42.9412 75.9764 39.6441 75.9764 35.5916C75.9764 33.0938 74.7225 30.8844 72.8123 29.5563V26.2227H77.993C80.2389 26.2227 82.066 24.3955 82.066 22.1496C82.066 19.9037 80.2389 18.0766 77.993 18.0766H70.3924V17.0684C70.3924 7.65684 62.7356 0 53.324 0H46.6795C37.268 0 29.6111 7.65684 29.6111 17.0684V18.0766H22.0105C19.7646 18.0766 17.9375 19.9037 17.9375 22.1496C17.9375 24.3955 19.7646 26.2227 22.0105 26.2227H27.1912V29.5563C25.2809 30.8846 24.0271 33.0938 24.0271 35.5916C24.0271 39.6441 27.3232 42.9412 31.3748 42.9412C31.5553 42.9412 31.735 42.9326 31.9139 42.9195C32.6105 46.5135 34.3635 49.8147 37.0205 52.4518C38.9828 54.3996 41.3041 55.8516 43.8338 56.7473V58.2924C41.5006 58.4863 39.2156 58.9988 37.0223 59.8158C36.4613 59.6133 35.8389 59.6217 35.2715 59.8535C33.3846 60.6283 31.9203 61.6049 31.0225 62.2889C30.4873 62.6982 30.091 63.2605 29.8746 63.8891ZM32.5408 17.0684C32.5408 9.27227 38.8834 2.92969 46.6795 2.92969H53.324C61.1201 2.92969 67.4627 9.27227 67.4627 17.0684V18.0766H32.5408V17.0684ZM20.8672 22.1496C20.8672 21.5189 21.3801 21.0063 22.0105 21.0063H77.993C78.6234 21.0063 79.1363 21.5191 79.1363 22.1496C79.1363 22.7801 78.6234 23.293 77.993 23.293H22.0105C21.3801 23.2932 20.8672 22.7803 20.8672 22.1496ZM30.1209 26.2229H31.5883C31.5799 26.4523 31.574 26.6813 31.574 26.9082V28.2486C31.5076 28.2469 31.4412 28.2443 31.3748 28.2443C30.9473 28.2443 30.5287 28.2832 30.1209 28.3535V26.2229ZM31.3748 40.0117C28.9387 40.0117 26.9568 38.0291 26.9568 35.5918C26.9568 33.1557 28.9387 31.1738 31.3748 31.1738C31.4412 31.1738 31.5076 31.1795 31.574 31.1826V39.3711C31.574 39.582 31.5789 39.792 31.5857 40.0018C31.5154 40.0051 31.4457 40.0117 31.3748 40.0117ZM32.7996 64.6184C33.4449 64.1268 34.4395 63.4547 35.7049 62.8625V74.4602H32.617V64.9961C32.617 64.8447 32.6842 64.7064 32.7996 64.6184ZM31.3953 79.5996V77.3898H36.9271V79.5996H31.3953ZM32.617 83.7363V82.5291H35.7049V83.7363H32.617ZM68.6082 77.3896V79.5994H63.0764V77.3896H68.6082ZM64.2986 83.7363V82.5291H67.3865V83.7363H64.2986ZM67.2022 64.617C67.3193 64.7064 67.3863 64.8447 67.3863 64.9961V74.46H64.2986V62.8623C65.565 63.4553 66.5586 64.1268 67.2022 64.617ZM61.3182 62.3305C60.7887 68.0982 55.8795 72.6617 50.0018 72.6617C44.1189 72.6617 39.2135 68.1008 38.6836 62.3316C40.3521 61.7662 42.077 61.3979 43.8338 61.233V61.4688C43.8338 64.8688 46.6008 67.6348 50.0018 67.6348C53.4018 67.6348 56.1678 64.8688 56.1678 61.4688V61.2328C57.9277 61.3977 59.6525 61.7656 61.3182 62.3305ZM49.9977 57.7994C51.0537 57.7916 52.2305 57.6914 53.2381 57.5094V61.4688C53.2381 63.2533 51.7863 64.7051 50.0018 64.7051C48.2162 64.7051 46.7635 63.2531 46.7635 61.4688V57.5176C47.8207 57.7037 48.9018 57.7994 49.9977 57.7994ZM65.4998 39.1582C65.4998 47.7592 58.5996 54.8072 50.1178 54.8689C45.9543 54.9014 42.0369 53.3033 39.0844 50.3727C36.1305 47.4408 34.5037 43.5336 34.5037 39.3711V26.9082C34.5037 26.6818 34.5113 26.4525 34.5215 26.2229H65.4822C65.4922 26.4525 65.5 26.6818 65.5 26.9082V39.1582H65.4998ZM68.6287 40.0117C68.5555 40.0117 68.4828 40.0047 68.4098 40.001C68.4223 39.7215 68.4295 39.4406 68.4295 39.158V31.1824C68.4959 31.1793 68.5617 31.1736 68.6287 31.1736C71.0648 31.1736 73.0467 33.1555 73.0467 35.5916C73.0467 38.0291 71.0648 40.0117 68.6287 40.0117ZM69.8826 28.3535C69.4748 28.283 69.0563 28.2443 68.6287 28.2443C68.5621 28.2443 68.4959 28.2469 68.4295 28.2488V26.9082C68.4295 26.6813 68.4236 26.4523 68.4152 26.2229H69.8826V28.3535Z" fill="black"/>
<path d="M39.6939 8.47949H38.8164C38.0074 8.47949 37.3516 9.13516 37.3516 9.94434C37.3516 10.7535 38.0074 11.4092 38.8164 11.4092H39.6939C40.5029 11.4092 41.1588 10.7535 41.1588 9.94434C41.1588 9.13516 40.5031 8.47949 39.6939 8.47949Z" fill="black"/>
<path d="M43.1549 13.1035H42.2773C41.4684 13.1035 40.8125 13.7592 40.8125 14.5684C40.8125 15.3775 41.4684 16.0332 42.2773 16.0332H43.1549C43.9639 16.0332 44.6197 15.3775 44.6197 14.5684C44.6197 13.7592 43.9639 13.1035 43.1549 13.1035Z" fill="black"/>
<path d="M50.9557 5.73486H50.0781C49.2691 5.73486 48.6133 6.39053 48.6133 7.19971C48.6133 8.00889 49.2691 8.66455 50.0781 8.66455H50.9557C51.7646 8.66455 52.4205 8.00889 52.4205 7.19971C52.4205 6.39053 51.7646 5.73486 50.9557 5.73486Z" fill="black"/>
<path d="M56.8814 5.73486H56.0039C55.1949 5.73486 54.5391 6.39053 54.5391 7.19971C54.5391 8.00889 55.1949 8.66455 56.0039 8.66455H56.8814C57.6904 8.66455 58.3463 8.00889 58.3463 7.19971C58.3463 6.39053 57.6904 5.73486 56.8814 5.73486Z" fill="black"/>
<path d="M61.2252 11.3164H60.3477C59.5387 11.3164 58.8828 11.9721 58.8828 12.7812C58.8828 13.5904 59.5387 14.2461 60.3477 14.2461H61.2252C62.0342 14.2461 62.69 13.5904 62.69 12.7812C62.69 11.9721 62.0342 11.3164 61.2252 11.3164Z" fill="black"/>
</g>
<g clip-path="url(#clip1_798_3845)">
<path d="M63.6395 86.2783C63.6654 86.3854 63.6916 86.4867 63.7175 86.5781C63.8348 86.9928 63.602 87.4254 63.1884 87.5471L63.1859 87.5478C62.7743 87.6689 62.3359 87.4373 62.2173 87.0253C62.165 86.8432 62.1211 86.6588 62.0834 86.4729C61.5771 86.82 61.0624 87.4998 61.3468 88.7957C61.3468 88.7957 61.4734 89.4684 61.3865 89.919C61.3686 90.0121 61.4679 90.0829 61.5514 90.0381L61.8938 89.8542C61.9715 89.8126 62.066 89.8712 62.061 89.959C62.039 90.3409 62.0668 91.1771 62.6335 91.7927C63.0121 92.204 63.0914 92.5302 63.0762 92.7535C63.0695 92.8535 63.1916 92.9081 63.2673 92.8424C63.805 92.3765 64.831 91.3308 64.7362 90.2061C64.7299 90.1324 64.7908 90.0711 64.8637 90.0835L65.1345 90.1292C65.1943 90.1392 65.2514 90.1011 65.2641 90.0419C65.3816 89.4924 65.7984 86.9489 63.6395 86.2783Z" fill="#52565B"/>
<path d="M33.8988 60.5486C33.5151 60.5622 33.1336 60.47 32.7983 60.2831C29.5273 58.458 22.6931 62.8323 24.0306 67.9629C24.2567 68.8296 24.6508 69.5128 25.1359 70.0543C25.1377 70.0493 25.1386 70.0443 25.1404 70.0393C25.6447 68.643 27.0938 67.7738 28.5638 67.982C29.4779 68.1114 30.229 68.6057 30.7128 69.2857C30.9272 69.5871 31.3208 69.6821 31.6491 69.5118C32.3897 69.1272 33.2836 69.0299 34.156 69.3314C35.5591 69.8165 36.4523 71.2512 36.2644 72.7237C36.2637 72.7288 36.2623 72.7338 36.2616 72.739C36.9402 72.4782 37.6025 72.0501 38.199 71.3817C41.7292 67.4258 37.642 60.4161 33.8988 60.5486Z" fill="#E3E4E5"/>
<path d="M59.3882 86.2326C59.328 85.8516 59.3773 85.4605 59.5308 85.1066C62.145 79.0801 61.3922 74.9641 60.822 73.2277C60.5781 72.4852 60.1614 71.8036 59.5667 71.2966C57.3205 69.3812 53.5525 70.2893 46.1325 71.0624C43.1256 71.3755 40.8302 70.7999 39.1189 69.9268C38.9027 70.4413 38.6004 70.9315 38.1985 71.3819C37.6021 72.0503 36.9397 72.4785 36.2612 72.7393C36.0089 74.6447 34.1795 75.8642 32.3614 75.4256C32.2296 75.3938 32.1034 75.3515 31.9799 75.3047C31.34 76.2372 30.3767 76.7508 29.4576 76.5291C29.4416 76.5251 29.4262 76.5194 29.4102 76.5152C29.5332 78.1626 29.583 79.9277 29.9675 81.9274C30.6956 85.7133 34.064 86.8589 35.2257 87.1447C35.4774 87.2066 35.6715 87.4043 35.7291 87.6571C36.3483 90.3648 36.093 94.1475 36.0016 95.2304C35.9864 95.4096 35.8768 95.5659 35.7165 95.6473C34.7187 96.1541 34.3807 97.021 34.2663 97.5504C34.2158 97.7842 34.3986 98.004 34.638 98.004H39.056C39.2237 98.004 39.3747 97.8942 39.4199 97.7328C39.693 96.7582 39.3813 96.0754 39.2287 95.8192C39.1785 95.7349 39.143 95.6424 39.1294 95.5453C39.038 94.8958 38.7711 92.4348 39.6843 90.7608C40.4205 89.4111 40.5601 88.2318 40.5767 87.6373C40.5826 87.4255 40.7781 87.2747 40.9857 87.3161C46.3976 88.393 51.122 86.6298 52.895 85.8266C53.2736 85.6551 53.7178 85.8318 53.8744 86.2169C54.4508 87.6344 55.6325 88.5417 56.2495 88.9389C56.4946 89.0967 56.6199 89.3874 56.575 89.6753C56.2468 91.7762 55.4593 93.7149 55.0837 94.5577C54.9698 94.8132 54.7702 95.0242 54.513 95.1338C53.2522 95.6714 52.8141 96.7299 52.662 97.4002C52.5918 97.7094 52.8228 98.0042 53.1397 98.0042H57.7213C57.9409 98.0042 58.1403 97.8701 58.2194 97.6653C58.4904 96.9648 58.3442 96.353 58.2063 96.0072C58.1167 95.7822 58.1028 95.5355 58.1644 95.3013L59.7153 89.4083C59.7872 89.1351 59.8015 88.8502 59.7574 88.5711L59.3882 86.2326Z" fill="#E3E4E5"/>
<path d="M34.2777 97.7381C34.2688 97.7098 34.2629 97.6805 34.2611 97.6501C34.2607 97.6457 34.2593 97.6414 34.2593 97.6369C34.2586 97.6085 34.2613 97.5794 34.2677 97.5503C34.3821 97.021 34.7203 96.1541 35.7179 95.6472C35.8784 95.5658 35.988 95.4096 36.003 95.2304C36.0944 94.1474 36.3497 90.3646 35.7306 87.657C35.6727 87.4044 35.4787 87.2066 35.2271 87.1447C34.7097 87.0174 33.7544 86.7187 32.7899 86.0928C32.8761 87.1532 33.8401 89.4628 33.3531 95.2304C33.3379 95.4096 33.2283 95.5658 33.068 95.6472C32.0702 96.1541 31.7323 97.021 31.6178 97.5503C31.5673 97.7842 31.7501 98.004 31.9895 98.004H34.6394C34.4669 98.0038 34.3254 97.8892 34.2777 97.7381Z" fill="#E3E4E5"/>
<path d="M56.2502 88.9387C56.1211 88.8557 55.9665 88.7489 55.7987 88.6211L55.7989 88.6213C55.3768 89.4821 54.6518 90.1659 53.7638 90.5387C53.3859 92.2932 52.7578 93.8318 52.4344 94.5575C52.3205 94.813 52.1209 95.024 51.8636 95.1336C50.6028 95.6712 50.1647 96.7297 50.0126 97.4C49.9425 97.7092 50.1735 98.004 50.4904 98.004H53.1404C52.8234 98.004 52.5925 97.7092 52.6627 97.4C52.8148 96.7295 53.2529 95.6712 54.5137 95.1336C54.7709 95.024 54.9707 94.813 55.0844 94.5575C55.46 93.7147 56.2475 91.776 56.5757 89.6751C56.6206 89.3872 56.4953 89.0963 56.2502 88.9387Z" fill="#E3E4E5"/>
<path d="M58.2186 97.6649C58.4896 96.9643 58.3434 96.3525 58.2056 96.0067C58.1738 95.9269 58.1551 95.8441 58.1422 95.7605C56.6674 95.8573 55.2795 95.1548 54.8423 94.9077C54.7477 95.0023 54.637 95.0802 54.512 95.1336C53.2513 95.6711 52.8132 96.7296 52.6611 97.3999C52.5909 97.7092 52.8219 98.0039 53.1388 98.0039H57.7204C57.9399 98.0035 58.1395 97.8695 58.2186 97.6649Z" fill="#52565B"/>
<path d="M39.4198 97.7322C39.693 96.7576 39.3813 96.0747 39.2286 95.8185C39.2125 95.7916 39.2009 95.7627 39.1883 95.7343C37.8579 95.993 36.517 95.5834 35.9633 95.3779C35.9162 95.4924 35.8302 95.5888 35.7164 95.6464C34.7186 96.1533 34.3807 97.0202 34.2663 97.5495C34.2157 97.7834 34.3985 98.0032 34.638 98.0032H39.056C39.2236 98.0034 39.3745 97.8936 39.4198 97.7322Z" fill="#52565B"/>
<path d="M52.6625 97.3995C52.7807 96.8789 53.0731 96.1255 53.7872 95.5624C53.0435 95.3573 52.4522 95.0531 52.1939 94.9072C52.0993 95.0018 51.9886 95.0797 51.8636 95.1331C50.6028 95.6706 50.1647 96.7291 50.0126 97.3995C49.9425 97.7087 50.1735 98.0034 50.4904 98.0034H53.1404C52.8232 98.0033 52.5923 97.7085 52.6625 97.3995Z" fill="#52565B"/>
<path d="M34.2677 97.5497C34.3705 97.0743 34.6555 96.327 35.4355 95.8123C34.5193 95.778 33.713 95.5259 33.3149 95.3779C33.2678 95.4924 33.1817 95.5888 33.068 95.6464C32.0702 96.1533 31.7323 97.0202 31.6178 97.5495C31.5673 97.7834 31.7501 98.0032 31.9895 98.0032H34.6394C34.4 98.0034 34.217 97.7836 34.2677 97.5497Z" fill="#52565B"/>
<path d="M36.0207 73.5996C35.4173 74.9916 33.8871 75.7928 32.3618 75.4249C32.23 75.3931 32.1038 75.3508 31.9802 75.304C31.3404 76.2365 30.3771 76.7501 29.458 76.5284C29.4418 76.5244 29.4262 76.5187 29.4102 76.5144C29.5333 78.1621 29.5833 79.927 29.9679 81.9269C29.9997 82.0918 30.038 82.25 30.0793 82.405C30.2707 82.4382 30.4665 82.4564 30.6657 82.4567C32.6851 82.4614 34.2145 80.8503 34.2945 78.9936C34.329 78.1926 34.7712 77.4692 35.4571 77.0539C36.5747 76.3771 37.224 75.1203 36.6912 74.1975C36.5311 73.9199 36.2967 73.726 36.0207 73.5996Z" fill="#52565B"/>
<path d="M46.1205 75.9119C46.4463 76.6947 47.2185 77.2451 48.1193 77.2451C49.3706 77.2451 50.2852 76.217 50.2852 75.0789C50.2852 74.6175 50.5855 74.221 51.0204 74.0675C52.2379 73.6374 53.095 72.4461 53.0169 71.0639C53.002 70.8026 52.9513 70.5494 52.8719 70.3086C51.0382 70.4832 48.827 70.7812 46.1318 71.062C44.7857 71.2021 43.5826 71.1639 42.5101 71.0009C42.4693 71.1823 42.4391 71.3676 42.428 71.5581C42.3218 73.3816 43.6056 74.9437 45.3382 75.2479C45.6974 75.3108 45.9802 75.575 46.1205 75.9119Z" fill="#52565B"/>
<path d="M61.1823 74.6944C60.2501 74.608 59.4245 75.1007 59.023 75.855C58.8881 76.1085 58.6238 76.2654 58.338 76.294C56.6745 76.4602 55.4062 77.8659 55.4062 79.5419C55.4062 80.9982 56.3594 82.2299 57.6757 82.6517C57.9806 82.7494 58.2043 83.0188 58.253 83.3351C58.3646 84.0607 58.9479 84.6371 59.6852 84.7367C61.5715 80.2062 61.549 76.789 61.1823 74.6944Z" fill="#52565B"/>
<path d="M46.3646 80.3658C45.7346 80.2701 45.2065 79.8593 44.8721 79.3167C44.5286 78.7597 43.912 78.3936 43.2177 78.3936C41.8564 78.3936 40.9714 79.7322 41.3688 80.9365C41.4545 81.1963 41.4615 81.4805 41.3371 81.724C41.1842 82.0236 41.0977 82.3624 41.0977 82.722C41.0977 84.005 42.184 85.0028 43.4317 84.9259C43.7086 84.9088 43.9811 84.9894 44.193 85.1685C44.7259 85.6186 45.4323 85.8692 46.1986 85.8032C47.5472 85.6868 48.6262 84.5651 48.691 83.2131C48.7617 81.7383 47.6891 80.5668 46.3646 80.3658Z" fill="#52565B"/>
<path d="M30.834 67.3326C31.3947 65.0089 30.1829 62.7228 28.1271 62.2269C27.2127 62.0062 26.2856 62.1778 25.4883 62.6398C24.2266 64.0862 23.5104 65.967 24.0306 67.9626C24.2566 68.8293 24.6508 69.5126 25.1359 70.054C25.1377 70.049 25.1386 70.0441 25.1403 70.0391C25.6447 68.6428 27.0938 67.7735 28.5638 67.9817C29.2188 68.0745 29.7881 68.3568 30.2373 68.7585C30.5026 68.3339 30.7079 67.8548 30.834 67.3326Z" fill="#52565B"/>
<path d="M45.1958 64.3932C43.7977 63.2521 42.1731 63.2472 40.9925 63.9688C40.3207 64.3795 39.4697 64.4959 38.8125 64.5141C39.2342 65.4355 39.4998 66.44 39.5414 67.4403C42.6575 68.7054 44.6693 66.111 45.315 65.0905C45.4596 64.8618 45.4054 64.5642 45.1958 64.3932Z" fill="#F98080"/>
<path d="M24.6405 63.8258C24.6481 63.8124 24.6556 63.7988 24.6633 63.7854C24.718 63.691 24.7747 63.5978 24.834 63.5058C24.8397 63.4969 24.8458 63.488 24.8517 63.4791C24.909 63.3909 24.9684 63.3037 25.0298 63.2179C25.0354 63.21 25.0407 63.2022 25.0464 63.1943C25.1114 63.1043 25.1786 63.0158 25.2475 62.9285C25.2559 62.9179 25.2644 62.9074 25.2728 62.8969C25.6652 62.4061 26.1203 61.9601 26.6145 61.5701C26.038 61.2542 25.3335 60.7624 24.9229 60.0906C24.2013 58.91 22.7533 58.1734 20.9887 58.5513C20.7241 58.6079 20.5402 58.848 20.5647 59.1174C20.6739 60.32 21.2813 63.5464 24.6312 63.8416C24.6342 63.8366 24.6373 63.8311 24.6405 63.8258Z" fill="#F98080"/>
<path d="M38.8119 64.5137C39.4691 64.4955 40.3201 64.3791 40.9919 63.9685C41.2133 63.8332 41.4502 63.7234 41.6983 63.642C41.7249 63.6332 41.7523 63.627 41.779 63.6189C42.4417 62.8804 42.6026 61.8429 42.5571 60.8669C42.5283 60.2533 41.7489 60.035 41.3998 60.5406C40.4774 61.8772 38.6859 62.3539 37.5508 62.524C38.0462 63.1053 38.4775 63.7834 38.8119 64.5137Z" fill="#F4DBCE"/>
<path d="M24.9224 60.0913C25.333 60.7631 26.0373 61.2547 26.614 61.5707C27.2438 61.0737 27.9362 60.6672 28.6413 60.3758C27.7087 59.7072 26.3294 58.465 26.1177 56.8533C26.0377 56.2442 25.2443 56.0829 24.939 56.616C24.4541 57.4626 24.1244 58.4575 24.3752 59.4155C24.5864 59.6174 24.7712 59.8438 24.9224 60.0913Z" fill="#F4DBCE"/>
<path d="M63.536 82.1036C63.9539 79.5964 66.6304 72.4812 60.0586 71.8042C60.398 72.2239 60.6538 72.71 60.8236 73.2274C60.8754 73.3852 60.9287 73.5634 60.9809 73.7602C61.8931 74.074 62.7408 74.8256 62.7408 76.5386C62.7408 79.9833 61.2938 83.8088 62.2182 87.0251C62.3368 87.4373 62.7753 87.6687 63.1868 87.5477L63.1893 87.547C63.6029 87.4254 63.8357 86.9928 63.7184 86.5779C63.4751 85.7176 63.1952 84.1478 63.536 82.1036Z" fill="#E3E4E5"/>
<path d="M45.1958 64.3932C43.7977 63.2521 42.1731 63.2472 40.9925 63.9688C40.3207 64.3795 39.4697 64.4959 38.8125 64.5141C39.0237 64.9756 39.1965 65.4578 39.3209 65.9501C39.9312 65.9575 40.6312 65.8004 41.3894 65.3367C43.0368 64.3298 44.5336 64.5682 45.3911 64.8654C45.4093 64.6906 45.3409 64.5116 45.1958 64.3932Z" fill="#E3E4E5"/>
<path d="M26.6165 61.5705C26.0401 61.2547 25.3356 60.7629 24.925 60.0911C24.2034 58.9105 22.7553 58.1739 20.9908 58.5518C20.8076 58.5911 20.6649 58.7191 20.6016 58.883C21.5003 59.0096 22.941 59.48 23.9481 61.1274C24.4115 61.8858 24.9628 62.3448 25.5091 62.6167C25.8444 62.2354 26.218 61.8849 26.6165 61.5705Z" fill="#E3E4E5"/>
<path d="M30.562 74.1871C30.3496 73.8877 29.9572 73.7931 29.6316 73.9625C29.0744 74.2528 28.4301 74.3781 27.7734 74.2953C27.9193 75.4139 28.5418 76.3073 29.4591 76.5287C30.3798 76.7508 31.3451 76.235 31.9849 75.2995C31.3984 75.0685 30.91 74.6773 30.562 74.1871Z" fill="#E3E4E5"/>
<path d="M30.5525 74.1851C30.34 73.8858 29.9476 73.7911 29.622 73.9606C29.3274 74.1139 29.008 74.2198 28.6758 74.2746C28.9264 74.8193 29.2888 75.1869 29.7461 75.2972C30.2125 75.4098 30.713 75.2385 31.1932 74.8521C30.9467 74.6613 30.7308 74.4365 30.5525 74.1851Z" fill="#FD605B"/>
<path d="M55.7984 88.6212C55.1641 88.1383 54.3304 87.3378 53.8744 86.2166C53.7178 85.8316 53.2736 85.6548 52.895 85.8264C52.0041 86.23 50.3676 86.8758 48.2734 87.2821C48.4779 89.2857 50.1701 90.8489 52.2276 90.8489C53.796 90.8487 55.1518 89.9404 55.7984 88.6212Z" fill="#FD605B"/>
<path d="M36.2631 72.7236C36.451 71.2509 35.5578 69.8164 34.1547 69.3313C33.2823 69.0296 32.3884 69.1271 31.6478 69.5117C31.3195 69.6822 30.9259 69.5872 30.7115 69.2856C30.2278 68.6056 29.4768 68.1113 28.5625 67.9819C27.0925 67.7737 25.6434 68.6429 25.1391 70.0392C24.4833 71.8543 25.557 73.7835 27.3801 74.2234C28.1558 74.4105 28.9324 74.2942 29.5883 73.9527C29.914 73.7831 30.3064 73.8779 30.5188 74.1773C30.9468 74.7806 31.585 75.2381 32.3605 75.4252C34.1837 75.8651 36.0189 74.6379 36.2631 72.7236Z" fill="#F98080"/>
<path d="M57.7224 98.4498H53.1409C52.8547 98.4498 52.5883 98.3216 52.4098 98.0982C52.2302 97.8733 52.1638 97.5827 52.2277 97.3008C52.3852 96.6068 52.869 95.3493 54.339 94.7226C54.485 94.6603 54.6052 94.537 54.6773 94.3754C55.0072 93.6351 55.8101 91.6882 56.1353 89.6059C56.1535 89.4893 56.1041 89.3747 56.0091 89.3136C55.3232 88.8721 54.0799 87.9043 53.4621 86.3845C53.4326 86.3118 53.3765 86.2561 53.3041 86.2272C53.2314 86.1983 53.152 86.2003 53.0804 86.2328C51.2747 87.0508 46.503 88.8287 41.019 87.7767C40.9853 88.4367 40.8103 89.6301 40.0773 90.9741C39.2152 92.5544 39.5056 95.0072 39.5726 95.4828C39.5774 95.5169 39.5912 95.5532 39.6133 95.5901C39.7916 95.8895 40.1714 96.7089 39.8509 97.853C39.7524 98.2045 39.4262 98.4501 39.0574 98.4501H34.639C34.3874 98.4501 34.1527 98.3378 33.9947 98.1418C33.8385 97.9479 33.7788 97.6978 33.8311 97.4555C33.9538 96.8889 34.3355 95.8484 35.5154 95.2489C35.5398 95.2366 35.5561 95.215 35.5579 95.1927C35.6487 94.1155 35.8987 90.3958 35.2952 87.7561C35.2751 87.6676 35.2079 87.5992 35.1201 87.5776C34.0073 87.3039 30.3154 86.0937 29.5302 82.0115C29.218 80.3878 29.1248 78.9485 29.0346 77.5563C29.0125 77.2148 28.9907 76.8792 28.9661 76.5482C28.9554 76.4039 29.015 76.2634 29.1264 76.1713C29.2378 76.079 29.3867 76.0463 29.5265 76.0838L29.5649 76.0951C30.2686 76.265 31.0543 75.8655 31.6128 75.0517C31.7292 74.8821 31.9466 74.8141 32.1391 74.887C32.2638 74.9343 32.3679 74.9675 32.4668 74.9912C33.2186 75.1724 34.0161 75.0255 34.6543 74.5877C35.3017 74.1437 35.7155 73.4662 35.8194 72.6802C35.8408 72.5181 35.9492 72.3808 36.1018 72.3222C36.7683 72.066 37.3621 71.6495 37.8664 71.0843C38.2208 70.6873 38.5039 70.2395 38.7082 69.7534C38.7562 69.639 38.8497 69.5497 38.9663 69.507C39.0832 69.4645 39.212 69.4724 39.3225 69.5286C41.26 70.5171 43.5359 70.8835 46.0871 70.618C47.3893 70.4823 48.6007 70.3399 49.6696 70.2142C54.949 69.5936 57.8578 69.2516 59.8571 70.9565C60.4839 71.491 60.9643 72.2281 61.2468 73.0881C61.8879 75.0407 62.5709 79.2214 59.9412 85.2839C59.8212 85.5604 59.7828 85.8641 59.8298 86.1626L60.199 88.501C60.2531 88.843 60.2358 89.1863 60.1476 89.5212L58.5967 95.4143C58.5588 95.558 58.5674 95.7056 58.6217 95.8415C58.7699 96.2134 58.9689 96.9658 58.6363 97.8258C58.4924 98.1991 58.1248 98.4498 57.7224 98.4498ZM53.1982 85.3135C53.3457 85.3135 53.4931 85.3417 53.6347 85.3981C53.9346 85.5178 54.1671 85.7488 54.2888 86.0483C54.8142 87.3407 55.8949 88.1787 56.4922 88.5631C56.8837 88.8152 57.0897 89.2786 57.0171 89.7437C56.6875 91.8532 55.9204 93.7789 55.4923 94.7389C55.3282 95.107 55.0429 95.3928 54.6889 95.5439C53.6392 95.9913 53.2444 96.8537 53.098 97.4984C53.0943 97.5146 53.0975 97.5291 53.1071 97.5414C53.1198 97.5573 53.135 97.5573 53.1407 97.5573H57.7223C57.7583 97.5573 57.7921 97.5352 57.8042 97.5038C58.0156 96.9571 57.9147 96.4778 57.7928 96.1719C57.6675 95.8572 57.6471 95.5167 57.7339 95.187L59.2847 89.2942C59.3412 89.0794 59.3522 88.8594 59.3178 88.6402L58.9486 86.302C58.8748 85.8359 58.9352 85.361 59.1226 84.9288C61.6349 79.1373 61.0007 75.1988 60.3991 73.3666C60.1679 72.6623 59.7803 72.0639 59.2785 71.6358C57.5755 70.1836 54.8046 70.5093 49.7742 71.1007C48.7027 71.2268 47.4882 71.3694 46.1799 71.5058C43.6327 71.7713 41.3311 71.441 39.3316 70.5245C39.1152 70.939 38.8476 71.3259 38.5327 71.6786C37.9932 72.2833 37.3644 72.7461 36.6608 73.0569C36.471 73.9768 35.9337 74.7929 35.1596 75.3238C34.313 75.9046 33.2554 76.0997 32.2578 75.8589C32.2206 75.8499 32.1833 75.8401 32.1453 75.8294C31.5213 76.5976 30.7083 77.0261 29.8946 77.0266C29.9051 77.1828 29.9153 77.3399 29.9255 77.4986C30.0139 78.8631 30.1053 80.274 30.407 81.8428C31.0731 85.3066 34.0741 86.4011 35.3334 86.7109C35.7508 86.8137 36.0695 87.1379 36.1654 87.5573C36.7977 90.3226 36.541 94.1581 36.4475 95.2677C36.4194 95.6008 36.2222 95.8915 35.9196 96.045C35.1572 96.4322 34.8479 97.0646 34.7238 97.5575H39.0056C39.2068 96.7761 38.9627 96.243 38.8462 96.0473C38.763 95.9079 38.7099 95.7599 38.6883 95.6074C38.5846 94.8705 38.3216 92.3281 39.2934 90.5467C39.9871 89.2749 40.1162 88.17 40.1316 87.6246C40.138 87.3935 40.2451 87.1786 40.4254 87.0347C40.6075 86.8894 40.8435 86.8321 41.0737 86.878C46.3538 87.9289 50.9712 86.2083 52.7115 85.4197C52.8677 85.3489 53.0329 85.3135 53.1982 85.3135Z" fill="black"/>
<path d="M52.2288 91.2949C49.9522 91.2949 48.0613 89.589 47.8304 87.3271C47.8071 87.0973 47.9627 86.8875 48.1895 86.8436C50.2879 86.4366 51.9237 85.7766 52.7119 85.4195C53.0067 85.286 53.3345 85.2783 53.6347 85.3981C53.9347 85.5177 54.1671 85.7487 54.2889 86.0483C54.7084 87.0802 55.4889 87.8237 56.0697 88.2658C56.2393 88.3948 56.2939 88.626 56.2 88.8174C55.4511 90.3456 53.9293 91.2949 52.2288 91.2949ZM48.7816 87.6338C49.1301 89.2371 50.5476 90.4022 52.2288 90.4022C53.4673 90.4022 54.5868 89.7713 55.2277 88.7342C54.6086 88.2108 53.8865 87.4281 53.4621 86.3846C53.4327 86.312 53.3766 86.2563 53.3041 86.2273C53.2314 86.1984 53.152 86.2004 53.0804 86.2329C52.1431 86.6574 50.6599 87.2314 48.7816 87.6338Z" fill="black"/>
<path d="M54.6141 91.2953C54.4504 91.2953 54.2927 91.2049 54.2145 91.0486L53.9496 90.5187C53.8393 90.2982 53.9287 90.0301 54.1492 89.9199C54.3697 89.8094 54.6378 89.899 54.748 90.1195L55.0129 90.6494C55.1232 90.8698 55.0338 91.138 54.8133 91.2481C54.7492 91.2801 54.6812 91.2953 54.6141 91.2953Z" fill="black"/>
<path d="M52.2398 91.8874C51.9975 91.8874 51.7988 91.6937 51.7937 91.4503L51.7814 90.8578C51.7762 90.6114 51.9718 90.4076 52.2184 90.4024C52.4639 90.3988 52.6686 90.5929 52.6738 90.8394L52.6861 91.432C52.6913 91.6783 52.4956 91.8822 52.2491 91.8874C52.2461 91.8874 52.2428 91.8874 52.2398 91.8874Z" fill="black"/>
<path d="M49.8172 91.2817C49.7431 91.2817 49.6683 91.2632 49.599 91.2244C49.384 91.1037 49.3076 90.8317 49.4283 90.6167L49.7525 90.0393C49.8732 89.8244 50.1453 89.7482 50.3602 89.8687C50.5752 89.9894 50.6516 90.2614 50.5309 90.4764L50.2067 91.0537C50.1249 91.1998 49.9732 91.2817 49.8172 91.2817Z" fill="black"/>
<path d="M48.1617 89.432C47.9955 89.432 47.836 89.3388 47.7591 89.1791C47.6522 88.957 47.7457 88.6902 47.9678 88.5835L48.5155 88.32C48.7378 88.2134 49.0043 88.3066 49.1111 88.5287C49.218 88.7508 49.1245 89.0175 48.9024 89.1242L48.3547 89.3878C48.2924 89.4177 48.2265 89.432 48.1617 89.432Z" fill="black"/>
<path d="M57.7216 98.4501H53.1401C52.8539 98.4501 52.5875 98.3219 52.409 98.0986C52.2294 97.8736 52.163 97.583 52.2269 97.3011C52.3844 96.6071 52.8682 95.3496 54.3382 94.723C54.4062 94.6939 54.4701 94.6499 54.5278 94.5923C54.6695 94.4505 54.8884 94.4205 55.0632 94.5191C55.4338 94.7285 56.7483 95.4042 58.1144 95.3151C58.3458 95.3019 58.55 95.4644 58.5848 95.6934C58.5943 95.7554 58.6059 95.8025 58.6216 95.8418C58.7698 96.2137 58.9688 96.966 58.6362 97.8259C58.4916 98.1994 58.124 98.4501 57.7216 98.4501ZM58.2197 97.6649H58.2215H58.2197ZM54.8896 95.4388C54.8252 95.4792 54.7581 95.5144 54.6884 95.544C53.6387 95.9916 53.2438 96.854 53.0974 97.4987C53.0936 97.5149 53.0969 97.5294 53.1065 97.5417C53.1192 97.5576 53.1343 97.5576 53.1401 97.5576H57.7216C57.7577 97.5576 57.7914 97.5355 57.8036 97.5041C58.0051 96.9829 57.9226 96.5227 57.8089 96.216C56.5935 96.2035 55.4966 95.7482 54.8896 95.4388Z" fill="black"/>
<path d="M39.0571 98.4498H34.6389C34.3873 98.4498 34.1526 98.3375 33.9946 98.1415C33.8384 97.9476 33.7787 97.6975 33.831 97.4553C33.9537 96.8886 34.3354 95.8481 35.5153 95.2487C35.537 95.2376 35.5474 95.2187 35.5517 95.2083C35.6431 94.9857 35.8943 94.8761 36.1198 94.9596C36.607 95.1405 37.8731 95.5359 39.1042 95.2963C39.3084 95.2567 39.512 95.3627 39.5968 95.552L39.6159 95.5952C39.7914 95.8894 40.1711 96.7087 39.8505 97.8528C39.7521 98.2044 39.4257 98.4498 39.0571 98.4498ZM34.7239 97.5572H39.0057C39.1624 96.9486 39.049 96.4908 38.9362 96.2256C37.8215 96.36 36.7482 96.1042 36.1242 95.9051C36.0626 95.9599 35.9939 96.007 35.9195 96.0447C35.1573 96.4319 34.8477 97.0645 34.7239 97.5572Z" fill="black"/>
<path d="M34.6364 98.4499H31.9865C31.735 98.4499 31.5002 98.3376 31.3422 98.1415C31.186 97.9477 31.1264 97.6975 31.1787 97.4553C31.3013 96.8885 31.6834 95.848 32.8629 95.2487C32.8874 95.2364 32.9036 95.2148 32.9056 95.1921C33.2796 90.7626 32.7792 88.3748 32.5105 87.0921C32.4284 86.7001 32.3634 86.3903 32.3422 86.1284C32.3284 85.9588 32.4121 85.7962 32.5582 85.709C32.7044 85.6219 32.8872 85.6253 33.0298 85.7178C33.9521 86.316 34.8674 86.5965 35.3311 86.7106C35.7485 86.8134 36.0671 87.1376 36.163 87.557C36.7954 90.3224 36.5386 94.1579 36.4451 95.2674C36.4171 95.6006 36.2198 95.8912 35.9172 96.0447C35.1509 96.4341 34.8423 97.0711 34.7196 97.5651C34.9265 97.604 35.0829 97.7856 35.0829 98.0037C35.0826 98.2501 34.8828 98.4499 34.6364 98.4499ZM32.0715 97.5572H33.8132C33.8163 97.5231 33.8214 97.4889 33.8288 97.4548C33.9512 96.8886 34.3331 95.848 35.513 95.2487C35.5374 95.2364 35.5537 95.2148 35.5555 95.1924C35.6464 94.1152 35.8963 90.3956 35.2929 87.7559C35.2727 87.6673 35.2056 87.5989 35.1177 87.5773C34.7437 87.4854 34.106 87.2962 33.3919 86.9461C33.6718 88.2823 34.1765 90.7496 33.795 95.2674C33.7668 95.6007 33.5694 95.8914 33.2669 96.0447C32.505 96.4318 32.1954 97.0645 32.0715 97.5572Z" fill="black"/>
<path d="M53.1416 98.4502H50.4915C50.2053 98.4502 49.939 98.3222 49.7606 98.0989C49.581 97.8739 49.5146 97.5833 49.5784 97.3014C49.7358 96.6075 50.2196 95.3497 51.6896 94.7231C51.7576 94.694 51.8216 94.6499 51.8794 94.5922C52.021 94.4505 52.24 94.4205 52.4146 94.5192C52.6244 94.6378 53.1896 94.935 53.9069 95.1328C54.0692 95.1776 54.1926 95.3097 54.2258 95.4749C54.2592 95.6398 54.1967 95.8096 54.0646 95.9137C53.4546 96.3945 53.2026 97.0411 53.0987 97.4988C53.095 97.5151 53.0982 97.5295 53.1078 97.5419C53.1205 97.5578 53.1357 97.5578 53.1414 97.5578C53.388 97.5578 53.5877 97.7575 53.5877 98.0041C53.5877 98.2506 53.3881 98.4502 53.1416 98.4502ZM52.2418 95.4385C52.1772 95.4792 52.1097 95.5143 52.0399 95.5441C50.9902 95.9917 50.5952 96.8542 50.4489 97.4988C50.4451 97.5151 50.4483 97.5295 50.458 97.5419C50.4706 97.5578 50.4856 97.5578 50.4913 97.5578H52.2056C52.2016 97.4728 52.209 97.3867 52.2282 97.3014C52.328 96.8617 52.5342 96.2868 52.9604 95.758C52.6713 95.6459 52.4259 95.5315 52.2418 95.4385ZM52.6637 97.4001H52.6655H52.6637Z" fill="black"/>
<path d="M34.6364 98.45H31.9865C31.735 98.45 31.5002 98.3377 31.3422 98.1417C31.186 97.9478 31.1264 97.6977 31.1787 97.4554C31.3013 96.8886 31.6834 95.8481 32.8629 95.2488C32.8847 95.2377 32.8952 95.2186 32.8995 95.2081C32.9911 94.9858 33.2421 94.8759 33.4676 94.9598C33.8395 95.0979 34.5916 95.3345 35.4494 95.3665C35.6433 95.3738 35.8102 95.5053 35.8625 95.6921C35.9147 95.8788 35.8404 96.0781 35.6785 96.185C35.0786 96.5808 34.8257 97.1394 34.7196 97.5648C34.9265 97.6038 35.0829 97.7855 35.0829 98.0037C35.0827 98.2502 34.883 98.45 34.6364 98.45ZM34.7012 97.6441V97.6445C34.701 97.6443 34.7012 97.6443 34.7012 97.6441ZM32.0715 97.5573H33.8132C33.8163 97.5234 33.8214 97.4895 33.8288 97.4556C33.8982 97.1344 34.0592 96.6299 34.4284 96.1464C34.056 96.0773 33.7286 95.9874 33.4717 95.9051C33.4101 95.9599 33.3416 96.0068 33.2671 96.0447C32.505 96.4319 32.1954 97.0646 32.0715 97.5573ZM34.2649 97.55H34.2667H34.2649Z" fill="black"/>
<path d="M53.1416 98.4503H50.4915C50.2053 98.4503 49.939 98.3223 49.7606 98.0989C49.581 97.874 49.5146 97.5833 49.5784 97.3014C49.7358 96.6075 50.2196 95.3498 51.6896 94.7231C51.8357 94.6608 51.9558 94.5375 52.0279 94.3759C52.3561 93.6395 52.9615 92.1495 53.3287 90.4447C53.3594 90.3022 53.4578 90.1837 53.5922 90.1271C54.3818 89.7958 55.0236 89.1911 55.3993 88.4247C55.458 88.3049 55.5674 88.2176 55.6972 88.1867C55.8274 88.1562 55.9641 88.1851 56.0702 88.266C56.211 88.3731 56.3569 88.4759 56.4927 88.5632C56.8842 88.8153 57.0903 89.2787 57.0176 89.7438C56.688 91.8533 55.9209 93.7791 55.4928 94.739C55.3287 95.1071 55.0434 95.393 54.6894 95.544C53.6397 95.9914 53.245 96.8539 53.0986 97.4987C53.0948 97.5149 53.098 97.5294 53.1077 97.5415C53.1203 97.5574 53.1355 97.5574 53.1412 97.5574C53.3878 97.5574 53.5875 97.7572 53.5875 98.0038C53.5875 98.2503 53.3881 98.4503 53.1416 98.4503ZM54.1522 90.8535C53.7652 92.544 53.1712 94.0031 52.8433 94.7392C52.6792 95.1073 52.3937 95.3931 52.0399 95.5442C50.9902 95.9916 50.5954 96.854 50.449 97.4989C50.4453 97.5151 50.4485 97.5296 50.4581 97.5417C50.4708 97.5576 50.4858 97.5576 50.4915 97.5576H52.2057C52.2018 97.4726 52.2091 97.3866 52.2284 97.3012C52.3859 96.6073 52.8697 95.3498 54.3397 94.7231C54.4857 94.6608 54.6059 94.5375 54.678 94.3759C55.0079 93.6355 55.8108 91.6887 56.136 89.6063C56.1542 89.4899 56.1048 89.3752 56.01 89.3141C55.9882 89.3 55.9663 89.2857 55.9443 89.2712C55.5049 89.9507 54.8856 90.499 54.1522 90.8535Z" fill="black"/>
<path d="M30.6753 82.9037C30.6721 82.9037 30.6691 82.9037 30.6659 82.9037C30.4473 82.9031 30.2247 82.8835 30.0042 82.8453C29.8327 82.8155 29.694 82.6887 29.6492 82.5204C29.5985 82.3304 29.5608 82.1687 29.5306 82.0116C29.2182 80.3875 29.125 78.9479 29.0347 77.5557C29.0125 77.2145 28.9907 76.8789 28.9661 76.5481C28.9552 76.4037 29.0154 76.2628 29.1271 76.1707C29.2389 76.0784 29.3887 76.0464 29.5283 76.0843L29.5654 76.0953C30.2695 76.2651 31.0549 75.8658 31.6131 75.052C31.7297 74.8824 31.9472 74.8144 32.1394 74.8872C32.2642 74.9346 32.3683 74.9678 32.4672 74.9915C33.7596 75.3032 35.0825 74.6437 35.6118 73.4226C35.6596 73.3125 35.7494 73.2262 35.8616 73.1834C35.9735 73.1405 36.0981 73.1443 36.2072 73.1944C36.5869 73.3683 36.8801 73.6308 37.0788 73.975C37.7074 75.0635 37.097 76.5838 35.6893 77.4363C35.1235 77.7787 34.7692 78.3684 34.7413 79.0132C34.6476 81.1966 32.8623 82.9035 30.6753 82.9037ZM30.4402 82.0016C30.5191 82.0078 30.598 82.0126 30.6753 82.011C32.3826 82.011 33.7762 80.6789 33.8496 78.975C33.8903 78.0309 34.4051 77.1703 35.2269 76.6727C36.1988 76.0843 36.6828 75.0742 36.3057 74.4213C36.2702 74.3599 36.2293 74.3036 36.1826 74.2526C35.3688 75.564 33.7976 76.2308 32.258 75.8593C32.2208 75.8504 32.1835 75.8406 32.1455 75.8299C31.5214 76.5981 30.7084 77.0265 29.8944 77.0271C29.905 77.1829 29.9152 77.3399 29.9253 77.4982C30.0139 78.8631 30.1053 80.2741 30.407 81.8432C30.4172 81.8946 30.4281 81.9469 30.4402 82.0016Z" fill="black"/>
<path d="M48.1203 77.6915C47.0622 77.6915 46.1158 77.0602 45.7095 76.0835C45.6202 75.8691 45.4529 75.7211 45.2619 75.6875C43.2752 75.3385 41.8658 73.5522 41.9834 71.5321C41.995 71.3318 42.0254 71.1261 42.0759 70.9026C42.1275 70.6741 42.3469 70.5249 42.5783 70.5597C43.6762 70.7264 44.8566 70.7461 46.0867 70.6181C47.3876 70.4826 48.5975 70.3404 49.6648 70.2149C50.853 70.0753 51.8794 69.9548 52.8308 69.8643C53.0377 69.8447 53.2317 69.9711 53.2969 70.1689C53.3908 70.454 53.4469 70.7466 53.4635 71.0387C53.5497 72.5622 52.6067 73.9806 51.1701 74.4884C50.9043 74.5823 50.7325 74.8142 50.7325 75.0791C50.7325 76.5196 49.5607 77.6915 48.1203 77.6915ZM42.8809 71.5009C42.8782 71.5289 42.8762 71.5566 42.8744 71.5841C42.7832 73.1515 43.876 74.5376 45.4163 74.8083C45.9089 74.8949 46.3266 75.2434 46.5336 75.7406C46.8012 76.3834 47.4239 76.7989 48.1203 76.7989C49.0685 76.7989 49.8399 76.0273 49.8399 75.0789C49.8399 74.4403 50.2551 73.8648 50.8729 73.6466C51.9544 73.2644 52.6372 72.2368 52.5723 71.0892C52.5665 70.9896 52.5546 70.8896 52.5364 70.7902C51.7 70.8748 50.795 70.981 49.7688 71.1015C48.6987 71.2272 47.4858 71.3697 46.179 71.5059C45.0343 71.6251 43.927 71.6232 42.8809 71.5009Z" fill="black"/>
<path d="M59.6862 85.1831C59.6664 85.1831 59.6462 85.1818 59.6262 85.1791C58.7 85.054 57.9543 84.3236 57.8127 83.403C57.7894 83.2503 57.6824 83.1221 57.5405 83.0766C55.9976 82.5823 54.9609 81.1617 54.9609 79.5419C54.9609 77.6269 56.3942 76.0398 58.2946 75.85C58.4421 75.8352 58.5706 75.7568 58.63 75.6454C59.1342 74.6985 60.1525 74.1515 61.2244 74.2502C61.4249 74.2688 61.5881 74.4193 61.6227 74.6176C61.9956 76.7462 62.0337 80.2596 60.0979 84.9083C60.0279 85.0763 59.8642 85.1831 59.6862 85.1831ZM60.8018 75.1398C60.2202 75.1968 59.6985 75.5376 59.4177 76.0649C59.217 76.4418 58.8302 76.6935 58.3833 76.7383C56.941 76.8824 55.8536 78.0877 55.8536 79.5421C55.8536 80.7724 56.6411 81.8514 57.8129 82.2268C58.2744 82.3748 58.6208 82.7833 58.6952 83.2676C58.7597 83.6874 59.0419 84.0387 59.4215 84.204C61.022 80.1925 61.0844 77.1193 60.8018 75.1398Z" fill="black"/>
<path d="M45.9566 86.2604C45.2043 86.2604 44.4852 85.999 43.906 85.5098C43.7882 85.4104 43.6295 85.3626 43.4602 85.3718C42.7388 85.4172 42.0195 85.1555 41.4884 84.6561C40.9492 84.1493 40.6523 83.4625 40.6523 82.7225C40.6523 82.3006 40.7493 81.8968 40.9405 81.5217C41.021 81.3641 40.9785 81.1754 40.946 81.0768C40.7088 80.3579 40.8364 79.5561 41.2874 78.9323C41.7398 78.3066 42.4437 77.9478 43.2187 77.9478C44.0544 77.9478 44.8147 78.3721 45.253 79.083C45.5395 79.5477 45.9696 79.8546 46.4325 79.9249C48.0536 80.1711 49.2165 81.5942 49.1376 83.2349C49.0617 84.8166 47.8149 86.1122 46.2378 86.2482C46.1439 86.2563 46.05 86.2604 45.9566 86.2604ZM43.5058 84.4778C43.8691 84.4778 44.2125 84.6002 44.4819 84.8279C44.9502 85.2233 45.5461 85.412 46.1612 85.359C47.2952 85.2611 48.1916 84.3294 48.2462 83.192C48.303 82.0098 47.4657 80.9847 46.2986 80.8076C45.5758 80.6978 44.9177 80.2401 44.4932 79.5516C44.2186 79.1064 43.7421 78.8406 43.2187 78.8406C42.7336 78.8406 42.2934 79.0648 42.0108 79.4556C41.7271 79.848 41.646 80.3495 41.7937 80.7974C41.9251 81.1955 41.9045 81.597 41.7357 81.9277C41.6093 82.1757 41.545 82.4433 41.545 82.7227C41.545 83.2138 41.7421 83.6696 42.0998 84.0059C42.4523 84.3373 42.9277 84.5101 43.4052 84.4812C43.439 84.4788 43.4725 84.4778 43.5058 84.4778Z" fill="black"/>
<path d="M63.1887 93.3175C63.103 93.3175 63.0164 93.2979 62.936 93.2579C62.7341 93.1572 62.6136 92.9474 62.6288 92.7232C62.6354 92.6279 62.6017 92.4195 62.303 92.095C61.8369 91.5885 61.6714 90.9758 61.6239 90.4836C61.4662 90.5214 61.2993 90.4889 61.1638 90.3893C60.9887 90.2606 60.9053 90.0481 60.9462 89.835C61.0038 89.5358 60.9369 89.0427 60.906 88.8779C60.5511 87.261 61.3318 86.4456 61.829 86.1048C61.9525 86.0202 62.11 86.0031 62.2489 86.0593C62.3876 86.1154 62.489 86.2373 62.5188 86.384C62.557 86.5715 62.5981 86.7411 62.6445 86.9021C62.6677 86.9828 62.7222 87.0501 62.7975 87.0917C62.8777 87.1356 62.9698 87.146 63.0578 87.1199C63.2385 87.0669 63.3376 86.8827 63.2858 86.6999C63.2585 86.6031 63.2308 86.4963 63.2035 86.3833C63.1658 86.2271 63.2149 86.0629 63.332 85.9529C63.4491 85.8431 63.6161 85.8044 63.7698 85.8522C65.0589 86.2526 66.2426 87.588 65.6984 90.1351C65.6441 90.3893 65.4256 90.5666 65.1753 90.5768C65.0645 91.7067 64.1406 92.6741 63.5571 93.1797C63.4525 93.2706 63.3215 93.3175 63.1887 93.3175ZM61.9458 89.3945C62.0507 89.3945 62.1557 89.424 62.2473 89.4824C62.4176 89.5909 62.516 89.7836 62.5045 89.9848C62.4881 90.2709 62.4997 90.9906 62.9598 91.4906C63.1503 91.6976 63.2927 91.9045 63.3867 92.1103C63.8308 91.6435 64.348 90.9408 64.2893 90.2434C64.2745 90.0683 64.3398 89.9001 64.4684 89.782C64.5817 89.6777 64.7304 89.6259 64.8813 89.637C64.9809 88.9527 65.0163 87.7196 64.1654 87.0453C64.0751 87.4756 63.7587 87.8444 63.3122 87.9756C62.9923 88.0695 62.6577 88.0333 62.3676 87.874C62.1505 87.7548 61.9793 87.5773 61.8702 87.3624C61.693 87.7148 61.6626 88.1622 61.7806 88.7003C61.7915 88.7576 61.8458 89.0573 61.8585 89.4013C61.8876 89.3967 61.9167 89.3945 61.9458 89.3945ZM65.206 89.6889H65.2066C65.2064 89.6891 65.2062 89.6889 65.206 89.6889Z" fill="black"/>
<path d="M62.9595 88.0265C62.7543 88.0265 62.5521 87.9749 62.3676 87.8737C62.0822 87.7169 61.8758 87.4593 61.7865 87.1485C61.1852 85.0562 61.5393 82.7374 61.8815 80.4949C62.0831 79.1746 62.2916 77.8094 62.2916 76.5386C62.2916 75.2907 61.8144 74.52 60.833 74.1824C60.6921 74.134 60.5849 74.0187 60.5466 73.8746C60.5001 73.6988 60.4495 73.5277 60.3967 73.3665C60.2385 72.8852 60.0071 72.4539 59.7086 72.0849C59.5953 71.9445 59.5774 71.7501 59.6633 71.5914C59.7492 71.4329 59.9223 71.342 60.1014 71.3602C61.8699 71.5425 63.1664 72.1938 63.9547 73.2962C65.5008 75.458 64.7353 78.7804 64.2286 80.9789C64.1202 81.4494 64.0267 81.8555 63.973 82.1769C63.638 84.1876 63.9367 85.7213 64.1447 86.4565C64.328 87.1049 63.9546 87.7864 63.312 87.9753C63.1958 88.0095 63.0771 88.0265 62.9595 88.0265ZM61.3482 73.4242C62.2332 73.7982 63.1844 74.6416 63.1844 76.5386C63.1844 77.877 62.9707 79.2763 62.7641 80.6297C62.4364 82.7771 62.0973 84.9976 62.6447 86.902C62.6679 86.9826 62.7224 87.05 62.7977 87.0914C62.8779 87.1353 62.97 87.1456 63.058 87.1196C63.2387 87.0666 63.3378 86.8823 63.286 86.6995C63.0071 85.7137 62.7472 84.1032 63.0926 82.0301C63.1507 81.6818 63.2471 81.2632 63.3588 80.7784C63.8294 78.7363 64.5407 75.6497 63.2287 73.8155C62.7311 73.1198 61.9867 72.6553 60.9674 72.4085C61.0744 72.6249 61.167 72.8518 61.2445 73.0882C61.2804 73.1969 61.315 73.3092 61.3482 73.4242Z" fill="black"/>
<path d="M33.1071 75.9599C32.8234 75.9599 32.5385 75.9265 32.2584 75.859C31.4095 75.6542 30.6633 75.1487 30.1573 74.4354C30.0736 74.3172 29.9254 74.2817 29.797 74.3485C29.0215 74.7525 28.1271 74.8621 27.278 74.6572C26.277 74.4156 25.4229 73.7567 24.9348 72.8494C24.4471 71.9428 24.3694 70.8633 24.722 69.8874C25.2996 68.2884 26.9431 67.3007 28.6277 67.54C29.626 67.6812 30.496 68.2093 31.0776 69.0268C31.1631 69.1469 31.314 69.1835 31.4447 69.1153C32.3352 68.6531 33.3505 68.5801 34.3031 68.9095C35.912 69.4658 36.9235 71.0934 36.7084 72.7799C36.5772 73.8092 36.0157 74.7346 35.168 75.319C34.5573 75.7399 33.8364 75.9599 33.1071 75.9599ZM29.932 73.4214C30.3001 73.4214 30.6566 73.5965 30.8852 73.9191C31.2663 74.4563 31.8283 74.8371 32.4676 74.9914C33.2221 75.1736 34.0217 75.0249 34.6614 74.5841C35.3098 74.1371 35.7222 73.4564 35.8229 72.6671C35.9848 71.3976 35.223 70.172 34.0114 69.7532C33.2926 69.5045 32.5269 69.5593 31.856 69.9076C31.3281 70.1816 30.6949 70.0288 30.3501 69.5441C29.912 68.9282 29.2559 68.5304 28.5025 68.4237C27.2319 68.2444 25.9962 68.9869 25.5613 70.1908C25.291 70.939 25.3476 71.7331 25.7207 72.4265C26.0888 73.1106 26.7328 73.6074 27.4874 73.7895C28.1267 73.9438 28.8005 73.8611 29.3846 73.5567C29.5603 73.4653 29.7478 73.4214 29.932 73.4214Z" fill="black"/>
<path d="M29.8913 77.0264C29.7106 77.0264 29.5301 77.0054 29.3514 76.9624C28.2793 76.7037 27.504 75.7037 27.328 74.3528C27.3101 74.2157 27.3567 74.0781 27.4544 73.9802C27.5518 73.8824 27.6895 73.8353 27.8264 73.8524C28.3777 73.9222 28.9301 73.8231 29.4225 73.5668C29.9488 73.2924 30.5797 73.445 30.9232 73.9288C31.2284 74.3592 31.6512 74.6895 32.1455 74.8841C32.2719 74.9339 32.3687 75.0385 32.4087 75.1683C32.4487 75.2983 32.4273 75.4392 32.3505 75.5513C31.7056 76.4939 30.7991 77.0264 29.8913 77.0264ZM28.3265 74.7632C28.5434 75.464 28.9906 75.9571 29.5608 76.0947C30.1391 76.2341 30.7696 75.9919 31.2857 75.4531C30.8573 75.1972 30.4861 74.8555 30.1951 74.4451C30.1114 74.3271 29.9634 74.2912 29.8349 74.3583C29.3632 74.604 28.8504 74.7408 28.3265 74.7632Z" fill="black"/>
<path d="M29.8913 77.0264C29.7106 77.0264 29.5301 77.0054 29.3514 76.9624C28.2793 76.7037 27.504 75.7037 27.328 74.3528C27.3101 74.2157 27.3567 74.0781 27.4544 73.9802C27.5518 73.8824 27.6895 73.8353 27.8264 73.8524C28.3777 73.9222 28.9301 73.8231 29.4225 73.5668C29.9488 73.2924 30.5797 73.445 30.9232 73.9288C31.2284 74.3592 31.6512 74.6895 32.1455 74.8841C32.2719 74.9339 32.3687 75.0385 32.4087 75.1683C32.4487 75.2983 32.4273 75.4392 32.3505 75.5513C31.7056 76.4939 30.7991 77.0264 29.8913 77.0264ZM28.3265 74.7632C28.5434 75.464 28.9906 75.9571 29.5608 76.0947C30.1391 76.2341 30.7696 75.9919 31.2857 75.4531C30.8573 75.1972 30.4861 74.8555 30.1951 74.4451C30.1114 74.3271 29.9634 74.2912 29.8349 74.3583C29.3632 74.604 28.8504 74.7408 28.3265 74.7632Z" fill="black"/>
<path d="M27.6162 71.637C27.479 71.637 27.3437 71.5739 27.2562 71.455C27.0466 71.1698 26.974 70.809 27.057 70.4651C27.132 70.1543 27.3235 69.8911 27.5963 69.7244C27.8691 69.5577 28.191 69.5073 28.5015 69.5821C28.8123 69.6571 29.0753 69.8487 29.242 70.1214C29.4089 70.3944 29.4595 70.7158 29.3843 71.0266C29.3264 71.2662 29.0856 71.4142 28.8457 71.3558C28.6061 71.2979 28.4586 71.0569 28.5165 70.8172C28.5356 70.7381 28.5227 70.6565 28.4802 70.587C28.4377 70.5176 28.3708 70.4689 28.2917 70.4498C28.2126 70.4308 28.131 70.4435 28.0614 70.486C27.992 70.5285 27.9432 70.5954 27.9241 70.6745C27.903 70.762 27.9214 70.8538 27.9748 70.9264C28.1209 71.1249 28.0782 71.4043 27.8797 71.5504C27.8006 71.6088 27.7081 71.637 27.6162 71.637Z" fill="black"/>
<path d="M33.5358 73.0658C33.3721 73.0658 33.2146 72.9755 33.1363 72.8191C33.0259 72.5988 33.1152 72.3306 33.3357 72.2203C33.4164 72.1799 33.4749 72.1066 33.496 72.0191C33.5149 71.9402 33.5022 71.8582 33.4598 71.7888C33.4173 71.7193 33.3505 71.6706 33.2714 71.6515C33.1921 71.6324 33.1104 71.6454 33.0411 71.6877C32.9717 71.7302 32.9229 71.797 32.9038 71.8761C32.846 72.1157 32.6053 72.2635 32.3652 72.2053C32.1256 72.1474 31.9782 71.9064 32.036 71.6667C32.111 71.3559 32.3025 71.0929 32.5753 70.9261C32.8481 70.7594 33.17 70.7089 33.4805 70.7838C33.7913 70.8588 34.0543 71.0504 34.221 71.3232C34.3877 71.596 34.4383 71.9175 34.3633 72.2283C34.2804 72.5722 34.0512 72.8601 33.7347 73.0185C33.671 73.0506 33.6029 73.0658 33.5358 73.0658Z" fill="black"/>
<path d="M36.2628 73.1852C36.1638 73.1852 36.0662 73.1523 35.9862 73.0891C35.8625 72.9915 35.7995 72.836 35.8204 72.6798C35.8213 72.6733 35.8227 72.6644 35.8241 72.656C35.978 71.3869 35.2176 70.1702 34.0113 69.753C33.292 69.5043 32.5265 69.5593 31.8558 69.9074C31.3281 70.1814 30.6948 70.0286 30.3501 69.5441C29.9118 68.9282 29.2557 68.5302 28.5023 68.4237C27.2348 68.2444 26.0029 68.9828 25.5648 70.1805C25.5625 70.1882 25.5598 70.1963 25.5579 70.2018C25.5057 70.3507 25.3786 70.461 25.2238 70.4919C25.0691 70.5228 24.9095 70.4694 24.8043 70.3518C24.2323 69.713 23.827 68.9469 23.5998 68.0753C22.9564 65.6072 24.0068 63.0239 26.4096 61.1649C28.6369 59.4419 31.2918 58.9306 33.0166 59.8931C33.2812 60.0407 33.5814 60.1132 33.8837 60.1023C35.8536 60.0302 37.9872 61.6982 39.1836 64.2474C40.4742 66.9976 40.2311 69.7756 38.5327 71.6788C37.9329 72.3509 37.2229 72.8478 36.4225 73.1554C36.3709 73.1754 36.3165 73.1852 36.2628 73.1852ZM33.1064 68.7061C33.5072 68.7061 33.9103 68.7736 34.3029 68.9092C35.6693 69.3816 36.6048 70.6269 36.7239 72.0247C37.1425 71.7819 37.5253 71.4672 37.867 71.0843C39.3195 69.4566 39.5096 67.0426 38.3758 64.6264C37.3455 62.4314 35.5086 60.9369 33.9156 60.9942C33.4509 61.0101 32.9889 60.8994 32.5819 60.6723C31.1872 59.8943 28.8737 60.387 26.9561 61.8706C24.8452 63.5036 23.9134 65.739 24.4637 67.8497C24.5931 68.3462 24.7902 68.8007 25.0517 69.2076C25.7944 68.0188 27.1951 67.3368 28.6275 67.5396C29.6258 67.6808 30.4958 68.2089 31.0774 69.0264C31.1629 69.1463 31.3138 69.1828 31.4445 69.1149C31.9679 68.8434 32.5346 68.7061 33.1064 68.7061Z" fill="black"/>
<path d="M25.1368 70.5005C25.0111 70.5005 24.8899 70.4475 24.8044 70.3518C24.2324 69.7131 23.8271 68.947 23.5999 68.0754C23.0887 66.1152 23.6404 64.0807 25.1531 62.3466C25.1852 62.3097 25.2232 62.2784 25.2655 62.2538C26.1899 61.718 27.2438 61.5543 28.2328 61.793C30.5244 62.3461 31.8864 64.878 31.2687 67.4374C31.1345 67.9935 30.9152 68.5175 30.6167 68.995C30.5469 69.1066 30.4314 69.1818 30.3011 69.2003C30.1709 69.2187 30.0388 69.1791 29.9406 69.0912C29.5373 68.7306 29.04 68.5 28.5021 68.4237C27.2354 68.2454 26.0027 68.9831 25.5647 70.1806C25.5624 70.1883 25.5597 70.1963 25.5578 70.2019C25.5057 70.3508 25.3785 70.4611 25.2238 70.492C25.195 70.4977 25.1657 70.5005 25.1368 70.5005ZM25.7765 62.9902C24.5009 64.482 24.0346 66.2053 24.4634 67.8501C24.5928 68.3466 24.7899 68.8011 25.0515 69.208C25.7942 68.0192 27.1949 67.3372 28.6272 67.54C29.1558 67.6148 29.6554 67.8026 30.0965 68.0897C30.2266 67.8162 30.3286 67.5279 30.4009 67.2281C30.9029 65.1474 29.8364 63.0986 28.0233 62.6609C27.2808 62.4814 26.4856 62.5985 25.7765 62.9902ZM30.8349 67.3327H30.8367H30.8349Z" fill="black"/>
<path d="M41.1863 68.2276C40.6271 68.2276 40.0228 68.1169 39.3746 67.8538C39.2124 67.7879 39.1037 67.6336 39.0964 67.4589C39.0589 66.5568 38.8208 65.6027 38.4076 64.6997C38.3453 64.5635 38.3555 64.4052 38.4346 64.278C38.5137 64.1509 38.6513 64.072 38.8011 64.0679C39.3622 64.0524 40.1578 63.9565 40.7606 63.588C42.2262 62.6922 44.0341 62.8686 45.479 64.0476C45.8642 64.3621 45.9562 64.9131 45.693 65.3292C45.204 66.1024 43.6335 68.2276 41.1863 68.2276ZM39.9698 67.1231C42.5898 68.0077 44.3091 65.8473 44.9389 64.8518C44.9614 64.8163 44.9512 64.7688 44.9148 64.739C43.7726 63.8067 42.3594 63.6573 41.2264 64.3496C40.6767 64.6856 40.0308 64.8434 39.4627 64.9131C39.7364 65.6432 39.9089 66.3938 39.9698 67.1231Z" fill="black"/>
<path d="M39.3619 66.3966C39.3467 66.3966 39.3317 66.3966 39.3165 66.3964C39.1143 66.3939 38.9388 66.2558 38.8891 66.0596C38.7738 65.6036 38.6119 65.146 38.4076 64.6997C38.3453 64.5635 38.3555 64.4053 38.4346 64.278C38.5137 64.1509 38.6513 64.072 38.8011 64.0679C39.3622 64.0524 40.1578 63.9565 40.7606 63.588C42.2262 62.6922 44.0341 62.8686 45.479 64.0476H45.4791C45.7371 64.2584 45.8705 64.5815 45.836 64.912C45.8217 65.0475 45.7466 65.1691 45.6316 65.2423C45.5166 65.3153 45.3745 65.3319 45.246 65.2873C44.3964 64.9929 43.0783 64.8283 41.6233 65.7177C40.8856 66.1683 40.1249 66.3964 39.3619 66.3966ZM39.4627 64.9129C39.5347 65.1039 39.5997 65.2962 39.6573 65.4888C40.1572 65.4381 40.6605 65.2596 41.1575 64.9557C42.1792 64.3314 43.1551 64.1547 43.9636 64.1654C43.0458 63.7864 42.0601 63.8398 41.2262 64.3494C40.6766 64.6854 40.0308 64.8433 39.4627 64.9129Z" fill="black"/>
<path d="M24.6324 64.2888C24.6194 64.2888 24.6063 64.2882 24.5931 64.287C20.846 63.9567 20.2229 60.2781 20.1212 59.1586C20.0766 58.6682 20.4099 58.2199 20.8962 58.1158C22.7193 57.7248 24.4089 58.3931 25.3049 59.8586C25.6734 60.4615 26.3377 60.9096 26.8299 61.1793C26.9613 61.2513 27.0477 61.3843 27.0602 61.5335C27.0727 61.6828 27.0095 61.8283 26.8919 61.9211C26.4134 62.2987 25.9864 62.7209 25.6223 63.1762C25.622 63.1767 25.6115 63.1897 25.6111 63.1903L25.5981 63.2063C25.5336 63.2879 25.4704 63.3711 25.4094 63.4557L25.0307 63.2183L25.3938 63.4779C25.3363 63.5584 25.2806 63.64 25.2267 63.7228C25.226 63.7241 25.2174 63.7369 25.2166 63.7382C25.1546 63.834 25.1016 63.921 25.0507 64.0092L25.0345 64.0377C25.0334 64.0397 25.0286 64.0485 25.0273 64.0504L25.0207 64.0619C24.9413 64.2027 24.7924 64.2888 24.6324 64.2888ZM24.6415 63.8262L24.634 63.8219L24.6415 63.8262L24.634 63.8221L24.6415 63.8262ZM21.9 58.9001C21.6344 58.9001 21.3611 58.9292 21.0831 58.9886C21.037 58.9986 21.0063 59.0361 21.0101 59.0779C21.1167 60.2512 21.6613 62.9571 24.396 63.3654C24.4169 63.3317 24.4382 63.2981 24.4598 63.2645L24.4732 63.2442C24.5392 63.1426 24.6024 63.0501 24.6676 62.9589L24.6854 62.9336C24.754 62.8386 24.825 62.7447 24.8981 62.6522L24.9164 62.6293C25.2014 62.273 25.5149 61.9395 25.8555 61.6298C25.3817 61.3086 24.879 60.8737 24.543 60.324C23.9844 59.4098 23.0124 58.9001 21.9 58.9001Z" fill="black"/>
<path d="M25.5062 63.0632C25.4389 63.0632 25.3709 63.048 25.3075 63.0164C24.6105 62.6697 24.0241 62.1125 23.5643 61.3604C22.6751 59.9055 21.427 59.4507 20.5365 59.3252C20.4015 59.3062 20.2828 59.2266 20.2137 59.1091C20.1448 58.9917 20.1332 58.849 20.1825 58.7221C20.3025 58.4122 20.5687 58.1854 20.8945 58.1158C22.7171 57.7248 24.4072 58.3931 25.303 59.8586C25.6715 60.4615 26.3358 60.9096 26.828 61.1793C26.9594 61.2513 27.0458 61.3843 27.0583 61.5335C27.0708 61.6828 27.0076 61.8283 26.8901 61.9211C26.5047 62.2253 26.1519 62.5585 25.8413 62.9116C25.7545 63.0103 25.6315 63.0632 25.5062 63.0632ZM22.189 58.9117C22.9159 59.2687 23.7016 59.8732 24.3261 60.8948C24.6298 61.3918 24.9961 61.7803 25.418 62.0534C25.5573 61.9083 25.7028 61.7669 25.8538 61.6294C25.38 61.3084 24.8772 60.8733 24.5414 60.3238C24.0319 59.4901 23.1787 58.9929 22.189 58.9117Z" fill="black"/>
<path d="M38.8126 64.9603C38.6383 64.9603 38.4796 64.8588 38.4068 64.6997C38.094 64.0159 37.6809 63.3639 37.2121 62.8139C37.1069 62.6905 37.0769 62.5199 37.1339 62.3679C37.1908 62.216 37.3254 62.1071 37.4858 62.083C38.4473 61.9389 40.1869 61.514 41.0336 60.2874C41.3041 59.8955 41.7718 59.7263 42.2253 59.8561C42.6763 59.9851 42.9819 60.3738 43.0039 60.8463C43.0651 62.1564 42.7652 63.1897 42.1123 63.9172C42.0573 63.9784 41.9866 64.0232 41.9077 64.0468L41.8386 64.0663C41.6242 64.1368 41.418 64.2319 41.2254 64.3496C40.4547 64.8207 39.4945 64.9416 38.8249 64.96C38.821 64.9603 38.8167 64.9603 38.8126 64.9603ZM38.3536 62.8275C38.6273 63.2118 38.8727 63.6216 39.0873 64.0534C39.6122 64.0145 40.2538 63.8974 40.76 63.588C41.0008 63.4409 41.258 63.3204 41.5253 63.2299C41.962 62.6848 42.1594 61.8977 42.1123 60.8879C42.1066 60.7682 42.0268 60.7276 41.9797 60.7141C41.9306 60.7001 41.8386 60.6921 41.7681 60.7942C40.9528 61.9755 39.5704 62.5499 38.3536 62.8275Z" fill="black"/>
<path d="M26.6159 62.0167C26.5425 62.0167 26.4688 61.9985 26.4015 61.9618C25.814 61.6401 25.0147 61.0947 24.5436 60.3238C24.4148 60.1133 24.2551 59.916 24.0685 59.7375C24.0089 59.6804 23.9662 59.6079 23.9453 59.5281C23.6981 58.584 23.9028 57.5295 24.5536 56.3937C24.7889 55.983 25.238 55.7765 25.6983 55.8674C26.161 55.9586 26.5002 56.3226 26.5622 56.7946C26.7562 58.2734 28.1123 59.4456 28.9032 60.0126C29.035 60.107 29.1051 60.2656 29.0866 60.4266C29.068 60.5876 28.9636 60.726 28.8136 60.7878C28.1464 61.0634 27.4821 61.4551 26.8923 61.9205C26.8121 61.9844 26.7143 62.0167 26.6159 62.0167ZM24.7826 59.1885C24.9838 59.3947 25.1593 59.6195 25.3053 59.8582C25.6145 60.3643 26.1321 60.7612 26.5816 61.035C26.9689 60.7492 27.3736 60.4968 27.7915 60.2799C26.8341 59.4775 25.8643 58.3351 25.6774 56.911C25.6611 56.788 25.5755 56.7532 25.5256 56.7434C25.4771 56.7339 25.388 56.7336 25.3285 56.8377C24.8262 57.7144 24.6428 58.5046 24.7826 59.1885Z" fill="black"/>
<path d="M36.5791 68.4525C36.545 68.4525 36.5102 68.4486 36.4754 68.4404C36.2356 68.3832 36.0875 68.1428 36.1444 67.9028C36.1756 67.7716 36.1539 67.6361 36.0832 67.5213C36.0125 67.4063 35.9013 67.326 35.7702 67.2948C35.639 67.2635 35.5033 67.2853 35.3885 67.356C35.2737 67.4267 35.1932 67.5379 35.162 67.6691C35.1048 67.9089 34.8645 68.0573 34.6244 68.0001C34.3847 67.943 34.2365 67.7025 34.2934 67.4626C34.472 66.7129 35.2264 66.2477 35.9764 66.4264C36.3395 66.5126 36.6473 66.7354 36.843 67.0534C37.0387 67.3712 37.0988 67.7463 37.0124 68.1096C36.964 68.3145 36.781 68.4525 36.5791 68.4525Z" fill="black"/>
<path d="M28.9054 66.6031C28.8708 66.6031 28.8354 66.5992 28.8005 66.5907C28.5609 66.5328 28.4134 66.2916 28.4712 66.052C28.5028 65.921 28.4816 65.7853 28.4113 65.6703C28.3409 65.5554 28.2299 65.4745 28.0988 65.4429C27.9678 65.4113 27.8323 65.4325 27.7171 65.5029C27.602 65.5732 27.5213 65.6843 27.4897 65.8153C27.4319 66.0549 27.19 66.2022 26.9511 66.1445C26.7115 66.0867 26.5642 65.8457 26.6219 65.6059C26.7095 65.2429 26.9331 64.9359 27.2515 64.7413C27.57 64.5465 27.9455 64.4876 28.3081 64.5753C28.671 64.6629 28.9781 64.8864 29.1727 65.2049C29.3673 65.5234 29.4264 65.8987 29.3387 66.2614C29.2896 66.4659 29.1068 66.6031 28.9054 66.6031Z" fill="black"/>
<path d="M30.0365 75.7779C29.9035 75.7779 29.7721 75.7623 29.6424 75.7311C29.0635 75.5915 28.5895 75.1523 28.2714 74.4612C28.2132 74.3348 28.2173 74.1882 28.2826 74.0654C28.3478 73.9424 28.4668 73.8569 28.6041 73.8342C28.8908 73.7869 29.1643 73.6962 29.417 73.5646C29.9434 73.2906 30.5744 73.4429 30.9177 73.9267C31.0707 74.1424 31.2558 74.3352 31.4677 74.4994C31.5755 74.583 31.6395 74.7115 31.6407 74.8481C31.642 74.9847 31.5805 75.1144 31.4741 75.2C30.9989 75.5822 30.5088 75.7779 30.0365 75.7779ZM29.3752 74.554C29.5021 74.6987 29.6599 74.817 29.852 74.8634C30.0607 74.9138 30.2726 74.8699 30.4655 74.7852C30.3666 74.677 30.2746 74.5628 30.1898 74.4434C30.1061 74.3253 29.9579 74.2896 29.8295 74.3564C29.6826 74.4328 29.531 74.4987 29.3752 74.554Z" fill="black"/>
</g>
<g clip-path="url(#clip2_798_3845)">
<path d="M58.5469 69.6467L59.3825 69.7401C60.7294 69.8908 61.9273 70.6635 62.6175 71.8271L63.3814 66.8096L58.5469 69.6467Z" fill="#F95A66"/>
<path d="M60.1003 68.9325L59.8176 68.9009L58.5469 69.6466L59.3825 69.74C60.7294 69.8907 61.9273 70.6634 62.6175 71.827L62.8425 70.3492C62.1408 69.5632 61.1679 69.0518 60.1003 68.9325Z" fill="#ED3252"/>
<path d="M65.038 59.8783C65.5999 59.5502 66.4395 59.8788 67.2081 60.6371C67.4374 59.308 68.0769 58.3511 68.8307 58.3511C69.5845 58.3511 70.224 59.308 70.4533 60.6371C71.2219 59.8789 72.0614 59.5502 72.6234 59.8783C73.4429 60.3568 73.3618 62.0502 72.4426 63.6608C71.5232 65.2713 70.1137 66.1889 69.2942 65.7104C69.0761 65.5831 68.9224 65.369 68.8307 65.0939C68.739 65.3689 68.5853 65.583 68.3672 65.7104C67.5477 66.1889 66.1382 65.2713 65.2189 63.6608C64.2995 62.0503 64.2185 60.3568 65.038 59.8783Z" fill="#F95A66"/>
<path d="M66.8339 63.6607C66.0001 62.2001 65.856 60.6711 66.4478 60.0424C65.9229 59.7356 65.4172 59.657 65.038 59.8784C64.2185 60.3569 64.2995 62.0504 65.2189 63.6608C66.1382 65.2713 67.5477 66.189 68.3672 65.7105C68.4432 65.6661 68.5108 65.6106 68.5712 65.5463C67.9623 65.1899 67.3275 64.5254 66.8339 63.6607Z" fill="#ED3252"/>
<path d="M99.4627 76.4032C99.4627 75.18 98.4144 74.1059 96.8332 73.4903C98.2065 72.0526 98.7533 70.3692 98.0658 69.1813C97.3908 68.0152 95.7065 67.6389 93.8146 68.0677C94.0195 66.465 93.6035 65.0967 92.5768 64.5055C90.9173 63.5497 88.293 64.9849 86.7151 67.7112C86.0847 68.8005 85.7175 69.9307 85.6088 70.9566C74.1168 72.1183 76.0669 63.7666 68.8663 63.7666C65.3136 63.7666 62.4336 66.6679 62.4336 70.2469C62.4336 73.8149 65.2963 76.7087 68.8341 76.7262V76.7924C68.8341 84.0461 74.7287 89.9263 82.0001 89.9263C87.7605 89.9263 91.1776 87.1075 93.1948 83.9949C94.0476 82.6792 94.6798 81.2522 95.0893 79.7675C97.5979 79.4022 99.4627 78.035 99.4627 76.4032Z" fill="#E9FFFB"/>
<path d="M83.2562 88.5805C76.2362 88.5805 70.4993 83.0997 70.1112 76.1935C70.0876 75.7742 69.7812 75.4264 69.3675 75.3546C67.6424 75.0555 63.4447 73.8211 63.6898 68.9009C63.7586 67.5182 64.1221 66.2346 64.8562 65.1816C63.3803 66.3691 62.4336 68.196 62.4336 70.2468C62.4336 73.8148 65.2963 76.7087 68.8341 76.7262V76.7923C68.8341 84.046 74.7287 89.9263 82.0001 89.9263C86.9642 89.9263 90.187 87.8323 92.2745 85.2616C90.2122 87.1789 87.3171 88.5805 83.2562 88.5805Z" fill="white"/>
<path d="M88.0552 76.3359C88.4028 76.3359 88.6847 76.0536 88.6847 75.7053C88.6847 75.357 88.4028 75.0747 88.0552 75.0747C87.7076 75.0747 87.4258 75.357 87.4258 75.7053C87.4258 76.0536 87.7076 76.3359 88.0552 76.3359Z" fill="#333333"/>
<path d="M71.0357 84.0278C71.3833 84.0278 71.6651 83.7455 71.6651 83.3972C71.6651 83.0489 71.3833 82.7666 71.0357 82.7666C70.6881 82.7666 70.4062 83.0489 70.4062 83.3972C70.4062 83.7455 70.6881 84.0278 71.0357 84.0278Z" fill="#333333"/>
<path d="M92.9597 77.8957C92.6967 77.8957 92.4667 77.7028 92.4276 77.4349C92.3847 77.1407 92.5885 76.8674 92.8827 76.8245C93.115 76.7906 93.3497 76.7635 93.5982 76.7346C94.5832 76.6205 95.6015 76.5023 96.2789 75.9794C96.5143 75.7978 96.8525 75.8412 97.0341 76.0765C97.2158 76.3119 97.1722 76.65 96.937 76.8316C96.0228 77.5374 94.8005 77.6791 93.7222 77.8042C93.4817 77.8321 93.2546 77.8584 93.038 77.89C93.0117 77.8939 92.9855 77.8957 92.9597 77.8957Z" fill="#333333"/>
<path d="M88.0548 73.9534C88.0358 73.9534 88.0166 73.9524 87.9973 73.9504C87.7016 73.919 87.4873 73.6539 87.5187 73.3582L87.5285 73.2651C87.7815 70.8749 88.1281 67.6016 90.9508 66.4709C91.2268 66.3603 91.5402 66.4944 91.6508 66.7704C91.7613 67.0464 91.6273 67.3598 91.3513 67.4703C89.1306 68.3599 88.836 71.1426 88.5993 73.3784L88.5895 73.4718C88.5601 73.7482 88.3266 73.9534 88.0548 73.9534Z" fill="#333333"/>
<path d="M66.3064 69.3793C66.7151 69.3793 67.0464 68.9753 67.0464 68.477C67.0464 67.9787 66.7151 67.5747 66.3064 67.5747C65.8977 67.5747 65.5664 67.9787 65.5664 68.477C65.5664 68.9753 65.8977 69.3793 66.3064 69.3793Z" fill="#333333"/>
<path d="M62.5797 71.7505L62.6514 75.1352C62.6654 75.7961 62.2891 76.4101 61.674 76.7299C60.4268 77.3783 58.8935 76.5479 58.8638 75.2078C58.8458 74.3949 59.2891 73.6346 60.0274 73.2118L62.5797 71.7505Z" fill="#F95A66"/>
<path d="M60.0303 75.0282C60.0122 74.2154 60.4556 73.455 61.1939 73.0322L61.9118 72.6212V72.1328L60.0275 73.2117C59.2891 73.6344 58.8459 74.3948 58.8638 75.2077C58.8931 76.5312 60.3891 77.3567 61.6276 76.752C60.7737 76.6219 60.0506 75.9444 60.0303 75.0282Z" fill="#ED3252"/>
<path d="M97.7132 73.3303C98.9206 71.7994 99.2395 70.1605 98.5319 68.9354C97.8386 67.7349 96.2908 67.1871 94.4023 67.4363C94.4321 65.8827 93.8733 64.6455 92.8459 64.0526C90.8995 62.9291 88.0017 64.427 86.249 67.4622C85.6835 68.4412 85.3019 69.4782 85.1334 70.4871C79.1951 70.9797 77.2087 68.7795 75.2864 66.6494C74.5136 65.7932 73.7269 64.9226 72.6971 64.2753C73.4513 63.1191 74.5597 60.3858 72.8943 59.4132C72.2992 59.0656 71.5385 59.1712 70.7679 59.6831C70.3763 58.5233 69.6616 57.8125 68.8301 57.8125C67.9986 57.8125 67.2839 58.5233 66.8924 59.6831C66.1219 59.1711 65.3612 59.0658 64.766 59.4132C63.054 60.4129 64.2416 63.217 65.0456 64.3946C64.2449 64.926 63.5592 65.6195 63.0335 66.4278V66.3899L58.2747 69.1826C57.8376 69.439 57.9838 70.1256 58.4873 70.182L59.3229 70.2754C60.2829 70.3827 61.165 70.8614 61.7832 71.5868L59.7607 72.7448C58.1529 73.6655 57.7343 76.1114 59.4738 77.1411C61.025 78.0596 63.2305 77.0088 63.1905 75.124L63.1735 74.3184C64.335 75.9759 66.1871 77.1094 68.3027 77.2815C68.3501 78.7555 68.6308 80.1971 69.1389 81.5738C69.2192 81.7913 69.4249 81.926 69.6441 81.926C69.7059 81.926 69.769 81.9152 69.8303 81.8925C70.1093 81.7896 70.252 81.4799 70.149 81.2011C69.6336 79.8046 69.3723 78.3347 69.3723 76.8324V76.7661C69.3723 76.4698 69.1329 76.2292 68.8366 76.2277C65.8897 76.2129 63.4444 73.9929 63.0335 71.1264V69.4171C63.4455 66.5369 65.9036 64.3166 68.8662 64.3166C71.7309 64.3166 73.0081 65.7319 74.4871 67.3707C76.3031 69.3831 78.3333 71.6339 83.5253 71.6336C84.1845 71.6335 84.8957 71.5972 85.6629 71.5195C85.9165 71.4939 86.1172 71.2939 86.144 71.0405C86.2494 70.0443 86.6081 68.9933 87.1814 68.0007C88.584 65.5719 90.9316 64.191 92.3077 64.9851C93.1009 65.443 93.4647 66.5777 93.2805 68.0206C93.2342 68.3856 93.5749 68.6954 93.9338 68.6136C95.6356 68.2268 97.0744 68.5647 97.5995 69.4739C98.1379 70.4062 97.6841 71.8498 96.4434 73.1515C96.1834 73.4243 96.2864 73.8875 96.6374 74.0244C98.048 74.5748 98.9243 75.5013 98.9243 76.4421C98.9243 77.7562 97.2787 78.9502 95.0114 79.2812C94.7173 79.3242 94.5135 79.5975 94.5565 79.8918C94.5995 80.186 94.8732 80.3885 95.1671 80.3467C98.0132 79.9311 100.001 78.3255 100.001 76.4421C100.001 75.2097 99.159 74.0811 97.7132 73.3303ZM60.1404 69.3362L62.2338 68.1077C62.0201 68.7717 61.9023 69.4786 61.8961 70.2122C61.3779 69.8075 60.7809 69.506 60.1404 69.3362ZM61.4266 76.2524C59.6721 77.1644 58.6701 74.6102 60.2959 73.6791L62.0616 72.668L62.1141 75.1466C62.1238 75.6031 61.8603 76.0268 61.4266 76.2524ZM71.9744 63.3937C71.899 63.526 71.818 63.6517 71.7351 63.7742C69.9323 63.0206 67.7628 63.0552 65.9896 63.8692C65.8832 63.7183 65.781 63.5601 65.6859 63.3937C64.8311 61.8963 64.8917 60.5867 65.309 60.3431C65.6176 60.1626 66.2429 60.4413 66.8296 61.0202C67.1336 61.3202 67.6657 61.1493 67.7383 60.7284C67.9366 59.5772 68.4492 58.8892 68.8301 58.8892C69.2111 58.8892 69.7236 59.5772 69.9221 60.7284C69.9947 61.1492 70.5268 61.3203 70.8308 61.0202C71.4175 60.4414 72.0429 60.1627 72.3514 60.3431C72.7686 60.5867 72.8293 61.8963 71.9744 63.3937Z" fill="#333333"/>
<path d="M73.6838 80.3332C72.059 77.4251 73.7993 73.8418 77.0565 73.38C81.0854 72.8086 85.6368 79.0032 90.3245 79.429C89.6991 80.7734 88.8195 81.9788 87.728 82.9538C85.3495 85.0787 82.5886 85.6665 79.2875 84.7505C76.8184 84.0654 74.85 82.4205 73.6838 80.3332Z" fill="#E9FFFB"/>
<path d="M80.5435 83.4945C78.0744 82.8095 76.1059 81.1645 74.9398 79.0773C74.0052 77.4047 74.1856 75.5098 75.1258 74.1128C73.1912 75.4064 72.4209 78.0735 73.6836 80.3335C74.8498 82.4208 76.8182 84.0657 79.2873 84.7507C82.5883 85.6667 85.3492 85.0789 87.7278 82.954C88.0932 82.6276 88.4342 82.2749 88.7505 81.9003C86.4251 83.8593 83.7371 84.3807 80.5435 83.4945Z" fill="#D2F7F0"/>
<path d="M82.1095 83.2528C81.7955 83.2528 81.4734 83.2314 81.1418 83.1888C80.8469 83.1509 80.6385 82.8811 80.6763 82.5862C80.7143 82.2913 80.9844 82.083 81.2788 82.1207C83.0047 82.3427 84.3739 81.9056 85.7181 80.7048C85.9397 80.5066 86.2801 80.5258 86.4782 80.7476C86.6762 80.9694 86.6571 81.3097 86.4353 81.5078C85.1162 82.6865 83.7224 83.2528 82.1095 83.2528Z" fill="#333333"/>
<path d="M67.1014 85.3075C66.9085 83.6922 65.5873 82.4419 63.9852 82.4419C62.2502 82.4419 60.8438 83.9076 60.8438 85.7157C60.8438 87.5182 62.2418 88.9802 63.9694 88.989V89.0224C63.9694 92.6869 66.848 95.6576 70.399 95.6576C73.2121 95.6576 74.8808 94.2335 75.8659 92.6611C76.9507 90.9295 77.3079 88.8173 76.9006 86.7988L76.8286 86.442L76.7092 86.5317C75.0045 87.8133 72.7152 87.8936 70.93 86.7344C69.7958 85.998 68.382 85.8884 67.154 86.4419L67.1014 85.3075Z" fill="#FFCF57"/>
<path d="M71.386 94.7605C67.9748 94.7605 65.184 92.019 64.9697 88.5546C64.9547 88.3118 64.7757 88.1118 64.5372 88.064C63.6551 87.8876 61.6988 87.2242 61.8307 84.8185C61.8711 84.0827 62.0645 83.4016 62.4588 82.8545C61.4956 83.4137 60.8438 84.4852 60.8438 85.7158C60.8438 87.5183 62.2418 88.9802 63.9694 88.9891V89.0226C63.9694 92.6871 66.848 95.6578 70.399 95.6578C72.6218 95.6578 74.1296 94.7684 75.1507 93.6196C74.2077 94.3026 72.9809 94.7605 71.386 94.7605Z" fill="#FFB81A"/>
<path d="M68.5983 90.0553C69.165 90.8832 70.0502 91.3692 71.0266 91.3884C71.0563 91.3891 71.086 91.3893 71.1157 91.3893C72.3861 91.3893 73.5747 90.8649 74.4624 89.9125C75.2596 89.0573 75.7183 88.1021 75.8385 87.0605C74.2757 87.8064 72.4268 87.7056 70.9315 86.7348C70.2879 86.3168 69.5543 86.1014 68.8157 86.0938C68.5693 86.3719 68.3651 86.6894 68.2287 87.0627C67.8629 88.0641 68.001 89.1828 68.5983 90.0553Z" fill="#FFEACC"/>
<path d="M63.3627 85.629C63.6105 85.629 63.8113 85.3879 63.8113 85.0906C63.8113 84.7933 63.6105 84.5522 63.3627 84.5522C63.1149 84.5522 62.9141 84.7933 62.9141 85.0906C62.9141 85.3879 63.1149 85.629 63.3627 85.629Z" fill="#333333"/>
<path d="M66.7237 89.1603C66.9551 89.1603 67.1427 88.9727 67.1427 88.7413C67.1427 88.5099 66.9551 88.3223 66.7237 88.3223C66.4923 88.3223 66.3047 88.5099 66.3047 88.7413C66.3047 88.9727 66.4923 89.1603 66.7237 89.1603Z" fill="white"/>
<path d="M67.8604 91.8083C68.0919 91.8083 68.2795 91.6207 68.2795 91.3892C68.2795 91.1578 68.0919 90.9702 67.8604 90.9702C67.629 90.9702 67.4414 91.1578 67.4414 91.3892C67.4414 91.6207 67.629 91.8083 67.8604 91.8083Z" fill="white"/>
<path d="M70.6925 93.1725C70.9239 93.1725 71.1115 92.9849 71.1115 92.7535C71.1115 92.5221 70.9239 92.3345 70.6925 92.3345C70.461 92.3345 70.2734 92.5221 70.2734 92.7535C70.2734 92.9849 70.461 93.1725 70.6925 93.1725Z" fill="white"/>
<path d="M74.9698 91.3893C75.2012 91.3893 75.3888 91.2017 75.3888 90.9703C75.3888 90.7389 75.2012 90.5513 74.9698 90.5513C74.7384 90.5513 74.5508 90.7389 74.5508 90.9703C74.5508 91.2017 74.7384 91.3893 74.9698 91.3893Z" fill="white"/>
<path d="M71.0502 90.1325C69.7956 90.1077 68.9492 88.7471 69.4072 87.4939C69.9736 85.9439 72.85 85.6094 73.8655 84.0317C74.1882 84.5324 74.4179 85.0946 74.5327 85.6844C74.7827 86.9698 74.4588 88.0726 73.5422 89.056C72.8566 89.7916 71.9507 90.1504 71.0502 90.1325Z" fill="#FFDD99"/>
<path d="M74.5345 85.6844C74.4198 85.0946 74.1901 84.5323 73.8674 84.0317C73.7382 84.2325 73.5786 84.4129 73.3978 84.5784C73.459 84.764 73.51 84.9533 73.5475 85.1461C73.7976 86.4314 73.4737 87.5342 72.557 88.5176C71.8714 89.2532 70.9655 89.612 70.065 89.5942C69.9801 89.5925 69.8973 89.5842 69.8164 89.5707C70.129 89.9058 70.5587 90.1227 71.052 90.1325C71.9525 90.1504 72.8584 89.7916 73.544 89.056C74.4606 88.0727 74.7846 86.9698 74.5345 85.6844Z" fill="#FFEACC"/>
<path d="M90.8142 85.3075C91.0071 83.6922 92.3283 82.4419 93.9304 82.4419C95.6654 82.4419 97.0719 83.9076 97.0719 85.7157C97.0719 87.5182 95.6738 88.9802 93.9462 88.989V89.0224C93.9462 92.6869 91.0676 95.6576 87.5167 95.6576C84.7035 95.6576 83.0348 94.2335 82.0497 92.6611C80.9649 90.9295 80.6077 88.8173 81.015 86.7988L81.087 86.442L81.2064 86.5317C82.9112 87.8133 85.2005 87.8936 86.9856 86.7344C88.1198 85.998 89.5336 85.8884 90.7617 86.4419L90.8142 85.3075Z" fill="#FFCF57"/>
<path d="M86.5303 94.7605C89.9415 94.7605 92.7323 92.019 92.9467 88.5546C92.9617 88.3118 93.1407 88.1118 93.3792 88.064C94.2613 87.8876 96.2175 87.2242 96.0856 84.8185C96.0452 84.0827 95.8518 83.4016 95.4575 82.8545C96.4207 83.4137 97.0726 84.4852 97.0726 85.7158C97.0726 87.5183 95.6745 88.9802 93.9469 88.9891V89.0226C93.9469 92.6871 91.0683 95.6578 87.5174 95.6578C85.2946 95.6578 83.7867 94.7684 82.7656 93.6196C83.7087 94.3026 84.9354 94.7605 86.5303 94.7605Z" fill="#FFB81A"/>
<path d="M89.3184 90.0553C88.7517 90.8832 87.8665 91.3692 86.8901 91.3884C86.8604 91.3891 86.8307 91.3893 86.801 91.3893C85.5305 91.3893 84.3419 90.8649 83.4543 89.9125C82.657 89.0573 82.1984 88.1021 82.0781 87.0605C83.641 87.8064 85.4899 87.7056 86.9852 86.7348C87.6287 86.3168 88.3623 86.1014 89.101 86.0938C89.3473 86.3719 89.5516 86.6894 89.688 87.0627C90.0538 88.0641 89.9157 89.1828 89.3184 90.0553Z" fill="#FFEACC"/>
<path d="M94.5541 85.629C94.8019 85.629 95.0027 85.3879 95.0027 85.0906C95.0027 84.7933 94.8019 84.5522 94.5541 84.5522C94.3063 84.5522 94.1055 84.7933 94.1055 85.0906C94.1055 85.3879 94.3063 85.629 94.5541 85.629Z" fill="#333333"/>
<path d="M91.1886 89.1603C91.42 89.1603 91.6076 88.9727 91.6076 88.7413C91.6076 88.5099 91.42 88.3223 91.1886 88.3223C90.9571 88.3223 90.7695 88.5099 90.7695 88.7413C90.7695 88.9727 90.9571 89.1603 91.1886 89.1603Z" fill="white"/>
<path d="M90.0518 91.8083C90.2833 91.8083 90.4709 91.6207 90.4709 91.3892C90.4709 91.1578 90.2833 90.9702 90.0518 90.9702C89.8204 90.9702 89.6328 91.1578 89.6328 91.3892C89.6328 91.6207 89.8204 91.8083 90.0518 91.8083Z" fill="white"/>
<path d="M87.2198 93.1725C87.4512 93.1725 87.6388 92.9849 87.6388 92.7535C87.6388 92.5221 87.4512 92.3345 87.2198 92.3345C86.9884 92.3345 86.8008 92.5221 86.8008 92.7535C86.8008 92.9849 86.9884 93.1725 87.2198 93.1725Z" fill="white"/>
<path d="M82.9425 91.3893C83.1739 91.3893 83.3615 91.2017 83.3615 90.9703C83.3615 90.7389 83.1739 90.5513 82.9425 90.5513C82.711 90.5513 82.5234 90.7389 82.5234 90.9703C82.5234 91.2017 82.711 91.3893 82.9425 91.3893Z" fill="white"/>
<path d="M84.3728 89.056C83.4562 88.0726 83.1322 86.9698 83.3823 85.6844C83.4971 85.0946 83.7268 84.5323 84.0495 84.0317C85.065 85.6094 87.9414 85.9438 88.5078 87.4939C88.9658 88.7471 88.1195 90.1077 86.8648 90.1325C85.9643 90.1504 85.0584 89.7916 84.3728 89.056Z" fill="#FFDD99"/>
<path d="M83.3823 85.6844C83.4971 85.0946 83.7268 84.5323 84.0494 84.0317C84.1786 84.2325 84.3382 84.4129 84.519 84.5784C84.4578 84.764 84.4068 84.9533 84.3693 85.1461C84.1192 86.4314 84.4431 87.5342 85.3598 88.5176C86.0454 89.2532 86.9513 89.612 87.8518 89.5942C87.9367 89.5925 88.0196 89.5842 88.1004 89.5707C87.7878 89.9058 87.3581 90.1227 86.8648 90.1325C85.9643 90.1504 85.0584 89.7916 84.3728 89.056C83.4562 88.0727 83.1322 86.9698 83.3823 85.6844Z" fill="#FFEACC"/>
<path d="M74.5563 96.1544C75.381 93.448 76.1162 92.2676 76.1162 92.2676C73.3086 92.4392 70.8192 93.3606 69.6714 95.7904C68.2672 93.3606 66.0343 92.4392 63.2267 92.2676C63.2267 92.2676 63.9619 93.448 64.7866 96.1544C63.5528 95.045 62.0903 94.5063 60.3398 94.3992C60.3398 94.3992 61.7818 96.7127 62.8927 99.2663H76.4502C77.561 96.7126 79.003 94.3992 79.003 94.3992C77.2525 94.5063 75.7901 95.045 74.5563 96.1544Z" fill="#77BC4D"/>
<path d="M74.5562 96.1544C75.381 93.448 76.1162 92.2676 76.1162 92.2676C73.3086 92.4393 70.8192 93.3606 69.6714 95.7904C68.2673 93.3606 66.0343 92.4392 63.2267 92.2676C63.2267 92.2676 63.9619 93.448 64.7866 96.1544C63.5528 95.045 62.0904 94.5063 60.3398 94.3991C60.3398 94.3991 61.7818 96.7126 62.8927 99.2663H64.4962C64.2131 98.6153 63.6238 97.4095 63.3284 96.8236C63.5002 96.9448 63.6661 97.0774 63.8268 97.2218C64.3064 97.653 65.0142 97.7116 65.558 97.3652C66.1018 97.0189 66.348 96.3526 66.16 95.7359C65.9808 95.1477 65.8052 94.6267 65.6386 94.1688C66.8785 94.6156 67.7749 95.3778 68.4285 96.5088C68.6958 96.9711 69.1985 97.2464 69.7308 97.2248C70.2644 97.2027 70.7416 96.8865 70.9696 96.4036C71.4789 95.3256 72.3852 94.5745 73.7162 94.1362C73.5462 94.6018 73.3665 95.1338 73.1831 95.7358C72.9951 96.3525 73.2412 97.0188 73.7851 97.3651C74.329 97.7115 75.0369 97.6529 75.5163 97.2218C75.677 97.0773 75.8429 96.9446 76.0147 96.8235C75.7193 97.4093 74.8981 98.6152 74.615 99.2662H76.4503C77.561 96.7126 79.003 94.3991 79.003 94.3991C77.2525 94.5063 75.7901 95.045 74.5562 96.1544Z" fill="#479838"/>
<path d="M72.2003 97.7142C72.4317 97.7142 72.6193 97.433 72.6193 97.0861C72.6193 96.7392 72.4317 96.458 72.2003 96.458C71.9689 96.458 71.7812 96.7392 71.7812 97.0861C71.7812 97.433 71.9689 97.7142 72.2003 97.7142Z" fill="#A2D962"/>
<path d="M67.1417 98.0599C67.3731 98.0599 67.5607 97.7787 67.5607 97.4318C67.5607 97.0849 67.3731 96.8037 67.1417 96.8037C66.9103 96.8037 66.7227 97.0849 66.7227 97.4318C66.7227 97.7787 66.9103 98.0599 67.1417 98.0599Z" fill="#A2D962"/>
<path d="M93.2203 96.1544C94.0451 93.448 94.7802 92.2676 94.7802 92.2676C91.9727 92.4392 89.4833 93.3606 88.3355 95.7904C86.9313 93.3606 84.6983 92.4392 81.8908 92.2676C81.8908 92.2676 82.6259 93.448 83.4507 96.1544C82.2168 95.045 80.7544 94.5063 79.0039 94.3992C79.0039 94.3992 80.4459 96.7127 81.5567 99.2663H95.1142C96.2251 96.7126 97.6671 94.3992 97.6671 94.3992C95.9166 94.5063 94.4542 95.045 93.2203 96.1544Z" fill="#77BC4D"/>
<path d="M93.2203 96.1544C94.0452 93.448 94.7803 92.2676 94.7803 92.2676C91.9728 92.4393 89.4834 93.3606 88.3356 95.7904C86.9315 93.3606 84.6984 92.4392 81.8909 92.2676C81.8909 92.2676 82.626 93.448 83.4508 96.1544C82.2169 95.045 80.7545 94.5063 79.0039 94.3991C79.0039 94.3991 80.4459 96.7126 81.5567 99.2663H83.1602C82.8771 98.6153 82.2878 97.4095 81.9924 96.8236C82.1643 96.9448 82.3302 97.0774 82.4909 97.2218C82.9705 97.653 83.6782 97.7116 84.2221 97.3652C84.7659 97.0189 85.012 96.3526 84.824 95.7359C84.6449 95.1477 84.4693 94.6267 84.3026 94.1688C85.5426 94.6156 86.4389 95.3778 87.0925 96.5088C87.3598 96.9711 87.8626 97.2464 88.3949 97.2248C88.9284 97.2027 89.4057 96.8865 89.6337 96.4036C90.143 95.3256 91.0493 94.5745 92.3803 94.1362C92.2103 94.6018 92.0305 95.1338 91.8471 95.7358C91.6592 96.3525 91.9053 97.0188 92.4491 97.3651C92.993 97.7115 93.701 97.6529 94.1803 97.2218C94.341 97.0773 94.5069 96.9446 94.6787 96.8235C94.3834 97.4093 93.5622 98.6152 93.2791 99.2662H95.1144C96.2252 96.7126 97.6672 94.3991 97.6672 94.3991C95.9166 94.5063 94.4543 95.045 93.2203 96.1544Z" fill="#479838"/>
<path d="M90.8643 97.7142C91.0958 97.7142 91.2834 97.433 91.2834 97.0861C91.2834 96.7392 91.0958 96.458 90.8643 96.458C90.6329 96.458 90.4453 96.7392 90.4453 97.0861C90.4453 97.433 90.6329 97.7142 90.8643 97.7142Z" fill="#A2D962"/>
<path d="M85.8057 98.0599C86.0372 98.0599 86.2248 97.7787 86.2248 97.4318C86.2248 97.0849 86.0372 96.8037 85.8057 96.8037C85.5743 96.8037 85.3867 97.0849 85.3867 97.4318C85.3867 97.7787 85.5743 98.0599 85.8057 98.0599Z" fill="#A2D962"/>
<path d="M97.6343 93.8618C96.3538 93.9401 95.2348 94.2396 94.2509 94.7707C94.8078 93.2578 95.2324 92.5602 95.2372 92.5522C95.4661 92.1847 95.1746 91.709 94.7474 91.7302C94.4699 91.7471 94.2001 91.7712 93.9374 91.8018C94.2332 91.0816 94.4202 90.3031 94.4711 89.4863C96.0216 89.2484 97.2619 88.0018 97.5486 86.4165L99.8205 84.8948L97.1441 83.8597C96.514 82.6938 95.3104 81.9035 93.9315 81.9035C92.0777 81.9035 90.5081 83.3394 90.2807 85.2435C90.2792 85.2566 90.2781 85.2695 90.2775 85.2825L90.2583 85.6959C89.3895 85.4713 88.4786 85.5156 87.6364 85.8173C87.1012 85.4836 86.4426 85.2136 85.8409 84.8777C88.0486 83.8118 89.7875 81.8609 90.813 79.6562C90.9677 79.3235 90.739 78.9261 90.3736 78.8929C88.2741 78.7023 86.1246 77.2224 84.0458 75.7913C81.6017 74.1086 79.2925 72.5188 76.9816 72.8471C73.3805 73.3574 71.4527 77.4424 73.2144 80.5959C74.5056 82.9068 76.6114 84.5666 79.1441 85.2693C80.2012 85.5627 81.206 85.7097 82.1639 85.7097C82.3908 85.7097 82.6148 85.7003 82.8364 85.6834C82.7751 86.0409 82.7528 86.4044 82.7767 86.7664C82.2823 86.594 81.825 86.332 81.412 86.0118C81.1008 85.7775 80.6377 85.9535 80.5607 86.3353C80.0849 88.6136 80.342 90.9474 81.5947 92.9468C81.6572 93.0466 81.7219 93.1435 81.7878 93.2387C81.957 93.5993 82.1759 94.1061 82.4204 94.7706C80.2715 93.6103 77.7372 93.6102 75.5881 94.7706C76.1449 93.2576 76.5695 92.5601 76.5744 92.552C77.701 90.7434 77.7824 88.3552 77.3581 86.3353C77.2811 85.9537 76.8178 85.7771 76.5068 86.0118L76.3876 86.1014C75.9993 86.3933 75.5789 86.6143 75.142 86.7667C75.1673 86.3842 75.1423 85.9891 75.063 85.5814C74.9356 84.9269 74.6856 84.3074 74.3201 83.74C74.1132 83.4192 73.6219 83.4184 73.4148 83.7402C73.0074 84.3732 72.1622 84.8095 71.345 85.2316C70.9842 85.418 70.6196 85.6069 70.282 85.8174C69.4399 85.5157 68.5291 85.4712 67.6603 85.6959C67.6559 83.6876 66.0382 81.9035 63.987 81.9035C62.608 81.9035 61.4045 82.6938 60.7745 83.8597L58.0975 84.8948L60.3695 86.4165C60.6562 88.0018 61.8965 89.2484 63.447 89.4863C63.4976 90.2992 63.6821 91.0746 63.9752 91.792C63.7428 91.7661 63.505 91.7451 63.2604 91.7302C62.8328 91.7051 62.5449 92.1862 62.7699 92.5511C62.7755 92.56 63.1999 93.2574 63.7569 94.7707C62.773 94.2395 61.654 93.9401 60.3736 93.8617C59.9456 93.8382 59.6557 94.3178 59.8838 94.6839C59.8966 94.7043 61.043 96.5518 62.0596 98.7278H58.5462C58.2489 98.7278 58.0078 98.9689 58.0078 99.2661C58.0078 99.5634 58.2489 99.8045 58.5462 99.8045H69.3778C69.6751 99.8045 69.9162 99.5634 69.9162 99.2661C69.9162 98.9689 69.6751 98.7278 69.3778 98.7278H63.2441C62.5869 97.2629 61.8523 95.9183 61.3606 95.0628C62.5652 95.2863 63.5567 95.7715 64.4276 96.5546C64.8241 96.9112 65.4579 96.5073 65.3025 95.9973C64.8666 94.5669 64.4538 93.5502 64.1541 92.8977C66.5653 93.2256 68.1447 94.223 69.2062 96.0597C69.4196 96.4289 69.9771 96.4055 70.1591 96.0203C70.9788 94.285 72.6694 93.2369 75.1906 92.8973C74.891 93.5498 74.4782 94.5666 74.0421 95.9973C73.8867 96.5074 74.5204 96.911 74.917 96.5546C75.7879 95.7715 76.7794 95.2863 77.984 95.0628C77.4924 95.9183 76.7577 97.2629 76.1005 98.7278H74.7614C74.4642 98.7278 74.2231 98.9689 74.2231 99.2661C74.2231 99.5634 74.4642 99.8045 74.7614 99.8045H96.7698C97.0671 99.8045 97.3082 99.5634 97.3082 99.2661C97.3082 98.9689 97.0671 98.7278 96.7698 98.7278H95.9484C96.965 96.5518 98.1112 94.7043 98.124 94.6839C98.352 94.318 98.0623 93.8381 97.6343 93.8618ZM69.9144 87.6785C70.138 87.0664 70.9641 86.6399 71.8386 86.1883C72.5177 85.8376 73.2135 85.4784 73.76 84.9779C74.3072 86.2821 74.1194 87.6488 73.1499 88.6888C72.4442 89.4459 70.8171 90.1196 70.079 89.0414C69.8086 88.6462 69.747 88.1367 69.9144 87.6785ZM69.6403 94.7582C68.5932 93.3394 67.1675 92.4403 65.2673 92.007C64.7861 91.1241 64.5093 90.1064 64.5093 89.0224V88.9889C64.5093 88.6926 64.2699 88.4521 63.9737 88.4506C62.5455 88.4433 61.3836 87.2163 61.3836 85.7156C61.3836 84.2073 62.5513 82.9803 63.9867 82.9803C65.2896 82.9803 66.3954 83.9989 66.5661 85.3527L66.6178 86.4671C66.6351 86.8409 67.0359 87.0864 67.3768 86.9328C67.9809 86.6607 68.6358 86.5758 69.269 86.6695C68.5917 87.5156 68.5836 88.763 69.1907 89.6496C70.3415 91.3309 72.749 90.698 73.9375 89.4229C74.362 88.9676 74.674 88.4794 74.8762 87.9619C75.42 87.8404 75.9507 87.6368 76.4503 87.3484C76.6635 88.8627 76.4165 90.4168 75.7563 91.754C72.8741 91.992 70.8221 93.0005 69.6403 94.7582ZM86.0794 86.1883C86.9539 86.6399 87.78 87.0664 88.0036 87.6785C88.3031 88.4978 87.8017 89.5754 86.8556 89.5941C86.0677 89.6108 85.3269 89.2882 84.768 88.6888C83.9662 87.8287 83.6943 86.9066 83.9122 85.7871C83.9664 85.5089 84.0486 85.2385 84.1579 84.9779C84.7045 85.4784 85.4003 85.8376 86.0794 86.1883ZM79.4318 84.2319C77.1783 83.6065 75.3039 82.1288 74.1542 80.0707C72.7569 77.5698 74.2641 74.3197 77.1325 73.9131C79.028 73.6446 81.1688 75.118 83.4351 76.6781C85.3913 78.0248 87.4068 79.4126 89.5088 79.85C88.4808 81.7239 86.8424 83.3648 84.8248 84.1381C84.7055 84.0159 84.5966 83.8847 84.5035 83.7402C84.297 83.4191 83.8066 83.417 83.5983 83.74C83.4317 83.9986 83.2874 84.2732 83.167 84.5585C82.0088 84.7116 80.7678 84.6025 79.4318 84.2319ZM82.1589 91.7467C81.5013 90.4111 81.2551 88.8601 81.4678 87.3485C81.9676 87.637 82.4982 87.8417 83.0423 87.9632C83.6444 89.5021 85.118 90.6716 86.7998 90.6716C88.5033 90.6716 89.5812 88.8585 89.015 87.3091C88.9283 87.0719 88.8025 86.8612 88.6491 86.6696C89.2823 86.5759 89.9372 86.6607 90.5413 86.9329C90.8822 87.0864 91.2829 86.841 91.3003 86.4671L91.352 85.3528C91.5227 83.9989 92.6285 82.9804 93.9314 82.9804C95.3668 82.9804 96.5345 84.2075 96.5345 85.7157C96.5345 87.2165 95.3726 88.4434 93.9444 88.4506C93.6481 88.4522 93.4087 88.6927 93.4087 88.989V89.0225C93.4087 90.1123 93.1299 91.1353 92.6437 92.0214C90.6793 92.4703 89.2261 93.386 88.3034 94.7583C86.9533 92.9287 84.9738 91.963 82.1589 91.7467ZM77.2852 98.7279C77.9056 97.3997 78.574 96.1944 79.004 95.4519C79.434 96.1945 80.1023 97.3999 80.7226 98.7279H77.2852ZM94.7637 98.7279H81.9073C81.2501 97.263 80.5155 95.9183 80.0238 95.0629C81.2284 95.2864 82.2199 95.7716 83.0908 96.5547C83.4873 96.9113 84.1211 96.5074 83.9657 95.9974C83.5298 94.567 83.117 93.5503 82.8173 92.8978C85.2285 93.2256 86.8079 94.223 87.8694 96.0598C88.0826 96.4291 88.6403 96.4056 88.8223 96.0204C89.642 94.2851 91.3326 93.237 93.8538 92.8974C93.5542 93.5499 93.1414 94.5667 92.7053 95.9974C92.5499 96.5074 93.1837 96.9113 93.5802 96.5547C94.4511 95.7716 95.4426 95.2864 96.6472 95.0629C96.1555 95.9183 95.4209 97.263 94.7637 98.7279Z" fill="#333333"/>
<path d="M72.2935 99.8047C72.6411 99.8047 72.9229 99.5223 72.9229 99.1741C72.9229 98.8258 72.6411 98.5435 72.2935 98.5435C71.9459 98.5435 71.6641 98.8258 71.6641 99.1741C71.6641 99.5223 71.9459 99.8047 72.2935 99.8047Z" fill="#333333"/>
<path d="M99.3716 99.8047C99.7193 99.8047 100.001 99.5223 100.001 99.1741C100.001 98.8258 99.7193 98.5435 99.3716 98.5435C99.024 98.5435 98.7422 98.8258 98.7422 99.1741C98.7422 99.5223 99.024 99.8047 99.3716 99.8047Z" fill="#333333"/>
<path d="M82.5949 65.1702C83.7842 65.1702 84.7483 64.206 84.7483 63.0167C84.7483 61.8274 83.7842 60.8633 82.5949 60.8633C81.4055 60.8633 80.4414 61.8274 80.4414 63.0167C80.4414 64.206 81.4055 65.1702 82.5949 65.1702Z" fill="white"/>
<path d="M82.5942 65.7083C81.1099 65.7083 79.9023 64.5008 79.9023 63.0165C79.9023 61.5323 81.1099 60.3247 82.5942 60.3247C84.0784 60.3247 85.286 61.5323 85.286 63.0165C85.286 64.5008 84.0784 65.7083 82.5942 65.7083ZM82.5942 61.4014C81.7036 61.4014 80.9791 62.126 80.9791 63.0165C80.9791 63.9071 81.7036 64.6316 82.5942 64.6316C83.4847 64.6316 84.2092 63.9071 84.2092 63.0165C84.2092 62.126 83.4847 61.4014 82.5942 61.4014Z" fill="#333333"/>
</g>
<defs>
<clipPath id="clip0_798_3845">
<rect width="100" height="100" fill="white"/>
</clipPath>
<clipPath id="clip1_798_3845">
<rect width="45.7031" height="45.7031" fill="white" transform="translate(20.1172 54.2969)"/>
</clipPath>
<clipPath id="clip2_798_3845">
<rect width="41.9922" height="41.9922" fill="white" transform="translate(58.0078 57.8125)"/>
</clipPath>
</defs>
</svg>
