<svg width="128" height="128" viewBox="0 0 128 128" fill="none" xmlns="http://www.w3.org/2000/svg">
<g clip-path="url(#clip0_839_4662)">
<path d="M8.6621 61.6951L61.6951 8.66209C62.7691 7.58815 64.5103 7.58815 65.5842 8.66209L118.617 61.6951C119.691 62.769 119.691 64.5102 118.617 65.5842L65.5842 118.617C64.5103 119.691 62.7691 119.691 61.6951 118.617L8.6621 65.5842C7.58816 64.5103 7.58816 62.769 8.6621 61.6951Z" fill="#40C93D" stroke="black" stroke-width="2"/>
<path d="M63.0209 11.2253C62.3195 10.5239 61.4214 10.0645 60.4562 9.90085L61.6951 8.66201C62.2108 8.14628 62.9103 7.85655 63.6396 7.85655C64.369 7.85655 65.0684 8.14628 65.5842 8.66201L118.617 61.695C119.133 62.2107 119.423 62.9102 119.423 63.6396C119.423 64.3689 119.133 65.0684 118.617 65.5841L117.378 66.823C117.215 65.8578 116.755 64.9597 116.054 64.2583L63.0209 11.2253Z" fill="#09A206" stroke="black" stroke-width="2"/>
<path d="M116.324 63.4933C117.024 62.7937 117.482 61.8978 117.645 60.935L118.882 62.1724C119.399 62.6885 119.689 63.3879 119.689 64.1164C119.69 64.8448 119.401 65.5425 118.887 66.0565L65.9527 118.991C65.4387 119.505 64.7409 119.794 64.0126 119.793C63.2841 119.793 62.5847 119.502 62.0685 118.986L60.8312 117.749C61.794 117.586 62.6898 117.128 63.3894 116.428L116.324 63.4933Z" fill="#09A206" stroke="black" stroke-width="2"/>
</g>
<path d="M37.06 72.1C35.4733 72.1 34.0933 71.8133 32.92 71.24C31.7467 70.6533 30.8467 69.8267 30.22 68.76C29.5933 67.6933 29.28 66.4533 29.28 65.04C29.28 63.08 29.6467 61.34 30.38 59.82C31.1267 58.3 32.1333 57.1267 33.4 56.3C34.6667 55.46 36.0733 55.04 37.62 55.04C39.06 55.04 40.1533 55.4133 40.9 56.16C41.6467 56.8933 42.02 57.8667 42.02 59.08C42.02 59.8933 41.8733 60.5467 41.58 61.04C41.3 61.5333 40.8933 61.78 40.36 61.78C39.9867 61.78 39.6933 61.6933 39.48 61.52C39.2667 61.3467 39.16 61.0933 39.16 60.76C39.16 60.64 39.1867 60.42 39.24 60.1C39.32 59.7 39.36 59.38 39.36 59.14C39.36 57.9267 38.7133 57.32 37.42 57.32C36.54 57.32 35.7 57.6067 34.9 58.18C34.1 58.7533 33.4533 59.6 32.96 60.72C32.4667 61.8267 32.22 63.1467 32.22 64.68C32.22 66.28 32.6667 67.52 33.56 68.4C34.4533 69.2667 35.7733 69.7 37.52 69.7C38.3867 69.7 39.26 69.5933 40.14 69.38C41.0333 69.1533 42.02 68.8133 43.1 68.36C43.3 68.28 43.4667 68.24 43.6 68.24C43.8133 68.24 43.9733 68.32 44.08 68.48C44.1867 68.64 44.24 68.8467 44.24 69.1C44.24 69.9133 43.8 70.5133 42.92 70.9C41.9733 71.3133 40.9867 71.62 39.96 71.82C38.9467 72.0067 37.98 72.1 37.06 72.1ZM53.7709 67.54C53.9443 67.54 54.0776 67.62 54.1709 67.78C54.2776 67.94 54.3309 68.16 54.3309 68.44C54.3309 68.9733 54.2043 69.3867 53.9509 69.68C53.3376 70.3867 52.7043 70.9667 52.0509 71.42C51.4109 71.8733 50.6776 72.1 49.8509 72.1C49.1709 72.1 48.6576 71.9067 48.3109 71.52C47.9643 71.12 47.7909 70.5467 47.7909 69.8C47.7909 69.4267 47.8843 68.76 48.0709 67.8C48.2443 66.96 48.3309 66.38 48.3309 66.06C48.3309 65.8467 48.2576 65.74 48.1109 65.74C47.9376 65.74 47.6909 65.9667 47.3709 66.42C47.0509 66.86 46.7309 67.4467 46.4109 68.18C46.0909 68.9133 45.8309 69.6867 45.6309 70.5C45.3776 71.5667 44.7509 72.1 43.7509 72.1C43.3509 72.1 43.0843 71.96 42.9509 71.68C42.8309 71.3867 42.7709 70.8667 42.7709 70.12C42.7709 69.6933 42.7776 69.3533 42.7909 69.1L42.8109 67.5C42.8109 65.4467 43.0176 63.3067 43.4309 61.08C43.8576 58.8533 44.4776 56.9867 45.2909 55.48C46.1176 53.96 47.1043 53.2 48.2509 53.2C48.8643 53.2 49.3576 53.4667 49.7309 54C50.1176 54.52 50.3109 55.2 50.3109 56.04C50.3109 57.3867 49.9176 58.7867 49.1309 60.24C48.3443 61.68 47.0643 63.3667 45.2909 65.3C45.2509 65.9933 45.2309 66.7067 45.2309 67.44C45.6709 66.3067 46.1576 65.3867 46.6909 64.68C47.2376 63.96 47.7709 63.4467 48.2909 63.14C48.8243 62.8333 49.3109 62.68 49.7509 62.68C50.6176 62.68 51.0509 63.1133 51.0509 63.98C51.0509 64.5 50.9043 65.44 50.6109 66.8C50.3576 67.96 50.2309 68.7267 50.2309 69.1C50.2309 69.6333 50.4243 69.9 50.8109 69.9C51.0776 69.9 51.3909 69.74 51.7509 69.42C52.1243 69.0867 52.6176 68.5533 53.2309 67.82C53.3909 67.6333 53.5709 67.54 53.7709 67.54ZM47.8309 55.18C47.5909 55.18 47.3243 55.5267 47.0309 56.22C46.7376 56.9 46.4509 57.8267 46.1709 59C45.9043 60.16 45.6843 61.4267 45.5109 62.8C46.3376 61.8267 47.0176 60.7667 47.5509 59.62C48.0976 58.4733 48.3709 57.4333 48.3709 56.5C48.3709 56.0733 48.3243 55.7467 48.2309 55.52C48.1376 55.2933 48.0043 55.18 47.8309 55.18ZM54.79 72.1C54.1633 72.1 53.6567 71.8467 53.27 71.34C52.8967 70.82 52.71 70.1067 52.71 69.2C52.71 68.2 52.7767 67.2867 52.91 66.46C53.0433 65.62 53.2633 64.7333 53.57 63.8C53.7033 63.4 53.89 63.1133 54.13 62.94C54.37 62.7667 54.75 62.68 55.27 62.68C55.5633 62.68 55.7633 62.7267 55.87 62.82C55.99 62.9133 56.05 63.0533 56.05 63.24C56.05 63.3467 55.9767 63.7067 55.83 64.32C55.6967 64.8133 55.59 65.26 55.51 65.66C55.2433 67.06 55.11 67.9933 55.11 68.46C55.11 68.74 55.1433 68.94 55.21 69.06C55.2767 69.1667 55.3833 69.22 55.53 69.22C55.73 69.22 55.9833 69.02 56.29 68.62C56.5967 68.2067 56.9167 67.5933 57.25 66.78C57.5967 65.9533 57.9233 64.96 58.23 63.8C58.3367 63.4 58.4967 63.1133 58.71 62.94C58.9367 62.7667 59.27 62.68 59.71 62.68C60.0033 62.68 60.21 62.76 60.33 62.92C60.4633 63.0667 60.53 63.2933 60.53 63.6C60.53 63.9333 60.5033 64.3067 60.45 64.72C60.3967 65.12 60.3367 65.5333 60.27 65.96C60.1367 66.8133 60.03 67.5933 59.95 68.3C59.87 68.9933 59.83 69.7867 59.83 70.68C59.83 71.1867 59.7233 71.5533 59.51 71.78C59.31 71.9933 58.9767 72.1 58.51 72.1C58.0167 72.1 57.67 71.9733 57.47 71.72C57.2833 71.4533 57.19 70.9467 57.19 70.2C57.19 70.0533 57.2033 69.7267 57.23 69.22C57.0033 70.1533 56.6633 70.8667 56.21 71.36C55.77 71.8533 55.2967 72.1 54.79 72.1ZM57.37 61.36C57.09 61.36 56.89 61.3 56.77 61.18C56.65 61.06 56.59 60.88 56.59 60.64C56.59 60.3067 56.6767 60.08 56.85 59.96C57.0233 59.84 57.2567 59.78 57.55 59.78C58.39 59.78 58.81 59.3 58.81 58.34C58.81 58.0067 58.71 57.76 58.51 57.6C58.31 57.44 58.03 57.36 57.67 57.36C57.4567 57.36 57.21 57.38 56.93 57.42C56.6633 57.4467 56.5033 57.46 56.45 57.46C56.2367 57.46 56.09 57.4133 56.01 57.32C55.9433 57.2267 55.91 57.0533 55.91 56.8C55.91 56.52 55.9833 56.3133 56.13 56.18C56.2767 56.0467 56.4967 55.9467 56.79 55.88C57.0967 55.8133 57.4767 55.78 57.93 55.78C58.7833 55.78 59.4433 56.0133 59.91 56.48C60.39 56.9333 60.63 57.54 60.63 58.3C60.63 58.8867 60.49 59.4133 60.21 59.88C59.9433 60.3467 59.5833 60.7133 59.13 60.98C58.69 61.2333 58.2167 61.36 57.71 61.36H57.37ZM77.6622 67.54C77.8355 67.54 77.9689 67.62 78.0622 67.78C78.1689 67.94 78.2222 68.16 78.2222 68.44C78.2222 68.9733 78.0955 69.3867 77.8422 69.68C77.2955 70.36 76.7155 70.9333 76.1022 71.4C75.4889 71.8667 74.8955 72.1 74.3222 72.1C73.8822 72.1 73.4755 71.9533 73.1022 71.66C72.7422 71.3533 72.4689 70.94 72.2822 70.42C71.5889 71.54 70.7155 72.1 69.6622 72.1C68.8355 72.1 68.1755 71.8 67.6822 71.2C67.1889 70.6 66.9422 69.8133 66.9422 68.84C66.9422 67.7867 67.1889 66.78 67.6822 65.82C68.1755 64.86 68.8222 64.0933 69.6222 63.52C70.4355 62.9333 71.2889 62.64 72.1822 62.64C72.4889 62.64 72.7222 62.78 72.8822 63.06L73.2222 60.58H70.3622C69.9889 60.58 69.7422 60.5133 69.6222 60.38C69.5022 60.2333 69.4422 59.9933 69.4422 59.66C69.4422 59.3133 69.5089 59.04 69.6422 58.84C69.7755 58.64 70.0422 58.54 70.4422 58.54C71.1222 58.54 71.7622 58.56 72.3622 58.6C72.8689 58.6267 73.2489 58.64 73.5022 58.64L73.8022 56.68C73.9222 55.8533 74.4422 55.44 75.3622 55.44C75.7755 55.44 76.0755 55.5067 76.2622 55.64C76.4489 55.7733 76.5422 55.98 76.5422 56.26C76.5422 56.3267 76.5289 56.44 76.5022 56.6L76.1222 58.42H76.5222C76.7755 58.42 76.9622 58.4933 77.0822 58.64C77.2155 58.7867 77.2822 58.9733 77.2822 59.2C77.2822 59.5467 77.1622 59.8267 76.9222 60.04C76.6822 60.24 76.2822 60.3867 75.7222 60.48C75.2555 62.7467 74.8555 64.8333 74.5222 66.74C74.3089 67.9133 74.2022 68.7467 74.2022 69.24C74.2022 69.44 74.2489 69.6 74.3422 69.72C74.4489 69.84 74.5822 69.9 74.7422 69.9C74.9955 69.9 75.3022 69.74 75.6622 69.42C76.0222 69.0867 76.5089 68.5533 77.1222 67.82C77.2822 67.6333 77.4622 67.54 77.6622 67.54ZM72.5422 64.5C71.9822 64.5133 71.4622 64.7267 70.9822 65.14C70.5155 65.54 70.1422 66.0733 69.8622 66.74C69.5822 67.4067 69.4422 68.1133 69.4422 68.86C69.4422 69.2733 69.5222 69.58 69.6822 69.78C69.8555 69.98 70.0889 70.08 70.3822 70.08C70.6755 70.08 70.9555 69.9067 71.2222 69.56C71.4889 69.2133 71.6822 68.7533 71.8022 68.18L72.5422 64.5ZM83.7567 68.14C83.93 68.14 84.0634 68.22 84.1567 68.38C84.2634 68.54 84.3167 68.76 84.3167 69.04C84.3167 69.52 84.2034 69.9333 83.9767 70.28C83.6034 70.8533 83.11 71.3 82.4967 71.62C81.8967 71.94 81.1767 72.1 80.3367 72.1C79.0567 72.1 78.0634 71.72 77.3567 70.96C76.65 70.1867 76.2967 69.1467 76.2967 67.84C76.2967 66.92 76.49 66.0667 76.8767 65.28C77.2634 64.48 77.7967 63.8467 78.4767 63.38C79.17 62.9133 79.95 62.68 80.8167 62.68C81.59 62.68 82.21 62.9133 82.6767 63.38C83.1434 63.8333 83.3767 64.4533 83.3767 65.24C83.3767 66.16 83.0434 66.9533 82.3767 67.62C81.7234 68.2733 80.6034 68.7933 79.0167 69.18C79.3367 69.7933 79.8767 70.1 80.6367 70.1C81.1834 70.1 81.63 69.9733 81.9767 69.72C82.3367 69.4667 82.75 69.04 83.2167 68.44C83.3767 68.24 83.5567 68.14 83.7567 68.14ZM80.4767 64.64C79.9834 64.64 79.5634 64.9267 79.2167 65.5C78.8834 66.0733 78.7167 66.7667 78.7167 67.58V67.62C79.5034 67.4333 80.1234 67.1533 80.5767 66.78C81.03 66.4067 81.2567 65.9733 81.2567 65.48C81.2567 65.2267 81.1834 65.0267 81.0367 64.88C80.9034 64.72 80.7167 64.64 80.4767 64.64ZM78.9167 57.62C78.8367 57.62 78.7167 57.5933 78.5567 57.54L76.7167 56.8C76.3967 56.6667 76.1634 56.4933 76.0167 56.28C75.8834 56.0667 75.8167 55.84 75.8167 55.6C75.8167 55.3067 75.9234 55.0533 76.1367 54.84C76.3634 54.6133 76.6234 54.5 76.9167 54.5C77.1967 54.5 77.4434 54.6067 77.6567 54.82L79.2367 56.4C79.45 56.6133 79.5567 56.8133 79.5567 57C79.5567 57.1733 79.4967 57.32 79.3767 57.44C79.2567 57.56 79.1034 57.62 78.9167 57.62ZM78.5367 61.46C78.27 61.46 78.0434 61.4067 77.8567 61.3C77.6834 61.1933 77.5967 61.0467 77.5967 60.86C77.5967 60.6467 77.7234 60.3933 77.9767 60.1L79.6167 58.22C80.15 57.62 80.85 57.32 81.7167 57.32C82.13 57.32 82.4567 57.4067 82.6967 57.58C82.95 57.7533 83.1767 58.0333 83.3767 58.42L84.1567 59.96C84.2767 60.2 84.3367 60.4133 84.3367 60.6C84.3367 60.88 84.2234 61.0933 83.9967 61.24C83.77 61.3867 83.51 61.46 83.2167 61.46C82.99 61.46 82.8034 61.4267 82.6567 61.36C82.5234 61.2933 82.4167 61.1733 82.3367 61L81.3567 58.92L79.7967 60.96C79.53 61.2933 79.11 61.46 78.5367 61.46ZM98.6723 69.76C98.9523 69.76 99.1657 69.8533 99.3123 70.04C99.459 70.2267 99.5323 70.46 99.5323 70.74C99.5323 71.0867 99.419 71.4 99.1923 71.68C98.979 71.9467 98.6857 72.08 98.3123 72.08C97.6723 72.08 96.719 72.0333 95.4523 71.94C95.199 71.9267 94.7323 71.9 94.0523 71.86C93.3723 71.82 92.839 71.8 92.4523 71.8C92.279 71.8 92.0257 71.86 91.6923 71.98C91.6257 71.9933 91.4923 72.0267 91.2923 72.08C91.1057 72.1333 90.9457 72.16 90.8123 72.16C90.599 72.16 90.419 72.0667 90.2723 71.88C90.139 71.68 90.0723 71.3867 90.0723 71C90.0723 70.5733 90.1723 70.2467 90.3723 70.02C90.5723 69.78 90.8857 69.5667 91.3123 69.38C92.219 68.98 93.0723 68.4733 93.8723 67.86C94.6857 67.2333 95.3323 66.56 95.8123 65.84C96.3057 65.12 96.5523 64.4333 96.5523 63.78C96.5523 63.26 96.4323 62.88 96.1923 62.64C95.9657 62.3867 95.599 62.26 95.0923 62.26C94.5057 62.26 94.0323 62.42 93.6723 62.74C93.3257 63.06 93.1523 63.5067 93.1523 64.08C93.1523 64.8667 92.759 65.26 91.9723 65.26C91.599 65.26 91.3057 65.1533 91.0923 64.94C90.8923 64.7267 90.7923 64.42 90.7923 64.02C90.7923 63.3533 90.9657 62.74 91.3123 62.18C91.659 61.62 92.179 61.1733 92.8723 60.84C93.5657 60.4933 94.4123 60.32 95.4123 60.32C96.6123 60.32 97.5523 60.62 98.2323 61.22C98.9123 61.82 99.2523 62.6533 99.2523 63.72C99.2523 64.7333 98.8057 65.7933 97.9123 66.9C97.0323 68.0067 95.759 68.9867 94.0923 69.84L98.6723 69.76Z" fill="white"/>
<defs>
<clipPath id="clip0_839_4662">
<rect y="63.6396" width="90" height="90" transform="rotate(-45 0 63.6396)" fill="white"/>
</clipPath>
</defs>
</svg>
