<svg width="120" height="80" viewBox="0 0 120 80" fill="none" xmlns="http://www.w3.org/2000/svg">
<rect width="120" height="80" rx="8" fill="#9DDFD3"/>
<g clip-path="url(#clip0_500_140)">
<path d="M84.6172 64.651H59.5923C59.5923 59.8964 60.3763 54.1724 60.7494 51.7124C60.8719 50.9108 61.3434 50.2019 62.0391 49.7845C63.3641 48.9906 64.7631 48.3612 66.0825 47.8677C68.5205 46.9523 70.688 46.5007 71.6198 46.3329C71.9411 46.2744 72.268 46.2744 72.5894 46.3329C73.5213 46.5008 75.6888 46.9523 78.1268 47.8677C79.4463 48.3612 80.8452 48.9906 82.1703 49.7845C82.8659 50.2019 83.3374 50.9108 83.4599 51.7124C83.8332 54.1724 84.6172 59.8965 84.6172 64.651Z" fill="#5766CB"/>
<path d="M68.1594 53.6355C68.1594 53.6355 69.8035 56.6133 72.1044 58.2505C74.4053 56.6133 76.0493 53.6355 76.0493 53.6355V48.6436H68.1594V53.6355Z" fill="#ECF4FF"/>
<path d="M74.2869 56.1635C73.6751 56.8988 72.9321 57.6618 72.104 58.2514C71.2759 57.6618 70.5328 56.8988 69.9211 56.1635L72.104 54.0645L74.2869 56.1635Z" fill="#D57080"/>
<path d="M68.1594 50.2715L72.1045 54.0642L76.0497 50.2715" fill="#D57080"/>
<path d="M65.6861 57.3052C65.6861 57.3052 64.5169 61.49 64.5169 64.6511H59.5923C59.5923 59.8966 60.3763 54.1726 60.7494 51.7126C60.8719 50.9109 61.3434 50.202 62.0391 49.7847C65.9368 51.7898 65.6861 57.3052 65.6861 57.3052Z" fill="#ECF4FF"/>
<path d="M84.617 64.6511H79.6935C79.6935 61.49 78.5243 57.3052 78.5243 57.3052C78.5243 57.3052 78.2736 51.7898 82.1702 49.7847C82.8658 50.202 83.3373 50.9109 83.4598 51.7126C83.8331 54.1726 84.617 59.8967 84.617 64.6511Z" fill="#ECF4FF"/>
<path d="M66.3706 64.6506H64.5156C64.5156 61.4894 65.6849 57.3047 65.6849 57.3047C65.6849 57.3047 65.7136 61.4431 66.3706 64.6506Z" fill="#3D4FC3"/>
<path d="M81.7783 64.651H79.6937C79.6937 61.4899 78.5244 57.3052 78.5244 57.3052C78.5244 57.3052 81.7022 58.9548 81.7783 64.651Z" fill="#DDEAFB"/>
<path d="M62.0391 49.7847C62.7502 49.3584 63.4833 48.9798 64.2132 48.644C63.6755 49.0957 63.31 49.8542 63.2151 50.7111C62.9236 53.3622 62.3097 59.529 62.3097 64.6512H59.5923C59.5923 59.8966 60.3763 54.1726 60.7494 51.7126C60.8721 50.911 61.3434 50.2021 62.0391 49.7847Z" fill="#DDEAFB"/>
<path d="M78.1267 47.8677L76.0498 53.6359L72.1046 49.8431L68.1594 53.6359L66.0825 47.8677C68.5206 46.9523 70.688 46.5007 71.6199 46.3329C71.9411 46.2744 72.268 46.2744 72.5894 46.3329C73.5213 46.5007 75.6887 46.9523 78.1267 47.8677Z" fill="#DDEAFB"/>
<path d="M86.8357 31.4169L65.2109 31.7239L56.3885 31.8494C56.3885 31.8494 51.9577 25.371 53.3006 19.0393C54.6435 12.7091 62.7973 16.5457 62.7973 16.5457C62.7973 16.5457 67.2327 9.77393 73.0835 9.77393C81.7773 9.77393 85.4368 18.0806 89.3701 15.1075C89.3703 15.1075 94.5285 24.8583 86.8357 31.4169Z" fill="#9D6B6B"/>
<path d="M65.2109 31.7237L56.3885 31.8492C56.3885 31.8492 51.9577 25.3709 53.3006 19.0391C54.6435 12.7089 62.7973 16.5455 62.7973 16.5455C62.7973 16.5455 60.0013 21.2198 65.0688 24.9505C66.7034 26.1526 66.3889 28.7537 65.2109 31.7237Z" fill="#8B5E5E"/>
<path d="M75.0998 41.8457V46.8477C75.0998 48.5015 73.7586 49.8426 72.1049 49.8426C70.4501 49.8426 69.1091 48.5015 69.1091 46.8477V41.8457H75.0998Z" fill="#FFDDCE"/>
<path d="M73.083 49.6794C72.7766 49.7849 72.4476 49.8426 72.1051 49.8426C70.4504 49.8426 69.1094 48.5014 69.1094 46.8477V41.8457H71.0651V46.8477C71.065 48.1599 71.9086 49.2748 73.083 49.6794Z" fill="#FFCBBE"/>
<path d="M59.5918 37.6805C57.4323 37.6805 55.6816 35.9299 55.6816 33.7704C55.6816 33.4731 55.7148 33.1837 55.7776 32.9055C56.2849 30.6589 59.592 31.0273 59.592 33.3305H84.6175C84.6175 31.0273 87.9245 30.6589 88.4318 32.9055C88.4947 33.1837 88.5278 33.4732 88.5278 33.7704C88.5278 35.9299 86.7771 37.6805 84.6176 37.6805" fill="#FFCBBE"/>
<path d="M69.1091 41.8457H75.0998V46.4538H69.1091V41.8457Z" fill="#FFCBBE"/>
<path d="M84.6172 28.7371V35.7478C84.6172 40.785 80.5341 44.8681 75.4969 44.8681H68.7116C63.6744 44.8681 59.5913 40.785 59.5913 35.7478V28.7371C62.823 28.7371 65.4437 26.1179 65.4437 22.8862C65.4437 22.8862 65.4905 22.9301 65.5828 23.0102C66.5627 23.8556 72.7401 28.7371 84.6172 28.7371Z" fill="#FFDDCE"/>
<path d="M74.703 44.8681H68.7116C63.6744 44.8681 59.5913 40.785 59.5913 35.7478V28.7371C62.823 28.7371 65.4437 26.1179 65.4437 22.8862C65.4437 22.8862 65.4905 22.9301 65.5828 23.0102V35.7477C65.5828 40.7851 69.6658 44.8681 74.703 44.8681Z" fill="#FFCBBE"/>
<path d="M80.3588 36.7586C81.49 36.7586 82.4071 36.2009 82.4071 35.5131C82.4071 34.8252 81.49 34.2676 80.3588 34.2676C79.2276 34.2676 78.3105 34.8252 78.3105 35.5131C78.3105 36.2009 79.2276 36.7586 80.3588 36.7586Z" fill="#EAAFA5"/>
<path d="M63.85 36.7586C64.9812 36.7586 65.8983 36.2009 65.8983 35.5131C65.8983 34.8252 64.9812 34.2676 63.85 34.2676C62.7188 34.2676 61.8018 34.8252 61.8018 35.5131C61.8018 36.2009 62.7188 36.7586 63.85 36.7586Z" fill="#EAAFA5"/>
<path d="M45.1156 9.77393C54.0505 9.77393 61.2938 17.0172 61.2938 25.9521V41.3075C61.2938 45.6472 58.5303 49.505 54.4215 50.9016L45.1156 54.0644L35.8097 50.9016C31.7009 49.5052 28.9375 45.6472 28.9375 41.3075V25.9519C28.9376 17.017 36.1807 9.77393 45.1156 9.77393Z" fill="#E4936B"/>
<path d="M41.1732 50.9016L45.1156 54.0641L35.8105 50.9016C31.7017 49.5054 28.9375 45.6467 28.9375 41.3079V25.9521C28.9375 17.0172 36.1806 9.77393 45.1156 9.77393C41.3306 9.77393 38.2619 17.017 38.2619 25.9521V41.308C38.2619 45.6467 39.433 49.5054 41.1732 50.9016Z" fill="#E27D47"/>
<path d="M57.6289 64.651H32.604C32.604 59.8964 33.388 54.1724 33.7611 51.7124C33.8836 50.9108 34.3552 50.2019 35.0508 49.7845C36.3758 48.9906 37.7748 48.3612 39.0942 47.8677C41.5323 46.9523 43.6997 46.5007 44.6317 46.3329C44.9529 46.2744 45.2798 46.2744 45.6012 46.3329C46.5331 46.5008 48.7006 46.9523 51.1387 47.8677C52.4582 48.3612 53.8571 48.9906 55.1821 49.7845C55.8777 50.2019 56.3493 50.9108 56.4718 51.7124C56.8449 54.1724 57.6289 59.8965 57.6289 64.651Z" fill="#5766CB"/>
<path d="M41.1713 53.636C41.1713 53.636 42.8153 56.6138 45.1162 58.251C47.4171 56.6138 49.0611 53.636 49.0611 53.636V48.644H41.1711V53.636H41.1713Z" fill="#ECF4FF"/>
<path d="M47.2989 56.1635C46.6871 56.8988 45.9441 57.6618 45.116 58.2515C44.2879 57.6618 43.5447 56.8988 42.9331 56.1635L45.116 54.0645L47.2989 56.1635Z" fill="#D57080"/>
<path d="M41.1711 50.2715L45.1163 54.0642L49.0614 50.2715" fill="#D57080"/>
<path d="M38.6978 57.3052C38.6978 57.3052 37.5286 61.49 37.5286 64.6511H32.604C32.604 59.8966 33.388 54.1726 33.7611 51.7126C33.8836 50.9109 34.3552 50.202 35.0508 49.7847C38.9485 51.7898 38.6978 57.3052 38.6978 57.3052Z" fill="#ECF4FF"/>
<path d="M57.6287 64.6511H52.7052C52.7052 61.49 51.536 57.3052 51.536 57.3052C51.536 57.3052 51.2853 51.7898 55.1819 49.7847C55.8775 50.202 56.349 50.9109 56.4715 51.7126C56.8448 54.1726 57.6287 59.8967 57.6287 64.6511Z" fill="#ECF4FF"/>
<path d="M39.3823 64.651H37.5273C37.5273 61.4899 38.6966 57.3052 38.6966 57.3052C38.6966 57.3052 38.7253 61.4435 39.3823 64.651Z" fill="#3D4FC3"/>
<path d="M54.79 64.651H52.7054C52.7054 61.4899 51.5361 57.3052 51.5361 57.3052C51.5361 57.3052 54.7139 58.9548 54.79 64.651Z" fill="#DDEAFB"/>
<path d="M35.0508 49.7847C35.7619 49.3584 36.4951 48.9798 37.225 48.644C36.6872 49.0957 36.3217 49.8542 36.2268 50.7111C35.9353 53.3622 35.3214 59.529 35.3214 64.6512H32.604C32.604 59.8966 33.388 54.1726 33.7611 51.7126C33.8838 50.911 34.3552 50.2021 35.0508 49.7847Z" fill="#DDEAFB"/>
<path d="M51.1384 47.8677L49.0615 53.6359L45.1163 49.8431L41.1711 53.6359L39.0942 47.8677C41.5323 46.9523 43.6997 46.5007 44.6317 46.3329C44.953 46.2744 45.2798 46.2744 45.6012 46.3329C46.533 46.5007 48.7004 46.9523 51.1384 47.8677Z" fill="#DDEAFB"/>
<path d="M48.1115 41.8457V46.8477C48.1115 48.5014 46.7703 49.8426 45.1166 49.8426C43.4618 49.8426 42.1208 48.5014 42.1208 46.8477V41.8457H48.1115Z" fill="#FFDDCE"/>
<path d="M46.0945 49.6794C45.7881 49.7849 45.4591 49.8426 45.1166 49.8426C43.4618 49.8426 42.1208 48.5014 42.1208 46.8477V41.8457H44.0766V46.8477C44.0766 48.1599 44.9202 49.2747 46.0945 49.6794Z" fill="#FFCBBE"/>
<path d="M42.1208 41.8457H48.1115V46.4538H42.1208V41.8457Z" fill="#FFCBBE"/>
<path d="M57.6284 28.8756V35.7487C57.6284 40.785 53.5456 44.8687 48.5085 44.8687H41.7229C36.6866 44.8687 32.603 40.7859 32.603 35.7487V28.954C34.1559 28.9088 36.2928 28.644 38.5946 28.1762C43.3118 27.2173 48.7267 25.4048 51.2457 22.8857C51.2457 22.8857 53.7376 27.9778 57.6284 28.8756Z" fill="#FFDDCE"/>
<path d="M47.7145 44.8688H41.7229C36.6866 44.8688 32.603 40.786 32.603 35.7488V28.954C34.1559 28.9089 36.2928 28.644 38.5946 28.1763V35.7488C38.5945 40.7851 42.6773 44.8688 47.7145 44.8688Z" fill="#FFCBBE"/>
<path d="M52.487 37.6424C53.6182 37.6424 54.5352 37.0847 54.5352 36.3969C54.5352 35.709 53.6182 35.1514 52.487 35.1514C51.3558 35.1514 50.4387 35.709 50.4387 36.3969C50.4387 37.0847 51.3558 37.6424 52.487 37.6424Z" fill="#EAAFA5"/>
<path d="M37.7455 37.6424C38.8767 37.6424 39.7938 37.0847 39.7938 36.3969C39.7938 35.709 38.8767 35.1514 37.7455 35.1514C36.6143 35.1514 35.6973 35.709 35.6973 36.3969C35.6973 37.0847 36.6143 37.6424 37.7455 37.6424Z" fill="#EAAFA5"/>
<path d="M32.8379 64.5996H85.6328V70.2267H32.8379V64.5996Z" fill="#8B5E5E"/>
<path d="M87.0842 65.9663H31.3869C30.6242 65.9663 30.0061 65.348 30.0061 64.5855V62.83C30.0061 62.0674 30.6244 61.4492 31.3869 61.4492H87.0841C87.8468 61.4492 88.4649 62.0675 88.4649 62.83V64.5855C88.465 65.348 87.8468 65.9663 87.0842 65.9663Z" fill="#9D6B6B"/>
<path d="M66.2371 33.5425C66.8904 33.5425 67.4219 32.6614 67.4219 31.5784C67.4219 30.4954 66.8904 29.6143 66.2371 29.6143C65.5837 29.6143 65.0522 30.4954 65.0522 31.5784C65.0522 32.6614 65.5839 33.5425 66.2371 33.5425Z" fill="black"/>
<path d="M77.972 33.5425C78.6252 33.5425 79.1567 32.6614 79.1567 31.5784C79.1567 30.4954 78.6252 29.6143 77.972 29.6143C77.3186 29.6143 76.7871 30.4954 76.7871 31.5784C76.7871 32.6614 77.3186 33.5425 77.972 33.5425Z" fill="black"/>
<path d="M72.1046 39.9129C72.989 39.9129 73.8203 39.5686 74.4456 38.9433C74.8117 38.5772 74.8117 37.9836 74.4455 37.6174C74.0796 37.2514 73.486 37.2513 73.1197 37.6174C72.8486 37.8886 72.4882 38.0378 72.1047 38.0378C71.7213 38.0378 71.3608 37.8886 71.0896 37.6173C70.7236 37.2512 70.13 37.2513 69.7638 37.6173C69.3977 37.9834 69.3977 38.5771 69.764 38.9432C70.389 39.5686 71.2202 39.9129 72.1046 39.9129Z" fill="black"/>
<path d="M85.143 38.589C87.5697 38.326 89.4652 36.2657 89.4652 33.7703C89.4652 33.4091 89.4252 33.0486 89.3461 32.6989C89.2051 32.0741 88.8922 31.5518 88.4656 31.1683C91.1406 28.3887 92.3328 24.8011 91.9204 20.7081C91.5776 17.3074 90.2543 14.7749 90.1982 14.6688C90.0697 14.4258 89.8411 14.2515 89.5726 14.192C89.3045 14.1325 89.0233 14.1936 88.8041 14.3595C87.5284 15.3245 86.347 14.6994 83.7587 12.9296C83.3311 12.6372 82.748 12.747 82.4556 13.1744C82.1633 13.6018 82.273 14.1851 82.7004 14.4774C84.7239 15.861 86.8065 17.2857 88.9373 16.4292C89.3177 17.3697 89.8621 18.9843 90.0548 20.8963C90.445 24.7679 89.2505 27.9841 86.5039 30.4617C86.4137 30.4639 86.3224 30.4699 86.2304 30.4802C85.9924 30.5067 85.7673 30.5612 85.5544 30.6355V28.7371C85.5544 28.2194 85.1348 27.7996 84.6169 27.7996C78.1223 27.7996 73.4305 26.2783 70.638 25.0021C67.6134 23.6197 66.1017 22.2184 66.0885 22.2061C65.8167 21.9484 65.4176 21.8773 65.0732 22.0253C64.7291 22.1733 64.5061 22.5119 64.5061 22.8865C64.5061 24.6112 63.6293 26.1535 62.2315 27.036V25.9521C62.2315 22.4449 61.1705 19.1811 59.3535 16.4637C60.9959 16.7457 62.3807 17.3848 62.399 17.3934C62.5273 17.4538 62.6633 17.4827 62.7975 17.4827C63.1053 17.4827 63.4042 17.3308 63.5823 17.0587C63.6238 16.9952 67.8009 10.7111 73.0832 10.7111C75.3194 10.7111 77.401 11.2867 79.6343 12.5226C80.0876 12.7734 80.6578 12.6094 80.9086 12.1562C81.1592 11.7032 80.9952 11.1327 80.5422 10.882C78.0197 9.48607 75.6495 8.83594 73.0831 8.83594C67.8496 8.83594 63.7894 13.6219 62.4668 15.3924C61.4818 15.0163 59.6404 14.4324 57.7887 14.4598C54.655 11.0073 50.1342 8.83619 45.1156 8.83619C35.678 8.83619 28 16.5142 28 25.9518V41.3077C28 45.1274 29.9338 48.6137 33.108 50.6346C32.9775 50.9296 32.8842 51.2436 32.834 51.571C32.5542 53.4151 32.0709 56.9121 31.8231 60.5112H31.3869C30.1085 60.5112 29.0686 61.5513 29.0686 62.8295V64.5851C29.0686 65.8635 30.1087 66.9033 31.3869 66.9033H31.9011V70.2266C31.9011 70.7444 32.3208 71.1642 32.8386 71.1642H39.2387C39.7564 71.1642 40.1762 70.7444 40.1762 70.2266C40.1762 69.7089 39.7564 69.2891 39.2387 69.2891H33.7761V66.9035H84.6956V69.2893H42.9037C42.386 69.2893 41.9662 69.709 41.9662 70.2268C41.9662 70.7445 42.386 71.1643 42.9037 71.1643H85.6332C86.151 71.1643 86.5707 70.7445 86.5707 70.2268V66.9035H87.0842C88.3626 66.9035 89.4026 65.8635 89.4026 64.5852V62.8297C89.4026 61.5513 88.3626 60.5114 87.0842 60.5114H85.398C85.1503 56.9127 84.667 53.4154 84.3869 51.5694C84.2205 50.4856 83.5885 49.5419 82.6522 48.9798C81.4113 48.2366 79.9992 47.567 78.456 46.9902C77.6671 46.6945 76.8563 46.4268 76.0375 46.1891V45.7911C80.3588 45.5611 83.9627 42.5898 85.143 38.589ZM85.5548 33.3303C85.5548 32.4847 86.2905 32.3599 86.4379 32.3434C86.5854 32.3269 87.3307 32.2867 87.5171 33.1119C87.5656 33.3263 87.5901 33.5478 87.5901 33.7702C87.5901 35.0965 86.7168 36.2224 85.5151 36.604C85.5392 36.3215 85.5541 36.0365 85.5541 35.7479V33.3303H85.5548ZM66.1568 24.6334C68.5945 26.3321 74.3308 29.4659 83.6791 29.6644V35.7477C83.6791 40.2598 80.0089 43.9306 75.4975 43.9306H68.712C66.1777 43.9306 63.7771 42.744 62.2313 40.7428V29.1396C64.1946 28.3172 65.6278 26.6503 66.1568 24.6334ZM77.5875 57.3473C77.5906 57.4181 77.602 57.4884 77.6212 57.5567C77.6255 57.5722 77.982 58.8586 78.2934 60.5112H65.9162C66.2276 58.8586 66.5842 57.5722 66.5885 57.5567C66.6075 57.4884 66.6189 57.4181 66.6221 57.3473C66.6249 57.2852 66.6861 55.8068 66.2312 54.0601C65.7728 52.3 64.9482 50.8813 63.8158 49.8765C64.3582 49.6022 64.9303 49.3413 65.528 49.0944L67.2774 53.9531C67.2944 54.0003 67.316 54.0446 67.3397 54.0876L67.3381 54.0885C67.3674 54.1415 68.0679 55.4025 69.2004 56.7624C69.9745 57.6932 70.7685 58.451 71.5603 59.0146C71.7231 59.1305 71.9134 59.1883 72.1041 59.1883C72.2947 59.1883 72.4851 59.1305 72.6478 59.0146C73.4396 58.451 74.2336 57.6932 75.0074 56.7628C76.1403 55.4024 76.8409 54.1415 76.87 54.0885L76.8693 54.088C76.8931 54.0448 76.9149 54.0003 76.932 53.953L78.6815 49.0942C79.2787 49.3409 79.8508 49.6018 80.3939 49.8765C79.2616 50.8813 78.437 52.2999 77.9785 54.06C77.5235 55.8068 77.5846 57.2852 77.5875 57.3473ZM39.2424 54.0601C38.784 52.3001 37.9595 50.8816 36.8271 49.8767C37.3703 49.6021 37.9424 49.3412 38.5395 49.0944L40.2891 53.9533C40.3061 54.0004 40.3277 54.0448 40.3514 54.0879L40.3499 54.0888C40.3792 54.1418 41.0797 55.4028 42.2121 56.7627C42.9862 57.6933 43.7802 58.4511 44.572 59.0148C44.7348 59.1307 44.9253 59.1886 45.1158 59.1886C45.3063 59.1886 45.4968 59.1307 45.6595 59.0148C46.4513 58.4511 47.2453 57.6933 48.0191 56.7631C49.1518 55.4027 49.8525 54.1418 49.8816 54.0888L49.8807 54.0883C49.9046 54.045 49.9263 54.0005 49.9433 53.9533L51.6927 49.0946C52.2904 49.3414 52.8625 49.6022 53.405 49.8766C52.2726 50.8815 51.448 52.3001 50.9896 54.0603C50.5347 55.8069 50.5959 57.2853 50.5987 57.3474C50.602 57.4182 50.6132 57.4886 50.6324 57.5568C50.6366 57.5723 50.9932 58.8587 51.3046 60.5114H38.9275C39.2389 58.8587 39.5956 57.5723 39.5998 57.5568C39.6188 57.4886 39.6302 57.4182 39.6334 57.3474C39.6362 57.2852 39.6974 55.8068 39.2424 54.0601ZM41.3845 48.0859C41.7047 49.0483 42.3867 49.8466 43.2691 50.3182L41.5635 51.9579L40.2952 48.4353C40.6552 48.3124 41.0187 48.1962 41.3845 48.0859ZM43.0585 45.8059H47.1742V46.8474C47.1742 47.982 46.251 48.9052 45.1164 48.9052C43.9817 48.9052 43.0586 47.982 43.0586 46.8474V45.8059H43.0585ZM45.1159 52.7635L44.2734 51.9536L45.1164 51.1432L45.9589 51.9532L45.1159 52.7635ZM42.9206 53.2541L43.7631 54.064L43.0319 54.7672C42.7596 54.3968 42.5329 54.0593 42.3616 53.7915L42.9206 53.2541ZM45.1159 55.3645L46.0014 56.2159C45.7055 56.5304 45.4098 56.8137 45.1159 57.0628C44.8221 56.8137 44.5264 56.5306 44.2304 56.2159L45.1159 55.3645ZM47.1998 54.7672L46.4685 54.064L47.3116 53.2536L47.8704 53.7909C47.6992 54.0588 47.4723 54.3965 47.1998 54.7672ZM46.9637 50.3181C47.8462 49.8465 48.5281 49.0482 48.8483 48.0858C49.2146 48.1962 49.5781 48.3124 49.9376 48.4352L48.6693 51.9577L46.9637 50.3181ZM48.5086 43.9309H41.7228C37.211 43.9309 33.5405 40.2602 33.5405 35.7485V29.8451C36.1299 29.6644 39.5493 29.0361 42.5526 28.1756C45.2028 27.4164 48.6622 26.1658 50.9947 24.3503C51.927 25.8687 53.9163 28.5887 56.6909 29.576V35.7486C56.6909 40.2602 53.0204 43.9309 48.5086 43.9309ZM53.2114 60.5112C52.922 58.8915 52.5763 57.5627 52.4703 57.1688C52.4673 56.8448 52.4846 55.7345 52.8166 54.486C53.2488 52.8611 54.0164 51.6655 55.1018 50.9218C55.3339 51.1787 55.4906 51.4996 55.5447 51.8521C55.8166 53.6445 56.2841 57.0233 56.5308 60.5112H53.2114ZM58.4105 60.5112C58.1615 56.9108 57.6781 53.4143 57.3982 51.5691C57.348 51.2422 57.2547 50.9285 57.1243 50.6338C59.7402 48.9676 61.513 46.3063 62.0553 43.2836C63.7432 44.7712 65.899 45.6673 68.1717 45.7904V46.189C67.3505 46.4273 66.5397 46.695 65.7543 46.9897C64.2069 47.568 62.7947 48.2377 61.5566 48.9801C60.6213 49.5417 59.9891 50.4853 59.8225 51.5709C59.5429 53.4144 59.0595 56.9108 58.8106 60.5111H58.4105V60.5112ZM72.1041 52.7635L71.2616 51.9536L72.1046 51.1431L72.9471 51.9531L72.1041 52.7635ZM69.9088 53.2543L70.7513 54.0641L70.02 54.7673C69.7478 54.3969 69.521 54.0594 69.3498 53.7916L69.9088 53.2543ZM72.1041 55.3645L72.9895 56.2159C72.6934 56.5304 72.3978 56.8137 72.1041 57.0628C71.8103 56.8137 71.5147 56.5306 71.2187 56.2159L72.1041 55.3645ZM74.188 54.7673L73.4567 54.0641L74.2997 53.2538L74.8586 53.7911C74.6874 54.0588 74.4605 54.3966 74.188 54.7673ZM68.5518 51.9579L67.2834 48.4353C67.6427 48.3127 68.0064 48.1964 68.3726 48.0859C68.6929 49.0483 69.3748 49.8466 70.2573 50.3182L68.5518 51.9579ZM61.676 51.8539C61.7304 51.5001 61.887 51.1788 62.1192 50.9218C63.2044 51.6655 63.9723 52.8611 64.4043 54.486C64.7366 55.7357 64.7537 56.8469 64.7507 57.1687C64.6447 57.5623 64.2988 58.8912 64.0094 60.5112H60.69C60.9369 57.0233 61.4044 53.6446 61.676 51.8539ZM75.6574 51.9579L73.9517 50.3182C74.8342 49.8466 75.5162 49.0483 75.8364 48.0859C76.202 48.1962 76.5655 48.3124 76.9256 48.4353L75.6574 51.9579ZM74.1623 46.8474C74.1623 47.9819 73.2396 48.9048 72.1051 48.9052C72.1047 48.9052 72.1042 48.9052 72.1038 48.9052C70.9694 48.9048 70.0467 47.9819 70.0467 46.8474V45.8058H74.1623V46.8474ZM29.875 41.3077V25.9518C29.875 17.5481 36.7119 10.7112 45.1156 10.7112C53.5194 10.7112 60.3563 17.5481 60.3563 25.9518V41.3077C60.3563 44.5495 58.6795 47.5038 55.9396 49.1643C55.8507 49.0994 55.7593 49.0372 55.6639 48.9799C54.4263 48.2378 53.014 47.5682 51.4677 46.9902C50.6815 46.6952 49.8705 46.4274 49.0492 46.1891V45.791C54.3444 45.5091 58.566 41.1128 58.566 35.7485V28.8754C58.566 28.4387 58.2646 28.06 57.8392 27.9619C54.4367 27.1768 52.1104 22.5195 52.0878 22.4735C51.9546 22.2015 51.6984 22.0106 51.3997 21.9609C51.1012 21.911 50.7969 22.0085 50.5827 22.2228C47.0159 25.7896 36.9641 27.8907 32.5759 28.0169C32.0688 28.0314 31.6653 28.4466 31.6653 28.954V35.7486C31.6653 41.1133 35.8876 45.51 41.1835 45.7913V46.1891C40.3647 46.4268 39.5539 46.6945 38.7657 46.9899C37.2214 47.5672 35.8095 48.2367 34.5679 48.9803C34.4725 49.0376 34.3811 49.0998 34.2922 49.1648C31.5519 47.5047 29.875 44.5504 29.875 41.3077ZM34.6875 51.8539C34.7419 51.5001 34.8986 51.1787 35.1305 50.9218C36.2159 51.6655 36.9835 52.8611 37.4156 54.486C37.748 55.7357 37.7652 56.8469 37.7622 57.1687C37.6562 57.5623 37.3104 58.8912 37.0209 60.5112H33.7025C33.9482 57.0246 34.4157 53.6453 34.6875 51.8539ZM87.5274 62.8295V64.5851C87.5274 64.8296 87.3286 65.0283 87.084 65.0283H31.3868C31.1423 65.0283 30.9435 64.8294 30.9435 64.5851V62.8295C30.9435 62.585 31.1424 62.3863 31.3868 62.3863H87.084C87.3287 62.3863 87.5274 62.5852 87.5274 62.8295ZM83.5185 60.5112H80.1999C79.9106 58.8915 79.5648 57.5627 79.4587 57.1688C79.4558 56.8448 79.4731 55.7345 79.8051 54.486C80.2373 52.861 81.005 51.6654 82.0903 50.9218C82.3223 51.1787 82.479 51.4996 82.5331 51.8521C82.8052 53.6454 83.2727 57.0251 83.5185 60.5112Z" fill="black"/>
<path d="M39.4458 30.6113C39.4047 30.6113 38.0277 30.6217 37.9693 30.6222C37.5793 30.6222 37.2622 30.9395 37.2622 31.3293C37.2622 31.7192 37.5795 32.0365 37.9693 32.0365H38.2932C38.2616 32.2163 38.2455 32.4027 38.2455 32.5911C38.2455 33.6827 38.784 34.5708 39.4458 34.5708C40.1077 34.5708 40.6462 33.6827 40.6462 32.5911C40.6461 31.4995 40.1077 30.6113 39.4458 30.6113Z" fill="black"/>
<path d="M52.2619 30.6222C52.197 30.6217 50.7362 30.6113 50.6952 30.6113C50.0334 30.6113 49.4949 31.4995 49.4949 32.5911C49.4949 33.6827 50.0334 34.5708 50.6952 34.5708C51.3571 34.5708 51.8956 33.6827 51.8956 32.5911C51.8956 32.4028 51.8796 32.2166 51.8479 32.0365H52.2619C52.6519 32.0365 52.9691 31.7192 52.9691 31.3293C52.969 30.9395 52.6517 30.6222 52.2619 30.6222Z" fill="black"/>
<path d="M46.0478 37.6691C45.534 38.1831 44.6976 38.1832 44.1833 37.6691C43.8172 37.303 43.2236 37.3031 42.8576 37.6691C42.4915 38.0352 42.4915 38.6288 42.8576 38.995C43.4801 39.6175 44.2979 39.9287 45.1156 39.9287C45.9333 39.9287 46.7511 39.6175 47.3736 38.995C47.7397 38.6288 47.7397 38.0352 47.3736 37.6691C47.0076 37.303 46.414 37.3031 46.0478 37.6691Z" fill="black"/>
</g>
<defs>
<clipPath id="clip0_500_140">
<rect width="64" height="64" fill="white" transform="translate(28 8)"/>
</clipPath>
</defs>
</svg>
