<svg width="100" height="100" viewBox="0 0 100 100" fill="none" xmlns="http://www.w3.org/2000/svg">
<path d="M4.6875 4.6875H95.3125V70.3125H4.6875V4.6875Z" fill="#CECECC"/>
<path d="M12.5 12.5H87.5V62.5H12.5V12.5Z" fill="#426887"/>
<path d="M14.7109 12.5H12.5V14.7109L4.6875 6.89844V4.6875H6.89844L14.7109 12.5Z" fill="#BEBEBC"/>
<path d="M95.3125 4.6875V6.89844L87.5 14.7109V12.5H85.2891L93.1016 4.6875H95.3125Z" fill="#BEBEBC"/>
<path d="M79.6875 56.25H95.3125V62.5H79.6875V56.25Z" fill="#DE5540"/>
<path d="M79.6875 59.375H95.3125V62.5H79.6875V59.375Z" fill="#CECECC"/>
<path d="M4.6875 62.5H95.3125V70.3125H4.6875V62.5Z" fill="#DFDFDD"/>
<path d="M42.1875 39.0625V51.5625L34.375 60.9375L26.5625 51.5625V39.0625H42.1875Z" fill="#FDC8A2"/>
<path d="M64.0625 62.4551V89.0625C64.0625 90.7201 63.404 92.3098 62.2319 93.4819C61.0598 94.654 59.4701 95.3125 57.8125 95.3125H10.9375C9.2799 95.3125 7.69018 94.654 6.51808 93.4819C5.34598 92.3098 4.6875 90.7201 4.6875 89.0625V62.4551C4.68714 61.1217 5.12542 59.8253 5.93476 58.7657C6.74411 57.7061 7.87956 56.9422 9.16602 56.5918L17.1875 54.4043L21.875 53.125L26.5625 51.5625L34.375 60.9375L42.1875 51.5625L46.875 53.125L51.5625 54.4043L59.584 56.5918C60.8704 56.9422 62.0059 57.7061 62.8152 58.7657C63.6246 59.8253 64.0629 61.1217 64.0625 62.4551Z" fill="#2D7DBE"/>
<path d="M29.6875 64.0625L31.25 68.75H37.5L39.0625 64.0625L34.375 60.9375L29.6875 64.0625Z" fill="#426887"/>
<path d="M21.875 53.125L26.5625 65.625L34.375 60.9375L26.5625 51.5625L21.875 53.125Z" fill="#348ED8"/>
<path d="M42.1875 51.5625L34.375 60.9375L42.1875 65.625L46.875 53.125L42.1875 51.5625Z" fill="#348ED8"/>
<path d="M37.5 68.75H31.25L29.6875 96.8221H39.0625L37.5 68.75Z" fill="#395D7B"/>
<path d="M42.1875 39.0625V47.6309C39.8748 49.1756 37.1561 50 34.375 50C31.5939 50 28.8752 49.1756 26.5625 47.6309V39.0625H42.1875Z" fill="#FDBF92"/>
<path d="M26.5625 9.375H42.1875C43.8451 9.375 45.4348 10.0335 46.6069 11.2056C47.779 12.3777 48.4375 13.9674 48.4375 15.625V32.8125C48.4375 36.5421 46.9559 40.119 44.3187 42.7562C41.6815 45.3934 38.1046 46.875 34.375 46.875C30.6454 46.875 27.0685 45.3934 24.4313 42.7562C21.7941 40.119 20.3125 36.5421 20.3125 32.8125V15.625C20.3125 13.9674 20.971 12.3777 22.1431 11.2056C23.3152 10.0335 24.9049 9.375 26.5625 9.375Z" fill="#FDC8A2"/>
<path d="M40.625 7.8125V14.0625C35.6226 19.0647 28.838 21.8749 21.7637 21.875H18.75V17.1875C18.7486 15.5456 19.071 13.9195 19.6986 12.4023C20.3263 10.8851 21.247 9.50653 22.408 8.34552C23.569 7.18451 24.9476 6.26382 26.4648 5.63613C27.982 5.00845 29.6081 4.68609 31.25 4.6875H33.0801C35.9099 4.68755 38.6239 5.81163 40.625 7.8125Z" fill="#844E3A"/>
<path d="M40.625 7.8125V14.0625C41.097 15.9505 42.0732 17.6747 43.4492 19.0508C44.8253 20.4268 46.5495 21.403 48.4375 21.875V15.625C48.4375 13.553 47.6144 11.5659 46.1493 10.1007C44.6841 8.6356 42.697 7.8125 40.625 7.8125Z" fill="#844E3A"/>
<path d="M17.1875 82.8125H4.6875V89.2344C4.6874 90.0326 4.84454 90.823 5.14996 91.5605C5.45538 92.298 5.90309 92.9681 6.46751 93.5325C7.03194 94.0969 7.70203 94.5446 8.43951 94.85C9.17698 95.1555 9.96741 95.3126 10.7656 95.3125H21.875L45.3125 89.0625V78.125L17.1875 82.8125Z" fill="#3289D1"/>
<path d="M45.3125 78.125L54.6875 73.4375H64.0625V84.375H56.25L55.9818 84.6432C54.5807 86.0443 52.9173 87.1557 51.0867 87.914C49.2561 88.6722 47.294 89.0625 45.3125 89.0625V78.125Z" fill="#FDC8A2"/>
<path d="M51.5625 82.8125L23.4375 78.125V89.0625L46.875 95.3125H57.9844C58.7826 95.3126 59.573 95.1555 60.3105 94.85C61.048 94.5446 61.7181 94.0969 62.2825 93.5325C62.8469 92.9681 63.2946 92.298 63.6 91.5605C63.9055 90.823 64.0626 90.0326 64.0625 89.2344V82.8125H51.5625Z" fill="#348ED8"/>
<path d="M23.4375 78.125L14.0625 73.4375H4.6875V84.375H12.5L12.7682 84.6432C14.1693 86.0443 15.8327 87.1557 17.6633 87.914C19.4939 88.6722 21.456 89.0625 23.4375 89.0625V78.125Z" fill="#FDC8A2"/>
<path d="M89.0625 82.8125H59.375C59.7854 83.2229 60.1109 83.7101 60.333 84.2463C60.5551 84.7824 60.6695 85.3571 60.6695 85.9375C60.6695 86.5179 60.5551 87.0926 60.333 87.6287C60.1109 88.1649 59.7854 88.6521 59.375 89.0625H89.0625C89.8913 89.0625 90.6862 88.7333 91.2722 88.1472C91.8583 87.5612 92.1875 86.7663 92.1875 85.9375C92.1875 85.1087 91.8583 84.3138 91.2722 83.7278C90.6862 83.1417 89.8913 82.8125 89.0625 82.8125Z" fill="#FFB431"/>
<path d="M92.1875 76.5625H62.5C62.9104 76.9729 63.2359 77.4601 63.458 77.9963C63.6801 78.5324 63.7945 79.1071 63.7945 79.6875C63.7945 80.2679 63.6801 80.8426 63.458 81.3787C63.2359 81.9149 62.9104 82.4021 62.5 82.8125H92.1875C93.0163 82.8125 93.8112 82.4833 94.3972 81.8972C94.9833 81.3112 95.3125 80.5163 95.3125 79.6875C95.3125 78.8587 94.9833 78.0638 94.3972 77.4778C93.8112 76.8917 93.0163 76.5625 92.1875 76.5625Z" fill="#844E3A"/>
<path d="M76.5625 76.5625H62.5C62.9104 76.9729 63.2359 77.4601 63.458 77.9963C63.6801 78.5324 63.7945 79.1071 63.7945 79.6875C63.7945 80.2679 63.6801 80.8426 63.458 81.3787C63.2359 81.9149 62.9104 82.4021 62.5 82.8125H76.5625C77.3913 82.8125 78.1862 82.4833 78.7722 81.8972C79.3583 81.3112 79.6875 80.5163 79.6875 79.6875C79.6875 78.8587 79.3583 78.0638 78.7722 77.4778C78.1862 76.8917 77.3913 76.5625 76.5625 76.5625Z" fill="#F1DDC1"/>
<path d="M89.0625 70.3125H59.375C59.7854 70.7229 60.1109 71.2101 60.333 71.7463C60.5551 72.2824 60.6695 72.8571 60.6695 73.4375C60.6695 74.0179 60.5551 74.5926 60.333 75.1287C60.1109 75.6649 59.7854 76.1521 59.375 76.5625H89.0625C89.8913 76.5625 90.6862 76.2333 91.2722 75.6472C91.8583 75.0612 92.1875 74.2663 92.1875 73.4375C92.1875 72.6087 91.8583 71.8138 91.2722 71.2278C90.6862 70.6417 89.8913 70.3125 89.0625 70.3125Z" fill="#DE5540"/>
<path d="M73.4375 70.3125H59.375C59.7854 70.7229 60.1109 71.2101 60.333 71.7463C60.5551 72.2824 60.6695 72.8571 60.6695 73.4375C60.6695 74.0179 60.5551 74.5926 60.333 75.1287C60.1109 75.6649 59.7854 76.1521 59.375 76.5625H73.4375C74.2663 76.5625 75.0612 76.2333 75.6472 75.6472C76.2333 75.0612 76.5625 74.2663 76.5625 73.4375C76.5625 72.6087 76.2333 71.8138 75.6472 71.2278C75.0612 70.6417 74.2663 70.3125 73.4375 70.3125Z" fill="#E9D6BB"/>
<path d="M92.1875 89.0625H62.5C62.9104 89.4729 63.2359 89.9601 63.458 90.4963C63.6801 91.0324 63.7945 91.6071 63.7945 92.1875C63.7945 92.7679 63.6801 93.3426 63.458 93.8787C63.2359 94.4149 62.9104 94.9021 62.5 95.3125H92.1875C93.0163 95.3125 93.8112 94.9833 94.3972 94.3972C94.9833 93.8112 95.3125 93.0163 95.3125 92.1875C95.3125 91.3587 94.9833 90.5638 94.3972 89.9778C93.8112 89.3917 93.0163 89.0625 92.1875 89.0625Z" fill="#426887"/>
<path d="M73.4375 82.8125H59.375C59.7854 83.2229 60.1109 83.7101 60.333 84.2463C60.5551 84.7824 60.6695 85.3571 60.6695 85.9375C60.6695 86.5179 60.5551 87.0926 60.333 87.6287C60.1109 88.1649 59.7854 88.6521 59.375 89.0625H73.4375C74.2663 89.0625 75.0612 88.7333 75.6472 88.1472C76.2333 87.5612 76.5625 86.7663 76.5625 85.9375C76.5625 85.1087 76.2333 84.3138 75.6472 83.7278C75.0612 83.1417 74.2663 82.8125 73.4375 82.8125Z" fill="#E9D6BB"/>
<path d="M76.5625 89.0625H62.5C62.9104 89.4729 63.2359 89.9601 63.458 90.4963C63.6801 91.0324 63.7945 91.6071 63.7945 92.1875C63.7945 92.7679 63.6801 93.3426 63.458 93.8787C63.2359 94.4149 62.9104 94.9021 62.5 95.3125H76.5625C77.3913 95.3125 78.1862 94.9833 78.7722 94.3972C79.3583 93.8112 79.6875 93.0163 79.6875 92.1875C79.6875 91.3587 79.3583 90.5638 78.7722 89.9778C78.1862 89.3917 77.3913 89.0625 76.5625 89.0625Z" fill="#F1DDC1"/>
<path d="M95.3125 3.125H46.875V6.25H91.5402L86.8527 10.9375H53.125V14.0625H85.9375V54.6875H81.2639L82.6066 52.3377L79.8934 50.7873L74.0934 60.9375H68.75V64.0625H93.75V67.1875H96.875V4.6875C96.875 4.2731 96.7104 3.87567 96.4174 3.58265C96.1243 3.28962 95.7269 3.125 95.3125 3.125ZM93.75 60.9375H81.25V57.8125H93.75V60.9375ZM93.75 54.6875H89.0625V13.1473L93.75 8.45977V54.6875Z" fill="black"/>
<path d="M15.625 14.0625V10.9375H13.1473L8.45977 6.25H18.75V3.125H4.6875C4.2731 3.125 3.87567 3.28962 3.58265 3.58265C3.28962 3.87567 3.125 4.2731 3.125 4.6875V53.125H6.25V8.45977L10.9375 13.1473V51.5625H14.0625V14.0625H15.625Z" fill="black"/>
<path d="M28.125 31.25C29.8509 31.25 31.25 29.8509 31.25 28.125C31.25 26.3991 29.8509 25 28.125 25C26.3991 25 25 26.3991 25 28.125C25 29.8509 26.3991 31.25 28.125 31.25Z" fill="black"/>
<path d="M40.625 31.25C42.3509 31.25 43.75 29.8509 43.75 28.125C43.75 26.3991 42.3509 25 40.625 25C38.8991 25 37.5 26.3991 37.5 28.125C37.5 29.8509 38.8991 31.25 40.625 31.25Z" fill="black"/>
<path d="M31.25 39.0625H32.4436C34.9835 39.0594 37.4882 38.4681 39.7613 37.335L38.3637 34.54C36.5246 35.4566 34.4983 35.935 32.4436 35.9375H31.25V39.0625Z" fill="black"/>
<path d="M25 87.8622V79.9698L51.3059 84.354C51.3907 84.368 51.4765 84.3751 51.5625 84.375H54.6875V81.25H51.6918L46.875 80.4471V79.0907L51.9314 76.5625H54.6875V73.4375H51.5625C51.3199 73.4375 51.0806 73.494 50.8637 73.6026L44.8242 76.6223L39.5508 77.5012L39.0762 68.9592L40.0074 66.1399L41.3832 66.9653C41.5811 67.0794 41.8009 67.1504 42.0281 67.1737C42.2554 67.197 42.485 67.1721 42.702 67.1006C42.9183 67.0252 43.1153 66.903 43.2792 66.7429C43.4431 66.5828 43.5697 66.3886 43.6502 66.1741L47.8375 55.0077L59.1729 58.0999C60.1285 58.3601 60.972 58.9275 61.5732 59.7146C62.1745 60.5017 62.5002 61.4647 62.5 62.4551V65.625H65.625V62.4551C65.6252 60.7791 65.0741 59.1495 64.0568 57.8175C63.0394 56.4856 61.6122 55.5252 59.9951 55.0844L43.75 50.4362V45.3041C45.6903 43.8503 47.2652 41.9646 48.3501 39.7964C49.4349 37.6281 49.9998 35.237 50 32.8125V32.6147C51.3421 32.2687 52.5312 31.4864 53.3802 30.3908C54.2292 29.2953 54.6899 27.9486 54.6899 26.5625C54.6899 25.1765 54.2292 23.8298 53.3802 22.7343C52.5312 21.6387 51.3421 20.8564 50 20.5104V15.625C50 15.5512 50 15.4778 49.9945 15.4065C49.9375 13.0724 49.0123 10.8434 47.3999 9.1549C45.7874 7.46637 43.6034 6.43957 41.2744 6.27505C39.0315 4.24006 36.1092 3.11659 33.0807 3.12505H31.25C27.5217 3.12923 23.9473 4.61216 21.3109 7.24848C18.6746 9.88481 17.1917 13.4592 17.1875 17.1875V21.1534C16.1128 21.7736 15.2471 22.6997 14.7007 23.8138C14.1544 24.9278 13.9521 26.1793 14.1197 27.4088C14.2873 28.6382 14.8172 29.7899 15.6418 30.7171C16.4665 31.6442 17.5485 32.3048 18.75 32.6147V32.8125C18.7502 35.237 19.3151 37.6281 20.3999 39.7964C21.4848 41.9646 23.0598 43.8503 25 45.3041V50.4362L8.75527 55.0846C7.13966 55.5279 5.71405 56.4889 4.69705 57.8203C3.68005 59.1516 3.12781 60.7798 3.125 62.4551V65.625H6.25V62.4551C6.2516 61.465 6.57797 60.5028 7.17904 59.7161C7.78012 58.9293 8.6227 58.3615 9.57754 58.0997L20.9121 55.0077L25.0994 66.1741C25.1799 66.3886 25.3065 66.5828 25.4704 66.7429C25.6343 66.903 25.8313 67.0252 26.0477 67.1006C26.2645 67.1726 26.4942 67.1977 26.7215 67.1744C26.9489 67.1511 27.1687 67.0798 27.3664 66.9653L28.7266 66.1493L29.6732 68.9637L29.1992 77.502L23.9268 76.6231L18.75 74.0344V68.75H15.625V72.4719L14.7613 72.0401C14.5444 71.9315 14.3051 71.875 14.0625 71.875H6.25V68.75H3.125V89.2344C3.12727 91.2601 3.933 93.2022 5.3654 94.6346C6.7978 96.067 8.7399 96.8728 10.7656 96.875C10.7656 96.875 22.1463 96.8573 22.2777 96.8221L28.2133 95.2389L28.1273 96.8221H31.2477L31.39 94.3915L34.375 93.5954L37.3609 94.3918L37.5033 96.8221H40.6236L40.5377 95.2401L46.4732 96.8221C46.6047 96.8573 57.9854 96.875 57.9854 96.875V93.75H47.0799L25 87.8622ZM50 23.8569C50.475 24.131 50.8695 24.5254 51.1438 25.0003C51.4181 25.4753 51.5625 26.0141 51.5625 26.5625C51.5625 27.111 51.4181 27.6498 51.1438 28.1248C50.8695 28.5997 50.475 28.9941 50 29.2682V23.8569ZM34.3736 78.3635L32.3 78.018L32.7281 70.3125H36.0219L36.45 78.0174L34.3736 78.3635ZM36.3705 67.1875H32.373L31.4699 64.5028L34.375 62.7598L37.2611 64.4915L36.3705 67.1875ZM28.125 50.9961V47.129C30.0956 47.992 32.2237 48.4375 34.375 48.4375C36.5263 48.4375 38.6544 47.992 40.625 47.129V50.9961L34.375 58.4961L28.125 50.9961ZM44.8426 54.0938L41.383 63.3204L36.7434 60.5364L42.7051 53.3823L44.8426 54.0938ZM42.1875 9.5729C43.5283 9.92096 44.7158 10.7039 45.564 11.7991C46.4123 12.8942 46.8733 14.2398 46.875 15.625V19.634C45.7335 19.0534 44.7265 18.2397 43.919 17.2456C43.1116 16.2515 42.5217 15.0991 42.1875 13.8627V9.5729ZM18.75 29.2682C18.275 28.9941 17.8805 28.5997 17.6062 28.1248C17.3319 27.6498 17.1875 27.111 17.1875 26.5625C17.1875 26.0141 17.3319 25.4753 17.6062 25.0003C17.8805 24.5254 18.275 24.131 18.75 23.8569V29.2682ZM20.3125 20.3125V17.1875C20.3125 17.0243 20.3178 16.8624 20.3248 16.7008C25.4806 14.8307 30.7909 13.418 36.1943 12.479L35.6807 9.39614C30.7316 10.2471 25.8576 11.4885 21.1045 13.1088C21.92 11.0851 23.3214 9.35099 25.1291 8.12897C26.9367 6.90695 29.0681 6.25268 31.25 6.25005H33.0807C35.2807 6.24383 37.4075 7.04005 39.0625 8.4895V13.4041C34.4051 17.8548 28.2061 20.3304 21.7641 20.3125H20.3125ZM21.875 32.8125V23.4362C28.4983 23.4291 34.9049 21.076 39.9582 16.7944C41.3544 19.7016 43.8393 21.942 46.875 23.0309V32.8125C46.875 36.1278 45.558 39.3072 43.2138 41.6514C40.8696 43.9956 37.6902 45.3125 34.375 45.3125C31.0598 45.3125 27.8804 43.9956 25.5362 41.6514C23.192 39.3072 21.875 36.1278 21.875 32.8125ZM27.367 63.3204L23.9074 54.0948L26.0449 53.3823L32.0066 60.5364L27.367 63.3204ZM6.25 75H13.6936L21.875 79.0907V87.411C18.8453 87.0662 16.0232 85.7003 13.873 83.5381L13.6051 83.27C13.4599 83.1249 13.2876 83.0098 13.098 82.9313C12.9084 82.8529 12.7052 82.8125 12.5 82.8125H6.25V75ZM21.6701 93.75H10.7656C9.56843 93.7486 8.42068 93.2725 7.57414 92.4259C6.7276 91.5794 6.2514 90.4316 6.25 89.2344V85.9375H11.8555C14.8993 88.8992 18.9662 90.5758 23.2129 90.6198L28.3105 91.9788L21.6701 93.75Z" fill="black"/>
<path d="M28.125 84.375H31.25V87.5H28.125V84.375Z" fill="black"/>
<path d="M96.875 79.6875C96.8735 78.6591 96.5345 77.6597 95.9099 76.8427C95.2854 76.0257 94.4099 75.4364 93.4179 75.1652C93.7005 74.4544 93.8048 73.6852 93.7215 72.9249C93.6383 72.1645 93.3702 71.4361 92.9405 70.8032C92.5109 70.1704 91.9328 69.6524 91.2568 69.2945C90.5808 68.9366 89.8274 68.7496 89.0625 68.75H59.375C59.066 68.75 58.7639 68.8417 58.507 69.0134C58.2501 69.185 58.0498 69.429 57.9316 69.7145C57.8133 70 57.7824 70.3141 57.8426 70.6172C57.9029 70.9203 58.0516 71.1987 58.2701 71.4172C58.8051 71.9534 59.1055 72.68 59.1055 73.4375C59.1055 74.195 58.8051 74.9216 58.2701 75.4578C58.0516 75.6763 57.9029 75.9547 57.8426 76.2578C57.7824 76.5609 57.8133 76.875 57.9316 77.1605C58.0498 77.446 58.2501 77.69 58.507 77.8616C58.7639 78.0333 59.066 78.125 59.375 78.125H61.7664C62.0689 78.59 62.23 79.1328 62.23 79.6875C62.23 80.2422 62.0689 80.785 61.7664 81.25H59.375C59.066 81.25 58.7639 81.3417 58.507 81.5134C58.2501 81.685 58.0498 81.929 57.9316 82.2145C57.8133 82.5 57.7824 82.8141 57.8426 83.1172C57.9029 83.4203 58.0516 83.6987 58.2701 83.9172C58.8051 84.4534 59.1055 85.18 59.1055 85.9375C59.1055 86.695 58.8051 87.4216 58.2701 87.9578C58.0516 88.1763 57.9029 88.4547 57.8426 88.7578C57.7824 89.0609 57.8133 89.375 57.9316 89.6605C58.0498 89.946 58.2501 90.19 58.507 90.3616C58.7639 90.5333 59.066 90.625 59.375 90.625H61.7664C62.1243 91.1744 62.2827 91.8299 62.2151 92.4821C62.1476 93.1343 61.8582 93.7435 61.3953 94.2078C61.1768 94.4263 61.0281 94.7047 60.9678 95.0078C60.9076 95.3108 60.9385 95.6249 61.0567 95.9104C61.175 96.1959 61.3752 96.4399 61.6321 96.6116C61.889 96.7833 62.191 96.8749 62.5 96.875H92.1875C93.3226 96.8742 94.4189 96.4616 95.2728 95.7137C96.1267 94.9658 96.6802 93.9334 96.8306 92.8083C96.9809 91.6831 96.7178 90.5416 96.0902 89.5958C95.4626 88.6499 94.5131 87.964 93.4179 87.6652C93.86 86.5558 93.86 85.3192 93.4179 84.2098C94.4099 83.9386 95.2854 83.3493 95.9099 82.5323C96.5345 81.7153 96.8735 80.7159 96.875 79.6875ZM62.023 75C62.2978 73.9765 62.2978 72.8985 62.023 71.875H89.0625C89.4769 71.875 89.8743 72.0396 90.1673 72.3326C90.4604 72.6257 90.625 73.0231 90.625 73.4375C90.625 73.8519 90.4604 74.2493 90.1673 74.5424C89.8743 74.8354 89.4769 75 89.0625 75H62.023ZM62.023 87.5C62.2978 86.4765 62.2978 85.3985 62.023 84.375H89.0625C89.4769 84.375 89.8743 84.5396 90.1673 84.8326C90.4604 85.1257 90.625 85.5231 90.625 85.9375C90.625 86.3519 90.4604 86.7493 90.1673 87.0424C89.8743 87.3354 89.4769 87.5 89.0625 87.5H62.023ZM93.75 92.1875C93.7495 92.6018 93.5847 92.9989 93.2918 93.2918C92.9989 93.5848 92.6017 93.7495 92.1875 93.75H65.148C65.4228 92.7265 65.4228 91.6485 65.148 90.625H92.1875C92.6017 90.6255 92.9989 90.7902 93.2918 91.0832C93.5847 91.3761 93.7495 91.7732 93.75 92.1875ZM92.1875 81.25H65.148C65.4228 80.2265 65.4228 79.1485 65.148 78.125H92.1875C92.6019 78.125 92.9993 78.2896 93.2923 78.5826C93.5854 78.8757 93.75 79.2731 93.75 79.6875C93.75 80.1019 93.5854 80.4993 93.2923 80.7924C92.9993 81.0854 92.6019 81.25 92.1875 81.25Z" fill="black"/>
</svg>
