<svg width="100" height="100" viewBox="0 0 100 100" fill="none" xmlns="http://www.w3.org/2000/svg">
<path d="M66.5234 47.6953C66.2891 47.1094 66.5625 46.4844 67.1094 46.25H67.1484L66.6016 44.9219L65.7812 42.9297C65.5469 42.3438 65.8203 41.7187 66.4063 41.4844C66.0938 40.6641 65.8203 39.7656 65.7031 38.8672C65.625 38.4375 65.5859 37.9688 65.5469 37.5391C65.5469 37.3438 65.5469 37.1484 65.5469 36.9141C65.5469 36.2891 65.5859 35.7031 65.7031 35.0781C65.7422 34.8828 65.7813 34.6875 65.8203 34.4922C65.9766 33.9063 66.1719 33.3203 66.4063 32.7734C66.7188 32.0703 67.0703 31.25 67.3828 30.4297C67.4609 30.2734 67.5 30.0781 67.5781 29.9219C67.8125 29.2187 68.0469 28.5156 68.2422 27.8516C68.4375 27.1484 68.5938 26.4062 68.6328 25.625C68.6328 25.2344 68.6719 24.8437 68.6719 24.4531C68.6719 24.4141 68.6719 24.375 68.6719 24.3359C68.5938 24.2969 68.4766 24.2969 68.3984 24.2969C60.4688 24.0625 56.2891 20.8984 54.6484 19.3359C54.2578 18.9453 53.5938 18.9453 53.2031 19.3359C53.1641 19.375 53.1641 19.375 53.125 19.4141C46.0938 28.125 35.7813 26.9141 32.3438 26.1719C32.0703 26.0938 31.7578 26.1719 31.5234 26.3672C31.8359 28.3203 32.8516 30.9375 33.6719 32.7344C34.0625 33.5938 34.2969 34.5313 34.4531 35.4688C34.4922 35.625 34.4922 35.8203 34.4922 35.9766C34.4922 36.0938 34.5313 36.2109 34.5313 36.3281C34.5313 36.7188 34.5313 37.0703 34.5313 37.4609C34.4922 38.3203 34.3359 39.2188 34.1016 40.0391C33.9844 40.5078 33.8281 40.9375 33.6719 41.3672C34.2578 41.6016 34.5313 42.2656 34.2969 42.8125L32.9297 46.1719H32.9688C33.5156 46.4062 33.7891 47.0703 33.5938 47.6172L32.7734 50C35.7813 57.0312 42.6953 61.5625 50.3516 61.6016C57.7734 61.5625 64.5313 57.2656 67.6563 50.5469L66.5234 47.6953Z" fill="#F9D0B4"/>
<path d="M43.2024 39.8828C42.1086 39.8828 41.2102 38.9844 41.2493 37.8906C41.2883 36.7969 42.1477 35.8984 43.2415 35.9375C44.3352 35.9375 45.1946 36.8359 45.1946 37.8906C45.1555 39.0234 44.2962 39.8828 43.2024 39.8828Z" fill="#E9E9EA"/>
<path d="M57.7734 39.8828C56.6797 39.8828 55.7812 38.9844 55.7812 37.9297C55.7812 36.8359 56.6797 35.9375 57.7344 35.9375C58.8281 35.9375 59.7266 36.8359 59.7266 37.8906C59.7656 38.9844 58.8672 39.8828 57.7734 39.8828Z" fill="#E9E9EA"/>
<path d="M68.6328 24.2578C68.6328 23.8672 68.6328 23.4766 68.6719 23.0859C68.6719 22.8125 68.7109 22.5781 68.7109 22.3047C68.75 21.9531 68.75 21.6406 68.8281 21.2891C68.8672 21.0547 68.9063 20.8594 68.9453 20.6641C68.9844 20.4688 69.0234 20.3125 69.0625 20.1562C69.4141 19.0234 70.1172 18.2812 71.4453 18.3203C71.5625 18.3203 71.7188 18.3594 71.8359 18.3984C72.2266 18.5156 72.5781 18.75 72.8125 19.0625C72.9297 19.1797 73.0078 19.2969 73.0859 19.4141L71.0547 14.5703L69.0234 9.72656C68.5156 8.47656 69.0625 7.07031 70.3125 6.5625C70.4297 6.52344 70.5859 6.44531 70.7031 6.44531C67.2656 4.45312 63.0469 4.45313 59.6484 6.52344C57.6953 3.20313 54.1406 1.17188 50.2734 1.17188H44.6484C39.3359 1.17188 34.2578 3.32031 30.5469 7.10938C30.9766 7.57813 31.2109 8.125 31.2109 8.75V8.78906C31.2109 9.10156 31.1328 9.41406 31.0156 9.72656L26.9141 19.4531C27.2266 18.8281 27.8516 18.3984 28.5547 18.3594C31.4453 18.2422 31.2891 21.8359 31.3672 24.9219C31.3672 25.1172 31.3672 25.3516 31.4063 25.5469C31.4063 25.8203 31.4453 26.0938 31.4844 26.3281C31.7187 26.1328 32.0312 26.0938 32.3047 26.1328C35.7812 26.875 46.0547 28.0859 53.0469 19.2969C53.3984 18.8672 54.0625 18.7891 54.4922 19.1406C54.5313 19.1797 54.5312 19.1797 54.5703 19.2188C56.1719 20.7812 60.3516 23.9453 68.3203 24.1797C68.4375 24.2188 68.5156 24.2578 68.6328 24.2578Z" fill="#6D6C6B"/>
<path d="M66.3679 32.7345C67.2664 30.6642 68.5164 27.5392 68.5945 25.547C68.7507 22.3048 68.3601 18.2423 71.446 18.3595C72.1492 18.3986 72.7742 18.8282 73.0867 19.4532L68.9851 9.72668C68.4773 8.47668 69.0632 7.07043 70.2742 6.52355C71.407 6.0548 72.7351 6.48449 73.321 7.53918L78.7117 16.8751C80.5085 20.3517 80.8601 24.3751 79.7273 28.0861L77.696 34.6486C77.5788 35.3517 77.5398 36.0548 77.657 36.7579L66.407 41.4454C65.8992 40.1954 65.5867 38.8673 65.5085 37.5001C65.3914 35.8595 65.7039 34.2189 66.3679 32.7345Z" fill="#F9D0B4"/>
<path d="M50.1953 61.6797C47.2266 61.6797 44.2969 60.9766 41.6797 59.6484V65.3516L45.4688 73.7891C45.7813 74.4531 46.4062 74.8828 47.1484 74.8828H53.5547C54.2578 74.8828 54.8828 74.4922 55.1953 73.8672L59.2969 65.3906V59.375C56.5234 60.8984 53.3984 61.6797 50.1953 61.6797Z" fill="#F9D0B4"/>
<path d="M33.633 32.7345C32.7346 30.6642 31.4846 27.5392 31.4064 25.547C31.2892 22.3048 31.6408 18.2423 28.5549 18.3595C27.8517 18.3986 27.2267 18.8282 26.9142 19.4532L31.0158 9.72668C31.5236 8.47668 30.9377 7.07043 29.6877 6.52355C28.5549 6.0548 27.2658 6.48449 26.6408 7.53918L21.2892 16.9532C19.4924 20.3907 19.1408 24.4142 20.2736 28.1251L22.3049 34.6876C22.4221 35.3907 22.4611 36.0939 22.3439 36.797L33.5939 41.4454C34.1017 40.1954 34.4142 38.8673 34.4924 37.5001C34.6096 35.8595 34.2971 34.2189 33.633 32.7345Z" fill="#F9D0B4"/>
<path d="M66.406 41.4453L78.5544 36.4453C79.1403 36.2109 79.7653 36.4843 79.9997 37.0703L81.3669 40.4297L67.1482 46.289L65.781 42.9297C65.5466 42.3437 65.82 41.6797 66.406 41.4453Z" fill="#E9E9EA"/>
<path d="M68.2422 67.3828L63.8281 80.625C63.4766 81.4844 62.5391 81.875 61.6797 81.5234C61.4062 81.4063 61.2109 81.25 61.0156 81.0156L55.1953 73.7891L59.2969 65.3125L68.2422 67.3828Z" fill="#E9E9EA"/>
<path d="M37.1484 80.625C37.5 81.4844 38.4375 81.875 39.2969 81.5234C39.5703 81.4063 39.7656 81.25 39.9609 81.0156L45.5859 73.9844C45.5469 73.9063 45.4688 73.8281 45.4297 73.7109L41.6406 65.2734L32.6953 67.3437L37.1484 80.625Z" fill="#E9E9EA"/>
<path d="M33.5938 41.4453L21.4453 36.4453C20.8594 36.2109 20.2344 36.4843 20 37.0703L18.6328 40.4297L32.8516 46.289L34.2188 42.9297C34.4531 42.3437 34.1797 41.6797 33.5938 41.4453Z" fill="#E9E9EA"/>
<path d="M92.2263 87.7734C96.7575 85.8984 98.906 80.7422 97.031 76.2109L82.8513 40.9765C82.6169 40.3906 81.9528 40.1172 81.406 40.3515L67.1091 46.25C66.5232 46.4843 66.2497 47.1484 66.4841 47.6953L80.6638 82.9297C82.5388 87.4609 87.7341 89.6093 92.2263 87.7734Z" fill="#60BAE2"/>
<path d="M7.77343 87.7734C3.24219 85.8984 1.09375 80.7422 2.96875 76.2109L17.1484 40.9765C17.3828 40.3906 18.0469 40.1172 18.5937 40.3515L32.8906 46.25C33.4766 46.4843 33.75 47.1484 33.5156 47.6953L19.3359 82.9297C17.4609 87.4609 12.2656 89.6093 7.77343 87.7734Z" fill="#60BAE2"/>
<path d="M11.3672 88.4375L11.7578 88.3984C11.6016 88.3984 11.4844 88.4375 11.3672 88.4375Z" fill="#60BAE2"/>
<path d="M80.7031 82.9687L74.9219 68.6328L68.2422 67.4219L63.8281 80.6641C63.4766 81.5234 62.5391 81.9141 61.6797 81.5625C61.4063 81.4453 61.2109 81.2891 61.0156 81.0547L55.1953 73.8281C54.8828 74.4531 54.2578 74.8438 53.5547 74.8438H47.1484C46.5234 74.8438 45.9766 74.5312 45.625 74.0234L40 81.0547C39.4141 81.7578 38.3984 81.875 37.6953 81.2891C37.4609 81.1328 37.3047 80.8984 37.1875 80.625L32.7734 67.3828L25 68.7891L19.2969 82.9687C18.0859 85.9375 15.3516 88.0078 12.1875 88.3984L26.5234 87.1875C27.2656 87.1094 27.9688 87.6953 28.0078 88.4375C28.0078 88.4766 28.0078 88.5156 28.0078 88.5547V97.4609C28.0078 98.3203 28.7109 99.0234 29.5703 99.0234H71.4063C72.2656 99.0234 72.9688 98.3203 72.9688 97.4609V88.5547C72.9688 87.7734 73.5938 87.1875 74.3359 87.1875C74.375 87.1875 74.4141 87.1875 74.4531 87.1875L86.9141 88.2422C84.1016 87.5781 81.7969 85.625 80.7031 82.9687Z" fill="#60BAE2"/>
<path d="M56.6006 52.0312C56.2881 52.0312 55.9757 51.875 55.7803 51.6015C53.7881 48.6718 49.8038 47.8906 46.8741 49.8828C46.21 50.3515 45.585 50.9375 45.1553 51.6015C44.8428 52.0312 44.2569 52.1484 43.7881 51.875C43.3194 51.6015 43.2413 50.9765 43.5147 50.5078C46.0928 46.6796 51.2881 45.664 55.1553 48.2421C56.0538 48.8281 56.796 49.6093 57.421 50.5078C57.7335 50.9375 57.6163 51.5625 57.1475 51.875C56.9913 51.9921 56.796 52.0312 56.6006 52.0312Z" fill="#231F20"/>
<path d="M43.204 40.8595C41.5633 40.8595 40.2352 39.5314 40.2743 37.8907C40.2743 36.2501 41.6024 34.922 43.243 34.961C44.8837 34.961 46.1727 36.2892 46.1727 37.8907C46.1337 39.5314 44.8446 40.8595 43.204 40.8595ZM43.204 36.9142C42.9696 36.9142 42.7352 36.9923 42.579 37.1485C42.1493 37.5001 42.1102 38.1251 42.4618 38.5548C42.8133 38.9845 43.4383 39.0235 43.868 38.672C44.1024 38.4767 44.2196 38.2032 44.2196 37.8907C44.2196 37.422 43.868 36.9923 43.3993 36.9142C43.3212 36.9142 43.243 36.9142 43.204 36.9142Z" fill="#231F20"/>
<path d="M57.7734 40.8594C56.1328 40.8594 54.8047 39.5312 54.8047 37.9297C54.8047 36.2891 56.1328 34.9609 57.7344 34.9609C59.375 34.9609 60.7031 36.2891 60.7031 37.8906C60.7422 39.5313 59.4141 40.8594 57.7734 40.8594ZM57.7734 36.9141C57.5391 36.9141 57.3047 36.9922 57.1484 37.1484C56.7188 37.5 56.6797 38.125 56.9922 38.5547C57.1875 38.7891 57.4609 38.9062 57.7734 38.9062C58.3203 38.9062 58.75 38.4766 58.75 37.8906C58.75 37.4219 58.3984 36.9922 57.9297 36.9141C57.8906 36.9141 57.8516 36.9141 57.7734 36.9141Z" fill="#231F20"/>
<path d="M37.2661 27.6563C35.5473 27.6563 33.8286 27.5 32.1489 27.1484H32.1098C31.6801 27.4609 31.0551 27.3828 30.7426 26.9531C30.6645 26.8359 30.5864 26.6797 30.5864 26.5625C30.5864 26.5625 30.5864 26.5234 30.5864 26.4844C30.4692 26.1719 30.4692 25.8984 30.4301 25.5859C30.4301 25.3906 30.4301 25.1562 30.3911 24.9609C30.3911 24.7266 30.3911 24.4922 30.3911 24.2578C30.352 22.4219 30.313 20.3125 29.5317 19.6094C29.2583 19.375 28.9458 19.2969 28.5942 19.3359C28.477 19.3359 28.1255 19.375 27.7348 19.9609C27.4614 20.4297 26.8364 20.5469 26.4067 20.2734C26.0161 20.0391 25.8208 19.4922 26.0161 19.0625L30.1176 9.375C30.1958 9.21875 30.2348 9.02344 30.2348 8.86719C30.2348 8.82812 30.2348 8.82812 30.2348 8.78906C30.2348 8.4375 30.0786 8.08594 29.8442 7.8125C29.4926 7.42188 29.4926 6.83594 29.8442 6.44531C33.7114 2.46094 39.063 0.195312 44.6489 0.195312H50.2739C54.1411 0.234375 57.7348 2.07031 59.9614 5.23438C63.5161 3.4375 67.7348 3.59375 71.1723 5.625C71.6411 5.89844 71.7973 6.48437 71.5239 6.95312C71.4067 7.1875 71.1723 7.34375 70.8989 7.42188C70.4301 7.53906 70.0786 7.85156 69.8833 8.28125C69.7661 8.63281 69.7661 9.02344 69.8833 9.375L73.9848 19.1016C74.1801 19.6094 73.9458 20.1562 73.477 20.3906C73.0473 20.5859 72.5395 20.4297 72.2661 20C72.227 19.9219 72.1489 19.8438 72.0708 19.7266C71.9536 19.5703 71.7583 19.4531 71.602 19.375C71.563 19.375 71.4848 19.3359 71.4067 19.3359C70.7817 19.2969 70.313 19.4922 70.0005 20.4688C69.9614 20.5859 69.9223 20.7422 69.8833 20.8984C69.8442 21.0938 69.8051 21.25 69.8051 21.4453C69.7661 21.7188 69.727 22.0312 69.727 22.3828C69.727 22.6172 69.688 22.8906 69.688 23.125C69.688 23.5156 69.6489 23.8672 69.6489 24.2578C69.6489 24.5703 69.4926 24.8438 69.2192 25.0391C68.9848 25.2344 68.6333 25.2734 68.3598 25.1953H68.3208C60.2348 24.9609 55.8598 21.7969 53.9458 19.9609C53.9067 19.9219 53.9067 19.9219 53.8676 19.9609C48.7895 26.2891 42.0708 27.6563 37.2661 27.6563ZM32.3833 25.1953C32.4223 25.1953 32.4614 25.1953 32.5395 25.2344C36.3286 26.0156 45.7817 26.9922 52.3051 18.75C53.0083 17.8906 54.2583 17.7344 55.1176 18.4375C55.1567 18.4766 55.2348 18.5156 55.2739 18.5938C56.602 19.8828 60.3911 22.8516 67.6567 23.2422C67.6567 23.2031 67.6567 23.1641 67.6567 23.0859C67.6567 22.8125 67.6958 22.5391 67.6958 22.2656C67.7348 21.875 67.7739 21.5234 67.813 21.1719C67.852 20.8984 67.8911 20.6641 67.9301 20.4688C67.9692 20.2734 68.0473 20.0781 68.0864 19.8828C68.7114 17.9297 70.0005 17.4219 71.1333 17.3828L68.0864 10.1172C67.5786 8.90625 67.813 7.53906 68.6723 6.5625C65.8598 5.50781 62.6958 5.78125 60.1176 7.34375C59.6489 7.61719 59.063 7.46094 58.7895 6.99219C56.9926 3.98438 53.7505 2.14844 50.2739 2.10938H44.6489C39.8833 2.10938 35.2739 3.94531 31.8364 7.22656C31.9536 7.42188 32.0317 7.65625 32.0708 7.89063C32.1489 8.16406 32.188 8.39844 32.188 8.67188C32.188 8.71094 32.188 8.75 32.188 8.78906C32.188 9.25781 32.1098 9.6875 31.9145 10.1172L28.8676 17.3828C29.6098 17.3828 30.352 17.6562 30.8989 18.2031C32.2661 19.4922 32.3051 21.875 32.3833 24.2188C32.3833 24.4531 32.3833 24.6875 32.3833 24.9219C32.3833 25 32.3833 25.1172 32.3833 25.1953Z" fill="#231F20"/>
<path d="M50.1948 62.6562C42.1479 62.6562 34.9213 57.8515 31.7182 50.4687C31.6401 50.2343 31.601 49.9999 31.6791 49.7656L32.4994 47.3828V47.3437V47.3046C32.4994 47.2265 32.4604 47.1874 32.4213 47.1484C31.9135 46.9531 31.6791 46.3671 31.8744 45.8593L33.2416 42.4999V42.4609C33.2416 42.4218 33.2026 42.3437 33.1635 42.3437C32.6557 42.1484 32.4213 41.5624 32.6166 41.0937C32.7729 40.7031 32.9291 40.2734 33.0073 39.8437C33.2416 39.0624 33.3588 38.2812 33.4369 37.4609C33.476 37.1093 33.476 36.7578 33.4369 36.4453C33.4369 36.3281 33.4369 36.2499 33.3979 36.1327C33.3979 35.9765 33.3588 35.8202 33.3588 35.6249C33.2416 34.7656 33.0073 33.9453 32.6557 33.1249C31.9135 31.2499 30.8588 28.5546 30.5463 26.5234C30.5072 26.1718 30.6244 25.8202 30.9369 25.5859C31.4057 25.2343 31.9916 25.1171 32.5385 25.2343C36.3276 26.0156 45.7807 26.9921 52.3432 18.7499C53.0463 17.8906 54.2963 17.7343 55.1557 18.4374C55.1948 18.4765 55.2729 18.5156 55.3119 18.5937C56.6791 19.9218 60.6635 23.0468 68.3979 23.2812C68.5932 23.2812 68.7885 23.3202 68.9448 23.3984C69.3354 23.5156 69.6088 23.9062 69.6088 24.3359V24.414C69.6088 24.8437 69.5698 25.2734 69.5698 25.664C69.5307 26.4843 69.3744 27.3046 69.1401 28.0859C68.9838 28.7499 68.7494 29.4531 68.4369 30.2343C68.3588 30.4296 68.3198 30.5859 68.2416 30.7812C67.9291 31.5624 67.6166 32.3827 67.2651 33.2031C67.0307 33.7109 66.8744 34.2187 66.7182 34.7656C66.6791 34.9609 66.6401 35.1171 66.601 35.3124C66.5229 35.8593 66.4448 36.4062 66.4448 36.9531C66.4448 37.1484 66.4448 37.3046 66.4448 37.4999C66.4838 37.9296 66.5229 38.3202 66.601 38.7109C66.7573 39.5312 66.9526 40.3515 67.2651 41.1328C67.4604 41.6406 67.226 42.1874 66.7182 42.3828C66.6401 42.4218 66.601 42.4999 66.6401 42.5781L68.0073 45.9374C68.2026 46.4453 67.9682 46.9921 67.4604 47.2265C67.3823 47.2265 67.3432 47.3046 67.3432 47.3828V47.4218V47.4609L68.3588 50.3515C68.4369 50.5859 68.4369 50.8593 68.3198 51.0937C65.1166 58.0859 58.0073 62.6171 50.1948 62.6562ZM33.7104 50.039C37.851 59.1406 48.5541 63.2031 57.6948 59.1015C61.5229 57.3828 64.6479 54.3359 66.4838 50.5468L65.6244 48.0468C65.351 47.3046 65.4682 46.4843 65.976 45.8984L64.8823 43.2421C64.5698 42.4999 64.726 41.6796 65.2338 41.0937C64.9994 40.3906 64.8432 39.6874 64.726 38.9843C64.6479 38.5156 64.5698 38.0468 64.5698 37.539C64.5698 37.3046 64.5307 37.1093 64.5307 36.8749C64.5307 36.2109 64.5698 35.5468 64.6869 34.8828C64.726 34.6484 64.7651 34.4531 64.8041 34.2187C64.9604 33.5546 65.1948 32.9296 65.4291 32.3046C65.7807 31.5234 66.0932 30.7421 66.3666 29.9999C66.4448 29.8437 66.4838 29.6484 66.5619 29.4921C66.8354 28.7499 67.0307 28.0859 67.1869 27.4999C67.3823 26.8359 67.4994 26.1718 67.5385 25.5077C67.5385 25.3906 67.5385 25.2734 67.5385 25.1562C59.8432 24.7656 55.6635 21.7577 53.8276 19.9609H53.7885C53.7885 19.9609 53.7494 19.9609 53.7494 19.9999C46.7182 28.8281 36.3666 27.9687 32.5776 27.2656C33.0463 29.0234 33.6713 30.7031 34.4135 32.3827C34.8432 33.3593 35.1166 34.3749 35.2729 35.3906C35.3119 35.5859 35.3119 35.7812 35.351 35.9765C35.351 36.1327 35.3901 36.2499 35.3901 36.3671C35.4291 36.7968 35.4291 37.1874 35.3901 37.6171C35.3119 38.5546 35.1557 39.4921 34.9213 40.3906C34.8432 40.664 34.7651 40.8984 34.6869 41.1328C35.1948 41.7187 35.351 42.5781 35.0385 43.3203L33.9448 45.9765C34.4526 46.5624 34.5698 47.3828 34.2963 48.1249L33.7104 50.039Z" fill="#231F20"/>
<path d="M88.8676 89.414C84.8832 89.414 81.2895 86.9921 79.7661 83.3203L65.6254 48.0859C65.1957 47.0312 65.7036 45.8203 66.7582 45.3515L81.0551 39.4531C82.1098 39.0234 83.3598 39.5312 83.7895 40.5859L97.9692 75.8203C100.039 80.8203 97.6176 86.5624 92.6176 88.6328C91.4067 89.1406 90.1567 89.414 88.8676 89.414ZM81.8364 41.2499H81.7973L67.5004 47.1484C67.4223 47.1874 67.3833 47.2656 67.4223 47.3437L81.602 82.5781C83.2426 86.6015 87.852 88.5156 91.8754 86.8359C95.8989 85.1953 97.8129 80.5859 96.1723 76.5625L81.9926 41.3281C81.9536 41.289 81.9145 41.2499 81.8364 41.2499Z" fill="#231F20"/>
<path d="M67.1489 47.2265C66.7582 47.2265 66.4067 46.9921 66.2504 46.6015L64.8832 43.2421C64.4536 42.1874 64.9614 40.9374 66.0161 40.5078L78.2036 35.5468C79.2582 35.1171 80.5082 35.6249 80.9379 36.6796L82.3051 40.039C82.5004 40.5468 82.2661 41.0937 81.7582 41.3281L67.5395 47.1875C67.4223 47.1875 67.3051 47.2265 67.1489 47.2265ZM66.7582 42.3437C66.6801 42.3828 66.6411 42.4609 66.6801 42.539L67.6957 44.9999L80.1176 39.8828L79.102 37.4218C79.0629 37.3437 78.9848 37.3046 78.9067 37.3437L66.7582 42.3437Z" fill="#231F20"/>
<path d="M66.4068 42.4219C66.0162 42.4219 65.6646 42.1875 65.5083 41.7969C64.9615 40.4297 64.649 39.0235 64.5708 37.5782C64.4537 35.7813 64.7662 33.9844 65.5083 32.3438C66.8365 29.336 67.5787 26.9141 67.6568 25.5078C67.6568 25.0782 67.6958 24.6485 67.6958 24.2188C67.7349 21.875 67.813 19.4532 69.1802 18.2032C69.7271 17.6953 70.4693 17.4219 71.2115 17.3828L68.1646 10.1172C67.4224 8.3594 68.2427 6.36721 70.0005 5.66409C71.6021 5.00003 73.438 5.62503 74.2974 7.1094L79.688 16.4453C79.688 16.4453 79.688 16.4844 79.7271 16.4844C81.6412 20.1563 82.0318 24.4532 80.7818 28.4375L78.7505 34.961C78.6333 35.5469 78.6333 36.1328 78.7115 36.7188C78.7505 37.1485 78.5162 37.5782 78.1255 37.7344L66.8755 42.3438C66.6412 42.3828 66.524 42.4219 66.4068 42.4219ZM71.2896 19.336C70.9771 19.2969 70.6646 19.4141 70.4693 19.6094C69.7271 20.3125 69.649 22.4219 69.6099 24.2578C69.6099 24.7266 69.5708 25.1563 69.5708 25.586C69.4927 27.6953 68.2818 30.8594 67.2662 33.125C66.6802 34.4922 66.4068 35.9766 66.4849 37.4219C66.524 38.3203 66.7193 39.2578 66.9927 40.1172L76.6021 36.1719C76.563 35.586 76.6021 35.0391 76.7583 34.4532C76.7583 34.4141 76.7583 34.4141 76.7583 34.375L78.7896 27.8125C79.8833 24.336 79.5318 20.586 77.8521 17.3828L72.5005 8.0469C72.1099 7.34378 71.2115 7.1094 70.5083 7.50003C69.8833 7.85159 69.6099 8.63284 69.8833 9.33596L73.9849 19.0625C74.1802 19.5703 73.9458 20.1172 73.4771 20.3516C73.0474 20.5469 72.5396 20.3907 72.2662 19.961C71.8755 19.336 71.524 19.336 71.4068 19.336C71.3677 19.336 71.3287 19.336 71.2896 19.336Z" fill="#231F20"/>
<path d="M74.1788 26.9923H74.1397C73.5929 26.9532 73.2022 26.5235 73.2022 25.9767C73.2413 24.922 73.2022 21.797 72.3429 20.1954C72.1085 19.7267 72.2648 19.1407 72.7726 18.8673C73.2413 18.6329 73.8272 18.7892 74.1007 19.297C75.3507 21.7189 75.1554 25.8985 75.1554 26.0548C75.1554 26.5626 74.7257 26.9923 74.1788 26.9923Z" fill="#231F20"/>
<path d="M62.2656 82.6172C61.4844 82.6172 60.7422 82.2656 60.2344 81.6406L54.4141 74.4141C54.1797 74.1016 54.1406 73.7109 54.2969 73.3594L58.3984 64.8828C58.5937 64.4922 59.0625 64.2578 59.4922 64.375L68.4375 66.4453C68.9453 66.5625 69.2969 67.1094 69.1797 67.6172C69.1797 67.6562 69.1797 67.6953 69.1406 67.6953L64.7266 80.9375C64.7266 80.9765 64.7266 80.9765 64.6875 80.9765C64.3359 81.8359 63.5547 82.4609 62.6562 82.5781C62.5391 82.6172 62.4219 82.6172 62.2656 82.6172ZM56.3281 73.6719L61.7578 80.4297C61.9922 80.7031 62.4219 80.7812 62.6953 80.5469C62.7734 80.4687 62.8516 80.3906 62.8906 80.3125L66.9531 68.125L59.8437 66.4844L56.3281 73.6719Z" fill="#231F20"/>
<path d="M38.7118 82.6172C38.5946 82.6172 38.4384 82.6172 38.3212 82.5782C37.3837 82.461 36.6025 81.836 36.29 80.9766C36.29 80.9766 36.29 80.9375 36.2509 80.9375L31.8368 67.6953C31.6806 67.1875 31.954 66.6407 32.4618 66.4453C32.5009 66.4453 32.54 66.4453 32.54 66.4063L41.4853 64.336C41.954 64.2188 42.4228 64.4532 42.579 64.8829L46.3681 73.3203C46.3681 73.3594 46.4071 73.3985 46.4462 73.4375C46.6806 73.7891 46.6415 74.2578 46.4071 74.5703L40.7821 81.6016C40.2353 82.2657 39.4931 82.6172 38.7118 82.6172ZM38.0868 80.2735C38.2431 80.625 38.6337 80.7813 38.9853 80.625C39.0634 80.586 39.1806 80.5078 39.2196 80.4297L44.454 73.9063L41.0946 66.4844L33.9853 68.125L38.0868 80.2735Z" fill="#231F20"/>
<path d="M53.5547 75.8203H47.1484C46.0547 75.8203 45.0391 75.1562 44.6094 74.1797L40.8203 65.7422C40.7812 65.625 40.7422 65.4687 40.7422 65.3515V59.6484C40.7422 59.1015 41.1719 58.6719 41.7188 58.6719C41.875 58.6719 42.0312 58.7109 42.1484 58.789C44.6484 60.039 47.4219 60.7031 50.2344 60.7031C53.2422 60.7031 56.2109 59.9609 58.8672 58.5156C59.3359 58.2422 59.9219 58.4375 60.1953 58.9062C60.2734 59.0625 60.3125 59.2187 60.3125 59.375V65.3515C60.3125 65.5078 60.2734 65.664 60.2344 65.7812L56.0547 74.2187C55.5859 75.1953 54.6094 75.8203 53.5547 75.8203ZM42.6562 65.1172L46.3672 73.3594C46.5234 73.6719 46.7969 73.8672 47.1484 73.8672H53.5547C53.8672 73.8672 54.1797 73.6718 54.3359 73.3984L58.3594 65.1172V60.9375C55.8203 62.0703 53.0469 62.6562 50.2344 62.6562C47.6563 62.6562 45.0781 62.1484 42.6953 61.1719L42.6562 65.1172Z" fill="#231F20"/>
<path d="M11.1328 89.414C5.70312 89.414 1.32812 84.9999 1.32812 79.5702C1.32812 78.2812 1.5625 77.0312 2.07031 75.8593L16.2109 40.6249C16.6406 39.5702 17.8906 39.0234 18.9453 39.4921L33.2422 45.3905C34.2969 45.8202 34.8047 47.0702 34.375 48.1249L20.1953 83.3593C18.7109 86.9921 15.1172 89.414 11.1328 89.414ZM18.1641 41.2499C18.125 41.2499 18.0469 41.289 18.0469 41.328L3.86719 76.6015C2.1875 80.6249 4.0625 85.2343 8.08594 86.914C12.1094 88.5937 16.7187 86.7187 18.3984 82.6952C18.3984 82.6562 18.4375 82.6171 18.4375 82.578L32.6172 47.3437C32.6172 47.3046 32.6172 47.2655 32.6172 47.2265C32.6172 47.1874 32.5781 47.1484 32.5391 47.1484L18.2422 41.2499C18.2031 41.289 18.1641 41.2499 18.1641 41.2499Z" fill="#231F20"/>
<path d="M32.8517 47.2265C32.7346 47.2265 32.6174 47.1874 32.4611 47.1484L18.2424 41.289C17.7346 41.0937 17.5002 40.5078 17.6955 39.9999L19.0627 36.6406C19.4924 35.5859 20.7424 35.0781 21.7971 35.5078L33.9846 40.5468C35.0392 40.9765 35.5471 42.2265 35.1174 43.2812L33.7502 46.6406C33.5939 46.9921 33.2424 47.2265 32.8517 47.2265ZM19.883 39.8437L32.3049 44.9609L33.3205 42.4999C33.3596 42.4218 33.3205 42.3437 33.2424 42.3046L21.0549 37.3437C20.9767 37.3046 20.8986 37.3437 20.8596 37.4218L19.883 39.8437Z" fill="#231F20"/>
<path d="M33.5939 42.4218C33.4768 42.4218 33.3596 42.3828 33.2033 42.3437L21.9924 37.7343C21.6018 37.5781 21.3283 37.1484 21.4064 36.7187C21.4846 36.1328 21.4846 35.5468 21.3674 34.9609L19.3361 28.4375C18.0861 24.4531 18.4768 20.1953 20.3908 16.4843C20.3908 16.4843 20.3908 16.4453 20.4299 16.4453L25.8205 7.10934C26.758 5.46872 28.8283 4.88278 30.4689 5.85934C31.9533 6.71872 32.5783 8.55466 31.9143 10.1562L28.8674 17.4218C29.6096 17.4218 30.3518 17.6953 30.8986 18.2422C32.2658 19.5312 32.3049 21.914 32.383 24.2578C32.383 24.6875 32.4221 25.1172 32.4221 25.5468C32.5002 26.9531 33.2424 29.375 34.5705 32.3828C35.2736 34.0234 35.6252 35.8203 35.508 37.6172C35.4299 39.0625 35.0783 40.5078 34.5705 41.8359C34.3752 42.1875 34.0236 42.4218 33.5939 42.4218ZM23.3986 36.1718L33.008 40.1172C33.2814 39.2578 33.4377 38.3203 33.5158 37.4218C33.594 35.9375 33.3596 34.4531 32.7346 33.125C31.719 30.8593 30.508 27.6953 30.4299 25.5859C30.3908 25.1562 30.3908 24.6875 30.3908 24.2578C30.3518 22.4218 30.3127 20.3125 29.5314 19.6093C29.258 19.375 28.9455 19.2968 28.5939 19.3359C28.4768 19.3359 28.1252 19.375 27.7346 19.9609C27.4611 20.4297 26.8361 20.5468 26.4064 20.2734C26.0158 20.039 25.8205 19.4922 26.0158 19.0625L30.1174 9.37497C30.4299 8.63278 30.0783 7.77341 29.3361 7.46091C28.6721 7.18747 27.8518 7.42184 27.5002 8.08591L22.1486 17.4218C20.4689 20.664 20.1564 24.414 21.2111 27.8515L23.2424 34.414C23.2424 34.4531 23.2424 34.4531 23.2424 34.4922C23.3986 35.039 23.4377 35.625 23.3986 36.1718Z" fill="#231F20"/>
<path d="M25.8197 26.9921C25.3119 26.9921 24.8822 26.5624 24.8431 26.0546C24.8431 25.8593 24.6478 21.6796 25.8978 19.2968C26.1322 18.8281 26.7181 18.6328 27.2259 18.8671C27.6947 19.1015 27.89 19.6874 27.6556 20.1953C26.8353 21.7968 26.7572 24.9218 26.7962 25.9765C26.8353 26.5234 26.4056 26.9531 25.8587 26.9921H25.8197Z" fill="#231F20"/>
<path d="M11.3672 89.4141C10.8203 89.4141 10.3906 88.9844 10.3906 88.4375C10.3906 87.8907 10.8203 87.461 11.3281 87.461C11.4062 87.461 11.5234 87.461 11.6016 87.461H11.6406C12.1875 87.4219 12.6562 87.8516 12.6953 88.3594C12.7344 88.9063 12.3438 89.336 11.7969 89.4141L11.4063 89.4532C11.4063 89.4141 11.4062 89.4141 11.3672 89.4141Z" fill="#231F20"/>
<path d="M71.407 100H29.5711C28.1648 100 27.032 98.8672 27.032 97.461V88.5547C27.032 88.3204 26.8367 88.1641 26.6414 88.1641H26.6023L12.2664 89.3751C11.7195 89.4141 11.2507 89.0235 11.2117 88.4766C11.1726 87.9688 11.5632 87.5001 12.0711 87.4219C14.8836 87.0704 17.3445 85.2344 18.3992 82.6172L24.1023 68.4766C24.2195 68.1641 24.4929 67.9297 24.8445 67.8907L32.5789 66.4844C33.0476 66.4063 33.5164 66.6797 33.6726 67.1485L38.0867 80.3516C38.2429 80.7032 38.6336 80.8594 38.9851 80.7032C39.0632 80.6641 39.1804 80.586 39.2195 80.5079L44.8445 73.4766C45.1961 73.0469 45.782 73.0079 46.2117 73.3204C46.2898 73.3985 46.3679 73.4766 46.407 73.5547C46.5632 73.7891 46.8367 73.9454 47.1101 73.9454H53.5164C53.8289 73.9454 54.1414 73.7501 54.2976 73.4766C54.532 73.0079 55.1179 72.7735 55.5867 73.0079C55.7039 73.086 55.8211 73.1641 55.9382 73.2813L61.7586 80.5079C61.9929 80.7813 62.4226 80.8594 62.6961 80.6251C62.7742 80.5469 62.8523 80.4688 62.8914 80.3907L67.3054 67.1876C67.4617 66.7188 67.9304 66.4454 68.3992 66.5235L75.0789 67.7344C75.3914 67.8126 75.7039 68.0079 75.8211 68.3204L81.6023 82.6563C82.5789 85.0391 84.6492 86.7579 87.1492 87.3438C87.657 87.461 88.0086 87.9688 87.8914 88.5157C87.7742 88.9844 87.3445 89.2969 86.8757 89.2579L74.4148 88.2032C74.1804 88.2032 73.9851 88.3594 73.9851 88.5938V88.6329V97.5391C73.9461 98.8672 72.8133 100 71.407 100ZM26.6414 86.1719C27.9304 86.1719 28.9851 87.2266 28.9851 88.5157V97.4219C28.9851 97.7344 29.2586 98.0079 29.5711 98.0079H71.407C71.7195 98.0079 71.9929 97.7344 71.9929 97.4219V88.5157C71.9929 87.2266 73.0476 86.1719 74.3367 86.1719C74.4148 86.1719 74.4539 86.1719 74.532 86.1719L82.2273 86.7969C81.1726 85.8204 80.3133 84.6094 79.7664 83.2813L74.2195 69.4532L68.907 68.5157L64.7664 80.9376C64.7664 80.9766 64.7664 80.9766 64.7273 80.9766C64.1804 82.3048 62.657 82.9688 61.3289 82.4219C60.8992 82.2657 60.5476 81.9922 60.2742 81.6407L55.1961 75.3126C54.7273 75.6251 54.1804 75.8204 53.5945 75.8204H47.1882C46.6804 75.8204 46.2117 75.7032 45.782 75.4298L40.7429 81.6407C39.8445 82.7735 38.2039 82.9297 37.0711 82.0313C36.7195 81.7579 36.4461 81.4063 36.2898 80.9766C36.2898 80.9766 36.2898 80.9376 36.2507 80.9376L32.1101 68.5157L25.7429 69.6485L20.2351 83.3204C19.6492 84.6876 18.7898 85.9376 17.657 86.9532L26.4461 86.211C26.4851 86.211 26.5632 86.1719 26.6414 86.1719Z" fill="#231F20"/>
<path d="M50.5078 82.6954C50.4297 82.6954 50.3906 82.6954 50.3125 82.6563C50.2344 82.6563 50.1953 82.6173 50.1172 82.6173C50.0391 82.5782 50 82.5782 49.9609 82.5391C49.9219 82.5001 49.8438 82.461 49.8047 82.422C49.4141 82.0313 49.4141 81.4454 49.8047 81.0548C49.8438 81.0157 49.8828 80.9766 49.9609 80.9376C50 80.8985 50.0781 80.8595 50.1172 80.8595C50.1953 80.8204 50.2344 80.8204 50.3125 80.8204C50.8594 80.7032 51.3672 81.0548 51.4453 81.6016C51.5625 82.1485 51.2109 82.6563 50.6641 82.7345C50.625 82.6954 50.5469 82.6954 50.5078 82.6954Z" fill="#231F20"/>
<path d="M50.5078 87.8125C50.4297 87.8125 50.3906 87.8125 50.3125 87.7735C50.2344 87.7735 50.1953 87.7344 50.1172 87.7344C50.0391 87.6953 50 87.6953 49.9609 87.6563C49.9219 87.6172 49.8438 87.5782 49.8047 87.5391C49.4141 87.1485 49.4141 86.5625 49.8047 86.1719C49.8438 86.1329 49.8828 86.0938 49.9609 86.0547C50 86.0157 50.0781 85.9766 50.1172 85.9766C50.4688 85.8204 50.8984 85.8985 51.1719 86.1719C51.5625 86.5625 51.5625 87.1875 51.1719 87.5391C51.0156 87.6953 50.7422 87.8125 50.5078 87.8125Z" fill="#231F20"/>
<path d="M50.5078 92.9296C50.4297 92.9296 50.3906 92.9296 50.3125 92.8906C50.2344 92.8906 50.1953 92.8515 50.1172 92.8515C50.0391 92.8124 50 92.8124 49.9609 92.7734C49.9219 92.7343 49.8437 92.6952 49.8047 92.6562C49.6094 92.4609 49.5312 92.2265 49.5312 91.9531C49.5312 91.8749 49.5312 91.8359 49.5703 91.7577C49.5703 91.6796 49.6094 91.6406 49.6484 91.5624C49.6875 91.4843 49.6875 91.4452 49.7266 91.4062C49.8047 91.289 49.8828 91.2109 50 91.1327C50.0391 91.0937 50.1172 91.0546 50.1562 91.0546C50.2344 91.0156 50.2734 91.0156 50.3516 91.0156C50.6641 90.9374 51.0156 91.0546 51.2109 91.289C51.25 91.3281 51.2891 91.3671 51.3281 91.4452C51.3672 91.4843 51.4063 91.5624 51.4063 91.6015C51.4453 91.6796 51.4453 91.7187 51.4453 91.7968C51.4453 91.8749 51.4844 91.914 51.4844 91.9921C51.4844 92.4999 51.0156 92.9296 50.5078 92.9296Z" fill="#231F20"/>
</svg>
